<svg 
            xmlns:xlink="http://www.w3.org/1999/xlink" viewBox="0 0 800 800" xmlns="http://www.w3.org/2000/svg">
<rect fill="#100A0B" height="800" stroke="none" width="800" x="0" y="0"/>
<path d="M388,383 L394,383 L425,412 L412,418 L402,414 z" fill="none" stroke="none" stroke-width="0"/>
<linearGradient id="gradient_face0" x1="0" x2="1.01" y1="0" y2="1.01">
<stop offset="0%" stop-color="#CC6677FF"/>
<stop offset="100%" stop-color="#CC6677FF"/>
</linearGradient>
<path d="M394.62878,388 L393.1414,388 Q392.02588,388,399.26526,394.77234 L408.9178,403.80212 Q416.15717,410.57446,414.86765,411.16962 L413.1483,411.96317 Q411.85876,412.55835,410.0194,411.8226 L407.56696,410.8416 Q405.7276,410.10587,402.7326,403.47412 L398.7393,394.63177 Q395.7443,388,394.62878,388 z" fill="url(#gradient_face0)" stroke="none" stroke-width="0"/>
<path d="M379,382 L388,383 L402,414 L362,413 L361,399 z" fill="none" stroke="none" stroke-width="0"/>
<linearGradient id="gradient_face1" x1="0" x2="1.01" y1="0" y2="1.01">
<stop offset="0%" stop-color="#4E2E84FF"/>
<stop offset="100%" stop-color="#332288FF"/>
</linearGradient>
<path d="M381.90942,387.35403 L383.456,387.52588 Q384.6159,387.65475,387.4811,393.9991 L391.30136,402.45825 Q394.16653,408.8026,385.9157,408.59634 L374.91464,408.3213 Q366.66382,408.11502,366.5115,405.98285 L366.30844,403.13995 Q366.15616,401.00775,370.53415,396.873 L376.3715,391.35992 Q380.74948,387.22516,381.90942,387.35403 z" fill="url(#gradient_face1)" stroke="none" stroke-width="0"/>
<path d="M432,359 L446,385 L430,411 L425,412 L394,383 z" fill="none" stroke="none" stroke-width="0"/>
<linearGradient id="gradient_face2" x1="0" x2="1.01" y1="0" y2="1.01">
<stop offset="0%" stop-color="#9F8E7DFF"/>
<stop offset="100%" stop-color="#DDCC77FF"/>
</linearGradient>
<path d="M433.16647,371.71262 L437.20367,379.21027 Q440.23157,384.8335,436.2271,391.34073 L430.88782,400.01706 Q426.88336,406.5243,426.78012,406.54495 L426.64246,406.57248 Q426.5392,406.59314,419.22034,399.74643 L409.46182,390.61752 Q402.14294,383.7708,410.54163,378.4664 L421.7399,371.3938 Q430.13858,366.0894,433.16647,371.71262 z" fill="url(#gradient_face2)" stroke="none" stroke-width="0"/>
<path d="M357,435 L362,413 L402,414 L412,418 L389,465 z" fill="none" stroke="none" stroke-width="0"/>
<linearGradient id="gradient_face3" x1="0" x2="1.01" y1="0" y2="1.01">
<stop offset="0%" stop-color="#80A558FF"/>
<stop offset="100%" stop-color="#117733FF"/>
</linearGradient>
<path d="M363.54813,428.74924 L364.93106,422.6644 Q365.96823,418.10077,376.4709,418.36334 L390.47443,418.7134 Q400.97705,418.97598,402.22617,419.47565 L403.89166,420.1418 Q405.14078,420.64148,399.8435,431.46634 L392.7805,445.89948 Q387.48322,456.72433,379.99152,449.7009 L370.00262,440.3363 Q362.51096,433.31287,363.54813,428.74924 z" fill="url(#gradient_face3)" stroke="none" stroke-width="0"/>
<path d="M377,325 L377,324 L431,344 L432,359 L394,383 L388,383 L379,382 z" fill="none" stroke="none" stroke-width="0"/>
<linearGradient id="gradient_face4" x1="0" x2="1.01" y1="0" y2="1.01">
<stop offset="0%" stop-color="#318E66FF"/>
<stop offset="100%" stop-color="#88CCEEFF"/>
</linearGradient>
<path d="M382,326.79373 L382,329.30234 Q382,331.18378,395.26794,336.09784 L412.95856,342.6499 Q426.2265,347.56396,426.40247,350.20343 L426.6371,353.72275 Q426.81305,356.36224,416.5351,362.85355 L402.83118,371.50867 Q392.55325,378,391.27036,378 L389.5598,378 Q388.27692,378,386.94748,377.8523 L385.1749,377.65533 Q383.84546,377.5076,383.2918,361.72903 L382.55365,340.6909 Q382,324.9123,382,326.79373 z" fill="url(#gradient_face4)" stroke="none" stroke-width="0"/>
<path d="M425,412 L430,411 L459,462 L457,470 L392,471 L389,465 L412,418 z" fill="none" stroke="none" stroke-width="0"/>
<linearGradient id="gradient_face5" x1="0" x2="1.01" y1="0" y2="1.01">
<stop offset="0%" stop-color="#88BCE0FF"/>
<stop offset="100%" stop-color="#882255FF"/>
</linearGradient>
<path d="M426.8232,416.73438 L427.17502,416.664 Q427.43887,416.61124,435.30627,430.447 L445.7961,448.89465 Q453.6635,462.7304,453.48883,463.4292 L453.2559,464.3609 Q453.0812,465.0597,435.67673,465.32745 L412.47076,465.68448 Q395.06628,465.95224,394.9199,465.65942 L394.72467,465.26898 Q394.57825,464.97617,400.91766,452.02173 L409.37018,434.74918 Q415.7096,421.79474,418.9645,420.29245 L423.30444,418.28943 Q426.55936,416.78714,426.8232,416.73438 z" fill="url(#gradient_face5)" stroke="none" stroke-width="0"/>
<path d="M311,352 L377,325 L379,382 L361,399 L314,367 z" fill="none" stroke="none" stroke-width="0"/>
<linearGradient id="gradient_face6" x1="0" x2="1.01" y1="0" y2="1.01">
<stop offset="0%" stop-color="#883162FF"/>
<stop offset="100%" stop-color="#44AA99FF"/>
</linearGradient>
<path d="M333.37485,348.24887 L355.59186,339.1601 Q372.25458,332.3435,372.75537,346.61548 L373.42307,365.64474 Q373.92383,379.91672,369.89374,383.7229 L364.5203,388.79782 Q360.4902,392.60403,347.89383,384.02777 L331.0987,372.59277 Q318.50232,364.01654,317.96527,361.3312 L317.24918,357.75076 Q316.7121,355.06543,333.37485,348.24887 z" fill="url(#gradient_face6)" stroke="none" stroke-width="0"/>
<path d="M499,393 L511,411 L459,462 L430,411 L446,385 z" fill="none" stroke="none" stroke-width="0"/>
<linearGradient id="gradient_face7" x1="0" x2="1.01" y1="0" y2="1.01">
<stop offset="0%" stop-color="#568486FF"/>
<stop offset="100%" stop-color="#999833FF"/>
</linearGradient>
<path d="M498.60968,401.4284 L502.0004,406.51447 Q504.54343,410.329,491.2212,423.39505 L473.4582,440.81644 Q460.13596,453.88248,452.8379,441.0479 L443.1071,423.93515 Q435.80902,411.1006,439.6237,404.9017 L444.70993,396.63657 Q448.52463,390.4377,462.78723,392.59055 L481.80405,395.46103 Q496.06665,397.61386,498.60968,401.4284 z" fill="url(#gradient_face7)" stroke="none" stroke-width="0"/>
<path d="M314,367 L361,399 L362,413 L357,435 L307,451 L282,437 z" fill="none" stroke="none" stroke-width="0"/>
<linearGradient id="gradient_face8" x1="0" x2="1.01" y1="0" y2="1.01">
<stop offset="0%" stop-color="#72A061FF"/>
<stop offset="100%" stop-color="#AA4499FF"/>
</linearGradient>
<path d="M328.11426,382.6586 L344.1548,393.5798 Q356.18518,401.7707,356.41757,405.02423 L356.72742,409.36224 Q356.9598,412.61578,355.69897,418.16345 L354.01788,425.56033 Q352.75705,431.10797,339.19385,435.4482 L321.10962,441.23517 Q307.54642,445.57538,301.82138,442.36935 L294.18796,438.09464 Q288.4629,434.8886,296.74918,416.76233 L307.79758,392.59396 Q316.0839,374.46768,328.11426,382.6586 z" fill="url(#gradient_face8)" stroke="none" stroke-width="0"/>
<path d="M469,310 L503,312 L499,393 L446,385 L432,359 L431,344 z" fill="none" stroke="none" stroke-width="0"/>
<linearGradient id="gradient_face9" x1="0" x2="1.01" y1="0" y2="1.01">
<stop offset="0%" stop-color="#9F7A58FF"/>
<stop offset="100%" stop-color="#DCDCDCFF"/>
</linearGradient>
<path d="M478.87692,315.58963 L489.66827,316.22443 Q497.76178,316.7005,496.7169,337.8596 L495.3237,366.07166 Q494.2788,387.23074,480.7604,385.19022 L462.73587,382.46954 Q449.21747,380.42902,445.52725,373.57574 L440.60696,364.43808 Q436.91675,357.5848,436.68707,354.13947 L436.3808,349.5457 Q436.15112,346.10034,446.5408,336.8043 L460.39374,324.40958 Q470.78342,315.11356,478.87692,315.58963 z" fill="url(#gradient_face9)" stroke="none" stroke-width="0"/>
<path d="M307,451 L357,435 L389,465 L392,471 L372,517 L335,532 z" fill="none" stroke="none" stroke-width="0"/>
<linearGradient id="gradient_face10" x1="0" x2="1.01" y1="0" y2="1.01">
<stop offset="0%" stop-color="#B35FA5FF"/>
<stop offset="100%" stop-color="#000000FF"/>
</linearGradient>
<path d="M326.09552,450.1392 L343.0264,444.7213 Q355.72455,440.6579,364.48553,448.87134 L376.16684,459.82257 Q384.92783,468.036,385.3946,468.96948 L386.0169,470.21417 Q386.48364,471.14764,381.00723,483.74344 L373.70535,500.53778 Q368.2289,513.13354,359.16153,516.8095 L347.07166,521.7108 Q338.00427,525.3868,330.6222,504.03152 L320.77945,475.55786 Q313.39737,454.2026,326.09552,450.1392 z" fill="url(#gradient_face10)" stroke="none" stroke-width="0"/>
<path d="M377,276 L408,240 L469,310 L431,344 L377,324 z" fill="none" stroke="none" stroke-width="0"/>
<linearGradient id="gradient_face11" x1="0" x2="1.01" y1="0" y2="1.01">
<stop offset="0%" stop-color="#CC6677FF"/>
<stop offset="100%" stop-color="#CC6677FF"/>
</linearGradient>
<path d="M389.80676,268.7902 L400.21576,256.70233 Q408.0225,247.63643,424.21225,266.2148 L445.79855,290.986 Q461.9883,309.5644,452.3652,318.17453 L439.5344,329.65472 Q429.91132,338.26486,415.5379,332.94138 L396.37338,325.8434 Q382,320.51993,382,307.7208 L382,290.65527 Q382,277.8561,389.80676,268.7902 z" fill="url(#gradient_face11)" stroke="none" stroke-width="0"/>
<path d="M392,471 L457,470 L475,510 L460,562 L372,517 z" fill="none" stroke="none" stroke-width="0"/>
<linearGradient id="gradient_face12" x1="0" x2="1.01" y1="0" y2="1.01">
<stop offset="0%" stop-color="#4E2E84FF"/>
<stop offset="100%" stop-color="#332288FF"/>
</linearGradient>
<path d="M412.8469,475.67987 L436.2427,475.31995 Q453.78955,475.05,458.55884,485.64835 L464.91785,499.7795 Q469.68713,510.3779,465.84402,523.7006 L460.71988,541.46436 Q456.87677,554.7871,433.35114,542.75696 L401.9836,526.71674 Q378.45798,514.6866,383.51062,503.06555 L390.24744,487.57083 Q395.30005,475.94983,412.8469,475.67987 z" fill="url(#gradient_face12)" stroke="none" stroke-width="0"/>
<path d="M273,268 L274,266 L377,276 L377,324 L377,325 L311,352 L281,326 z" fill="none" stroke="none" stroke-width="0"/>
<linearGradient id="gradient_face13" x1="0" x2="1.01" y1="0" y2="1.01">
<stop offset="0%" stop-color="#9F8E7DFF"/>
<stop offset="100%" stop-color="#DDCC77FF"/>
</linearGradient>
<path d="M277.79605,269.58823 L277.30453,270.57126 Q276.93588,271.30856,305.45514,274.0774 L343.48077,277.76923 Q372,280.5381,372,293.57666 L372,310.96143 Q372,324,372,323.29297 L372,322.35028 Q372,321.64325,353.98553,329.0128 L329.96625,338.83887 Q311.9518,346.2084,304.07507,339.38193 L293.5728,330.27997 Q285.6961,323.45346,283.43668,307.0727 L280.42413,285.2317 Q278.1647,268.85092,277.79605,269.58823 z" fill="url(#gradient_face13)" stroke="none" stroke-width="0"/>
<path d="M511,411 L545,420 L577,470 L577,480 L475,510 L457,470 L459,462 z" fill="none" stroke="none" stroke-width="0"/>
<linearGradient id="gradient_face14" x1="0" x2="1.01" y1="0" y2="1.01">
<stop offset="0%" stop-color="#80A558FF"/>
<stop offset="100%" stop-color="#117733FF"/>
</linearGradient>
<path d="M521.2807,418.89355 L533.02783,422.0031 Q541.83826,424.33527,550.8868,438.4736 L562.9515,457.32468 Q572,471.463,572,472.90176 L572,474.82007 Q572,476.25882,543.73126,484.57315 L506.0396,495.65894 Q477.7709,503.97327,473.12103,493.64026 L466.92123,479.8629 Q462.2714,469.52994,462.64252,468.04544 L463.13736,466.06613 Q463.50848,464.58163,478.19702,450.17557 L497.78174,430.96747 Q512.4703,416.5614,521.2807,418.89355 z" fill="url(#gradient_face14)" stroke="none" stroke-width="0"/>
<path d="M281,326 L311,352 L314,367 L282,437 L253,441 L202,409 L196,394 z" fill="none" stroke="none" stroke-width="0"/>
<linearGradient id="gradient_face15" x1="0" x2="1.01" y1="0" y2="1.01">
<stop offset="0%" stop-color="#318E66FF"/>
<stop offset="100%" stop-color="#88CCEEFF"/>
</linearGradient>
<path d="M288.54016,339.1513 L298.7644,348.0123 Q306.4326,354.65805,307.13672,358.17865 L308.07553,362.87274 Q308.77966,366.39334,299.72424,386.20203 L287.6504,412.61362 Q278.59497,432.42233,271.25177,433.43518 L261.46082,434.78564 Q254.11761,435.7985,239.69354,426.7481 L220.46144,414.6809 Q206.03737,405.6305,204.83215,402.6175 L203.22522,398.60013 Q202.02,395.58713,225.6756,376.66263 L257.2164,351.43002 Q280.87198,332.50552,288.54016,339.1513 z" fill="url(#gradient_face15)" stroke="none" stroke-width="0"/>
<path d="M523,300 L584,307 L600,323 L545,420 L511,411 L499,393 L503,312 z" fill="none" stroke="none" stroke-width="0"/>
<linearGradient id="gradient_face16" x1="0" x2="1.01" y1="0" y2="1.01">
<stop offset="0%" stop-color="#88BCE0FF"/>
<stop offset="100%" stop-color="#882255FF"/>
</linearGradient>
<path d="M541.3909,307.14325 L564.4233,309.78632 Q581.6975,311.7686,585.32025,315.39136 L590.15063,320.22168 Q593.7734,323.84442,578.40704,350.94507 L557.9186,387.07922 Q542.55225,414.17987,534.01953,411.9212 L522.64264,408.90967 Q514.1099,406.651,511.09952,402.1354 L507.08566,396.11462 Q504.0753,391.59903,505.21136,368.5934 L506.72614,337.91925 Q507.8622,314.91364,512.7385,311.98782 L519.24036,308.08676 Q524.11664,305.16095,541.3909,307.14325 z" fill="url(#gradient_face16)" stroke="none" stroke-width="0"/>
<path d="M253,441 L282,437 L307,451 L335,532 L325,547 L266,566 L238,556 z" fill="none" stroke="none" stroke-width="0"/>
<linearGradient id="gradient_face17" x1="0" x2="1.01" y1="0" y2="1.01">
<stop offset="0%" stop-color="#883162FF"/>
<stop offset="100%" stop-color="#44AA99FF"/>
</linearGradient>
<path d="M264.5313,444.45682 L273.95398,443.15714 Q281.021,442.18237,287.58356,445.85742 L296.33368,450.75748 Q302.89624,454.43253,310.86664,477.48972 L321.4938,508.23264 Q329.4642,531.2898,327.1671,534.7355 L324.1043,539.32965 Q321.8072,542.7753,305.08997,548.1588 L282.80032,555.33685 Q266.0831,560.7204,259.30206,558.2986 L250.26065,555.0695 Q243.47961,552.6477,247.67502,520.48285 L253.2689,477.5964 Q257.46432,445.43158,264.5313,444.45682 z" fill="url(#gradient_face17)" stroke="none" stroke-width="0"/>
<path d="M457,186 L493,184 L523,300 L503,312 L469,310 L408,240 L411,230 z" fill="none" stroke="none" stroke-width="0"/>
<linearGradient id="gradient_face18" x1="0" x2="1.01" y1="0" y2="1.01">
<stop offset="0%" stop-color="#568486FF"/>
<stop offset="100%" stop-color="#999833FF"/>
</linearGradient>
<path d="M468.14063,190.38878 L480.1662,189.7207 Q489.1854,189.21964,497.59692,221.74417 L508.8123,265.11023 Q517.2238,297.63477,512.5822,300.4197 L506.39343,304.133 Q501.75186,306.91794,492.64328,306.38214 L480.4985,305.66772 Q471.38992,305.13193,454.0475,285.23077 L430.9242,258.69586 Q413.58176,238.79468,414.1302,236.96655 L414.86145,234.52904 Q415.40988,232.70091,428.52335,220.1576 L446.00797,203.43317 Q459.12143,190.88985,468.14063,190.38878 z" fill="url(#gradient_face18)" stroke="none" stroke-width="0"/>
<path d="M335,532 L372,517 L460,562 L461,566 L436,626 L399,646 L325,547 z" fill="none" stroke="none" stroke-width="0"/>
<linearGradient id="gradient_face19" x1="0" x2="1.01" y1="0" y2="1.01">
<stop offset="0%" stop-color="#72A061FF"/>
<stop offset="100%" stop-color="#AA4499FF"/>
</linearGradient>
<path d="M348.34195,531.9864 L361.72336,526.56146 Q371.75943,522.4928,396.9417,535.3701 L430.51813,552.53986 Q455.7004,565.4172,455.71457,565.47375 L455.73343,565.5492 Q455.74756,565.60583,448.6429,582.657 L439.17004,605.3919 Q432.06537,622.4431,422.5718,627.57477 L409.91373,634.417 Q400.4202,639.54865,379.62988,611.73456 L351.9095,574.6492 Q331.11917,546.8351,333.2752,543.6011 L336.14987,539.28906 Q338.3059,536.05505,348.34195,531.9864 z" fill="url(#gradient_face19)" stroke="none" stroke-width="0"/>
<path d="M272,202 L301,164 L411,230 L408,240 L377,276 L274,266 z" fill="none" stroke="none" stroke-width="0"/>
<linearGradient id="gradient_face20" x1="0" x2="1.01" y1="0" y2="1.01">
<stop offset="0%" stop-color="#9F7A58FF"/>
<stop offset="100%" stop-color="#DCDCDCFF"/>
</linearGradient>
<path d="M284.61572,193.71071 L294.69928,180.49779 Q302.26193,170.5881,333.11145,189.09782 L374.24417,213.77745 Q405.0937,232.28717,404.6206,233.86418 L403.98978,235.96686 Q403.5167,237.54387,394.93253,247.51257 L383.48697,260.80417 Q374.9028,270.7729,346.09003,267.97552 L307.67297,264.2457 Q278.8602,261.44836,278.31805,244.09996 L277.5952,220.96878 Q277.05307,203.62039,284.61572,193.71071 z" fill="url(#gradient_face20)" stroke="none" stroke-width="0"/>
<path d="M577,480 L604,533 L592,586 L461,566 L460,562 L475,510 z" fill="none" stroke="none" stroke-width="0"/>
<linearGradient id="gradient_face21" x1="0" x2="1.01" y1="0" y2="1.01">
<stop offset="0%" stop-color="#B35FA5FF"/>
<stop offset="100%" stop-color="#000000FF"/>
</linearGradient>
<path d="M581.71747,500.27527 L591.43567,519.3516 Q598.72424,533.65894,595.5525,547.6676 L591.3234,566.3458 Q588.1517,580.35455,551.2193,574.716 L501.9761,567.19794 Q465.04373,561.55945,465.08374,561.7194 L465.1371,561.9328 Q465.1771,562.09283,469.33704,547.67175 L474.8836,528.4436 Q479.04352,514.0225,507.65915,505.60614 L545.8133,494.38434 Q574.4289,485.968,581.71747,500.27527 z" fill="url(#gradient_face21)" stroke="none" stroke-width="0"/>
<path d="M141,300 L273,268 L281,326 L196,394 L153,359 z" fill="none" stroke="none" stroke-width="0"/>
<linearGradient id="gradient_face22" x1="0" x2="1.01" y1="0" y2="1.01">
<stop offset="0%" stop-color="#CC6677FF"/>
<stop offset="100%" stop-color="#CC6677FF"/>
</linearGradient>
<path d="M183.44269,294.85568 L232.2198,283.03094 Q268.80264,274.16235,270.8595,289.0746 L273.602,308.95758 Q275.65884,323.8698,251.76933,342.9814 L219.91666,368.46356 Q196.02715,387.57516,184.48198,378.17792 L169.08842,365.6483 Q157.54326,356.25107,154.33824,340.493 L150.06487,319.4823 Q146.85985,303.72424,183.44269,294.85568 z" fill="url(#gradient_face22)" stroke="none" stroke-width="0"/>
<path d="M600,323 L650,336 L689,389 L577,470 L545,420 z" fill="none" stroke="none" stroke-width="0"/>
<linearGradient id="gradient_face23" x1="0" x2="1.01" y1="0" y2="1.01">
<stop offset="0%" stop-color="#4E2E84FF"/>
<stop offset="100%" stop-color="#332288FF"/>
</linearGradient>
<path d="M615.82684,332.28122 L633.65405,336.9163 Q647.0245,340.3926,657.5126,354.6457 L671.49677,373.64978 Q681.98486,387.90286,650.8969,410.3861 L609.44635,440.36377 Q578.3584,462.84702,570.1018,449.94604 L559.093,432.74478 Q550.83636,419.84384,566.3224,392.53214 L586.9704,356.11658 Q602.45636,328.8049,615.82684,332.28122 z" fill="url(#gradient_face23)" stroke="none" stroke-width="0"/>
<path d="M202,409 L253,441 L238,556 L191,564 L129,528 z" fill="none" stroke="none" stroke-width="0"/>
<linearGradient id="gradient_face24" x1="0" x2="1.01" y1="0" y2="1.01">
<stop offset="0%" stop-color="#9F8E7DFF"/>
<stop offset="100%" stop-color="#DDCC77FF"/>
</linearGradient>
<path d="M216.82286,424.20337 L234.42548,435.24814 Q247.62743,443.5317,243.39511,475.9794 L237.75204,519.243 Q233.51973,551.6907,221.04742,553.81366 L204.41768,556.6442 Q191.94537,558.76715,175.1439,549.0115 L152.74194,536.0039 Q135.94046,526.24817,156.2446,493.14966 L183.31677,449.0183 Q203.62091,415.9198,216.82286,424.20337 z" fill="url(#gradient_face24)" stroke="none" stroke-width="0"/>
<path d="M528,160 L606,167 L584,307 L523,300 L493,184 z" fill="none" stroke="none" stroke-width="0"/>
<linearGradient id="gradient_face25" x1="0" x2="1.01" y1="0" y2="1.01">
<stop offset="0%" stop-color="#80A558FF"/>
<stop offset="100%" stop-color="#117733FF"/>
</linearGradient>
<path d="M550.6104,167.04924 L578.9651,169.59389 Q600.23114,171.50238,594.10333,210.4974 L585.9329,262.49078 Q579.8052,301.4858,563.95795,299.66727 L542.8283,297.24255 Q526.9811,295.42404,518.50226,262.63925 L507.19714,218.92622 Q498.71832,186.14146,507.90616,179.84125 L520.15656,171.44096 Q529.34436,165.14075,550.6104,167.04924 z" fill="url(#gradient_face25)" stroke="none" stroke-width="0"/>
<path d="M266,566 L325,547 L399,646 L379,679 L299,706 z" fill="none" stroke="none" stroke-width="0"/>
<linearGradient id="gradient_face26" x1="0" x2="1.01" y1="0" y2="1.01">
<stop offset="0%" stop-color="#318E66FF"/>
<stop offset="100%" stop-color="#88CCEEFF"/>
</linearGradient>
<path d="M287.28778,564.39746 L307.77094,557.8012 Q323.1333,552.854,344.08615,580.88556 L372.02332,618.2609 Q392.97617,646.2924,387.78452,654.8587 L380.86227,666.28033 Q375.67062,674.84656,353.7513,682.2443 L324.52557,692.10803 Q302.60626,699.5058,293.402,660.45746 L281.12967,608.393 Q271.9254,569.34467,287.28778,564.39746 z" fill="url(#gradient_face26)" stroke="none" stroke-width="0"/>
<path d="M368,71 L374,71 L457,186 L411,230 L301,164 L305,129 z" fill="none" stroke="none" stroke-width="0"/>
<linearGradient id="gradient_face27" x1="0" x2="1.01" y1="0" y2="1.01">
<stop offset="0%" stop-color="#88BCE0FF"/>
<stop offset="100%" stop-color="#882255FF"/>
</linearGradient>
<path d="M370.3985,76 L370.99506,76 Q371.44244,76,395.12906,108.81882 L426.7112,152.57722 Q450.39786,185.39604,438.36877,196.90211 L422.33002,212.24355 Q410.30093,223.74962,379.11063,205.03543 L337.52356,180.08318 Q306.33322,161.36899,307.36014,152.38353 L308.72934,140.40294 Q309.75626,131.41748,327.81473,114.79224 L351.89267,92.625244 Q369.9511,76,370.3985,76 z" fill="url(#gradient_face27)" stroke="none" stroke-width="0"/>
<path d="M592,586 L601,615 L571,684 L558,696 L553,697 L436,626 L461,566 z" fill="none" stroke="none" stroke-width="0"/>
<linearGradient id="gradient_face28" x1="0" x2="1.01" y1="0" y2="1.01">
<stop offset="0%" stop-color="#883162FF"/>
<stop offset="100%" stop-color="#44AA99FF"/>
</linearGradient>
<path d="M590.4088,597.742 L593.4177,607.4374 Q595.67444,614.7089,587.02246,634.60834 L575.4866,661.141 Q566.83466,681.0404,563.4766,684.14014 L558.9993,688.273 Q555.6413,691.37274,555.1276,691.47546 L554.44275,691.6124 Q553.9291,691.71515,520.4309,671.38727 L475.76672,644.2833 Q442.2686,623.9554,448.82138,608.22864 L457.55847,587.2597 Q464.11127,571.53296,501.32355,577.2142 L550.9399,584.78925 Q588.15216,590.47046,590.4088,597.742 z" fill="url(#gradient_face28)" stroke="none" stroke-width="0"/>
<path d="M137,184 L141,181 L272,202 L274,266 L273,268 L141,300 L123,281 L122,215 z" fill="none" stroke="none" stroke-width="0"/>
<linearGradient id="gradient_face29" x1="0" x2="1.01" y1="0" y2="1.01">
<stop offset="0%" stop-color="#568486FF"/>
<stop offset="100%" stop-color="#999833FF"/>
</linearGradient>
<path d="M141.37112,186.97165 L141.90364,186.57227 Q142.30304,186.27272,179.75156,192.27592 L229.6829,200.28018 Q267.1314,206.28337,267.68088,223.86647 L268.4135,247.3106 Q268.96298,264.89368,269.1439,264.5319 L269.3851,264.04947 Q269.566,263.68765,231.48743,272.91882 L180.71599,285.22705 Q142.6374,294.45822,138.23715,289.8135 L132.37015,283.62057 Q127.9699,278.97586,127.68415,260.11615 L127.30315,234.96988 Q127.017395,216.11017,131.20369,207.45848 L136.78543,195.9229 Q140.97174,187.2712,141.37112,186.97165 z" fill="url(#gradient_face29)" stroke="none" stroke-width="0"/>
<path d="M689,389 L723,405 L735,433 L730,500 L728,503 L604,533 L577,480 L577,470 z" fill="none" stroke="none" stroke-width="0"/>
<linearGradient id="gradient_face30" x1="0" x2="1.01" y1="0" y2="1.01">
<stop offset="0%" stop-color="#72A061FF"/>
<stop offset="100%" stop-color="#AA4499FF"/>
</linearGradient>
<path d="M698.4237,398.96066 L710.26874,404.53476 Q719.15247,408.71536,722.3836,416.2547 L726.6918,426.30713 Q729.9229,433.84647,728.4795,453.18814 L726.555,478.97708 Q725.1116,498.3188,725.05536,498.4031 L724.98035,498.51556 Q724.92413,498.5999,689.4457,507.1834 L642.14105,518.62805 Q606.6626,527.21155,599.2638,512.68805 L589.3988,493.32333 Q582,478.7998,582,476.9262 L582,474.4281 Q582,472.5545,614.26196,449.22217 L657.27795,418.1124 Q689.54,394.78006,698.4237,398.96066 z" fill="url(#gradient_face30)" stroke="none" stroke-width="0"/>
<path d="M153,359 L196,394 L202,409 L129,528 L102,528 L73,499 L53,434 L53,433 z" fill="none" stroke="none" stroke-width="0"/>
<linearGradient id="gradient_face31" x1="0" x2="1.01" y1="0" y2="1.01">
<stop offset="0%" stop-color="#9F7A58FF"/>
<stop offset="100%" stop-color="#DCDCDCFF"/>
</linearGradient>
<path d="M164.54947,374.84766 L180.14337,387.54037 Q191.8388,397.0599,193.21469,400.49966 L195.04922,405.08597 Q196.42513,408.52573,175.358,442.868 L147.26852,488.6577 Q126.2014,523,119.5623,523 L110.71017,523 Q104.07107,523,96.07385,515.0028 L85.4109,504.3398 Q77.41367,496.34262,71.58958,477.41428 L63.824104,452.17648 Q58,433.24817,58,433.92975 L58,434.83853 Q58,435.52014,86.456215,414.46252 L124.39783,386.38574 Q152.85405,365.32813,164.54947,374.84766 z" fill="url(#gradient_face31)" stroke="none" stroke-width="0"/>
<path d="M606,167 L621,161 L668,180 L711,233 L650,336 L600,323 L584,307 z" fill="none" stroke="none" stroke-width="0"/>
<linearGradient id="gradient_face32" x1="0" x2="1.01" y1="0" y2="1.01">
<stop offset="0%" stop-color="#B35FA5FF"/>
<stop offset="100%" stop-color="#000000FF"/>
</linearGradient>
<path d="M613.6455,169.32695 L617.84247,167.6482 Q620.9901,166.38911,634.1721,171.71799 L651.74805,178.82317 Q664.93,184.15204,676.9282,198.94057 L692.9259,218.6586 Q704.92413,233.44713,687.73157,262.47714 L664.8082,301.18384 Q647.61566,330.21384,634.1032,326.7006 L616.08655,322.01627 Q602.5741,318.50302,598.6022,314.5311 L593.3062,309.23517 Q589.3343,305.2632,595.68335,264.86005 L604.14874,210.98918 Q610.49786,170.58603,613.6455,169.32695 z" fill="url(#gradient_face32)" stroke="none" stroke-width="0"/>
<path d="M191,564 L238,556 L266,566 L299,706 L296,709 L234,711 L175,677 z" fill="none" stroke="none" stroke-width="0"/>
<linearGradient id="gradient_face33" x1="0" x2="1.01" y1="0" y2="1.01">
<stop offset="0%" stop-color="#CC6677FF"/>
<stop offset="100%" stop-color="#CC6677FF"/>
</linearGradient>
<path d="M208.07204,566.166 L224.91649,563.2989 Q237.54984,561.14856,244.81207,563.7422 L254.49506,567.2004 Q261.7573,569.79407,271.27832,610.1863 L283.97302,664.0426 Q293.49405,704.4349,293.6046,704.32434 L293.752,704.1769 Q293.86258,704.06635,276.28253,704.6334 L252.84245,705.3896 Q235.2624,705.95667,218.81099,696.4762 L196.87578,683.8356 Q180.42438,674.3551,184.92867,642.5435 L190.9344,600.128 Q195.4387,568.3164,208.07204,566.166 z" fill="url(#gradient_face33)" stroke="none" stroke-width="0"/>
<path d="M374,71 L435,43 L501,55 L528,160 L493,184 L457,186 z" fill="none" stroke="none" stroke-width="0"/>
<linearGradient id="gradient_face34" x1="0" x2="1.01" y1="0" y2="1.01">
<stop offset="0%" stop-color="#4E2E84FF"/>
<stop offset="100%" stop-color="#332288FF"/>
</linearGradient>
<path d="M397.8265,65.56483 L419.44266,55.642654 Q435.6548,48.201023,454.04486,51.544674 L478.56494,56.002872 Q496.95502,59.34652,504.5543,88.899254 L514.68665,128.30289 Q522.28595,157.85562,512.9979,164.22452 L500.61398,172.71638 Q491.326,179.0853,481.76428,179.6165 L469.01532,180.32477 Q459.4536,180.85597,436.10184,148.50111 L404.96616,105.36131 Q381.61438,73.006454,397.8265,65.56483 z" fill="url(#gradient_face34)" stroke="none" stroke-width="0"/>
<path d="M399,646 L436,626 L553,697 L506,749 L441,760 L379,679 z" fill="none" stroke="none" stroke-width="0"/>
<linearGradient id="gradient_face35" x1="0" x2="1.01" y1="0" y2="1.01">
<stop offset="0%" stop-color="#9F8E7DFF"/>
<stop offset="100%" stop-color="#DDCC77FF"/>
</linearGradient>
<path d="M412.5574,644.3554 L425.87103,637.1588 Q435.8563,631.7614,468.66953,651.6737 L512.42053,678.22345 Q545.23376,698.13574,532.69995,712.0029 L515.9882,730.4925 Q503.45444,744.3597,485.35953,747.42194 L461.23297,751.5049 Q443.13806,754.5671,425.7103,731.7985 L402.47324,701.4404 Q385.04544,678.6719,390.30347,669.99615 L397.31415,658.4285 Q402.57217,649.7528,412.5574,644.3554 z" fill="url(#gradient_face35)" stroke="none" stroke-width="0"/>
<path d="M222,81 L305,129 L301,164 L272,202 L141,181 L165,113 z" fill="none" stroke="none" stroke-width="0"/>
<linearGradient id="gradient_face36" x1="0" x2="1.01" y1="0" y2="1.01">
<stop offset="0%" stop-color="#80A558FF"/>
<stop offset="100%" stop-color="#117733FF"/>
</linearGradient>
<path d="M245.27237,100.234634 L276.35117,118.20792 Q299.66028,131.68787,298.61884,140.80028 L297.2303,152.95016 Q296.18887,162.06256,288.28397,172.42073 L277.74408,186.23161 Q269.83917,196.58977,233.20038,190.71637 L184.34866,182.8852 Q147.70988,177.0118,154.1235,158.83986 L162.675,134.61061 Q169.08862,116.43868,184.95102,107.53348 L206.10088,95.659874 Q221.96327,86.75467,245.27237,100.234634 z" fill="url(#gradient_face36)" stroke="none" stroke-width="0"/>
<path d="M604,533 L728,503 L732,578 L689,626 L601,615 L592,586 z" fill="none" stroke="none" stroke-width="0"/>
<linearGradient id="gradient_face37" x1="0" x2="1.01" y1="0" y2="1.01">
<stop offset="0%" stop-color="#318E66FF"/>
<stop offset="100%" stop-color="#88CCEEFF"/>
</linearGradient>
<path d="M642.73224,528.77356 L688.7867,517.63135 Q723.3275,509.2747,724.3984,529.35315 L725.8262,556.1244 Q726.89703,576.2029,714.9347,589.55615 L698.9849,607.3606 Q687.0226,620.7139,662.3617,617.6313 L629.4805,613.5212 Q604.81964,610.43854,602.52545,603.0462 L599.46655,593.1898 Q597.1724,585.7975,600.4781,571.1973 L604.88574,551.7304 Q608.1914,537.1302,642.73224,528.77356 z" fill="url(#gradient_face37)" stroke="none" stroke-width="0"/>
<path d="M123,281 L141,300 L153,359 L53,433 L19,362 L45,303 z" fill="none" stroke="none" stroke-width="0"/>
<linearGradient id="gradient_face38" x1="0" x2="1.01" y1="0" y2="1.01">
<stop offset="0%" stop-color="#88BCE0FF"/>
<stop offset="100%" stop-color="#882255FF"/>
</linearGradient>
<path d="M125.92976,291.36267 L131.90456,297.6694 Q136.38565,302.39944,139.70961,318.74222 L144.14156,340.53262 Q147.4655,356.8754,119.69404,377.4263 L82.665405,404.82748 Q54.893936,425.37836,45.776413,406.33884 L33.619717,380.9528 Q24.502193,361.91324,31.739096,345.49106 L41.388298,323.5948 Q48.6252,307.17258,70.472244,301.0106 L99.60163,292.79462 Q121.44868,286.63263,125.92976,291.36267 z" fill="url(#gradient_face38)" stroke="none" stroke-width="0"/>
<path d="M711,233 L712,233 L772,287 L764,364 L723,405 L689,389 L650,336 z" fill="none" stroke="none" stroke-width="0"/>
<linearGradient id="gradient_face39" x1="0" x2="1.01" y1="0" y2="1.01">
<stop offset="0%" stop-color="#883162FF"/>
<stop offset="100%" stop-color="#44AA99FF"/>
</linearGradient>
<path d="M712.7193,238 L711.2119,238 Q710.0813,238,727.08606,253.30428 L749.7591,273.70996 Q766.7638,289.01425,764.4977,310.82562 L761.4762,339.90747 Q759.2101,361.71884,748.03186,372.89706 L733.12756,387.80136 Q721.94934,398.9796,713.0473,394.7904 L701.1779,389.20483 Q692.27594,385.01563,681.3895,370.2213 L666.8744,350.49557 Q655.988,335.70126,673.34656,306.3909 L696.49133,267.3104 Q713.8499,238,712.7193,238 z" fill="url(#gradient_face39)" stroke="none" stroke-width="0"/>
<path d="M102,528 L129,528 L191,564 L175,677 L172,678 L95,651 L81,571 z" fill="none" stroke="none" stroke-width="0"/>
<linearGradient id="gradient_face40" x1="0" x2="1.01" y1="0" y2="1.01">
<stop offset="0%" stop-color="#568486FF"/>
<stop offset="100%" stop-color="#999833FF"/>
</linearGradient>
<path d="M111.88188,533 L120.89431,533 Q127.65364,533,145.03073,543.0899 L168.2002,556.54315 Q185.5773,566.6331,181.04907,598.6137 L175.01143,641.2545 Q170.4832,673.2351,170.95053,673.07935 L171.57364,672.87164 Q172.04095,672.7159,150.25467,665.07654 L121.20627,654.89075 Q99.419975,647.2514,95.45544,624.59686 L90.16938,594.3908 Q86.204834,571.73627,91.88015,560.1154 L99.447235,544.6209 Q105.12255,533,111.88188,533 z" fill="url(#gradient_face40)" stroke="none" stroke-width="0"/>
<path d="M501,55 L506,50 L589,46 L626,125 L621,161 L606,167 L528,160 z" fill="none" stroke="none" stroke-width="0"/>
<linearGradient id="gradient_face41" x1="0" x2="1.01" y1="0" y2="1.01">
<stop offset="0%" stop-color="#72A061FF"/>
<stop offset="100%" stop-color="#AA4499FF"/>
</linearGradient>
<path d="M507.03806,56.033005 L507.68478,55.38628 Q508.16983,54.901234,531.4869,53.77752 L562.5763,52.279232 Q585.8934,51.155518,596.3785,73.542656 L610.35864,103.392166 Q620.84375,125.779305,619.5247,135.27632 L617.76605,147.93901 Q616.447,157.43604,613.0893,158.77913 L608.6123,160.56992 Q605.2546,161.91301,583.26715,159.93977 L553.9506,157.3088 Q531.96326,155.33559,524.34015,125.69032 L514.1761,86.16331 Q506.553,56.51805,507.03806,56.033005 z" fill="url(#gradient_face41)" stroke="none" stroke-width="0"/>
<path d="M370,800 L356,800 L299,732 L296,709 L299,706 L379,679 L441,760 L436,770 z" fill="none" stroke="none" stroke-width="0"/>
<linearGradient id="gradient_face42" x1="0" x2="1.01" y1="0" y2="1.01">
<stop offset="0%" stop-color="#9F7A58FF"/>
<stop offset="100%" stop-color="#DCDCDCFF"/>
</linearGradient>
<path d="M365.7418,795 L361.50824,795 Q358.33307,795,341.96393,775.4719 L320.1384,749.43445 Q303.76926,729.9063,303.02142,724.1728 L302.0243,716.52814 Q301.27643,710.7946,301.40588,710.6652 L301.57846,710.4926 Q301.7079,710.36316,324.35736,702.719 L354.55664,692.52673 Q377.2061,684.8825,394.58347,707.58527 L417.75333,737.8555 Q435.1307,760.5582,434.28735,762.245 L433.16287,764.49396 Q432.3195,766.18066,413.29874,774.8265 L387.9377,786.3542 Q368.91696,795,365.7418,795 z" fill="url(#gradient_face42)" stroke="none" stroke-width="0"/>
<path d="M367,69 L368,71 L305,129 L222,81 L221,65 L281,6 z" fill="none" stroke="none" stroke-width="0"/>
<linearGradient id="gradient_face43" x1="0" x2="1.01" y1="0" y2="1.01">
<stop offset="0%" stop-color="#B35FA5FF"/>
<stop offset="100%" stop-color="#000000FF"/>
</linearGradient>
<path d="M362.7018,71.58397 L362.2122,70.60471 Q361.84497,69.87027,344.58725,85.758316 L321.577,106.942375 Q304.31927,122.83042,281.07043,109.3853 L250.07195,91.458466 Q226.82309,78.01334,226.61594,74.698944 L226.33974,70.27975 Q226.13258,66.96534,242.73518,50.639458 L264.87198,28.871609 Q281.47458,12.545722,305.9529,30.477528 L338.5907,54.3866 Q363.06903,72.318405,362.7018,71.58397 z" fill="url(#gradient_face43)" stroke="none" stroke-width="0"/>
<path d="M601,615 L689,626 L700,646 L663,721 L571,684 z" fill="none" stroke="none" stroke-width="0"/>
<linearGradient id="gradient_face44" x1="0" x2="1.01" y1="0" y2="1.01">
<stop offset="0%" stop-color="#CC6677FF"/>
<stop offset="100%" stop-color="#CC6677FF"/>
</linearGradient>
<path d="M628.61975,623.4914 L661.32184,627.57916 Q685.8484,630.64496,688.40265,635.2891 L691.8084,641.4814 Q694.36273,646.12555,684.22375,666.6775 L670.70514,694.0801 Q660.5662,714.63196,635.6869,704.62616 L602.5144,691.2851 Q577.6351,681.27924,585.5725,663.02313 L596.15576,638.68164 Q604.0932,620.42554,628.61975,623.4914 z" fill="url(#gradient_face44)" stroke="none" stroke-width="0"/>
<path d="M33,204 L122,215 L123,281 L45,303 L19,285 z" fill="none" stroke="none" stroke-width="0"/>
<linearGradient id="gradient_face45" x1="0" x2="1.01" y1="0" y2="1.01">
<stop offset="0%" stop-color="#4E2E84FF"/>
<stop offset="100%" stop-color="#332288FF"/>
</linearGradient>
<path d="M61.10077,212.51117 L93.0812,216.4638 Q117.06652,219.42828,117.32926,236.76924 L117.67959,259.8905 Q117.94233,277.23145,96.3325,283.32654 L67.51938,291.4533 Q45.90955,297.54837,39.47787,293.09567 L30.902298,287.15875 Q24.47062,282.70605,28.264067,260.75824 L33.322,231.4945 Q37.115444,209.54669,61.10077,212.51117 z" fill="url(#gradient_face45)" stroke="none" stroke-width="0"/>
<path d="M800,361 L800,439 L735,433 L723,405 L764,364 z" fill="none" stroke="none" stroke-width="0"/>
<linearGradient id="gradient_face46" x1="0" x2="1.01" y1="0" y2="1.01">
<stop offset="0%" stop-color="#100A0BFF"/>
<stop offset="100%" stop-color="#100A0BFF"/>
</linearGradient>
<path d="M795,386.55896 L795,413.39224 Q795,433.5172,778.027,431.95047 L755.3963,429.86148 Q738.4233,428.29474,735.5751,421.64886 L731.7774,412.78772 Q728.9292,406.14185,740.12256,394.9485 L755.04706,380.024 Q766.2404,368.83063,774.8683,368.11163 L786.37213,367.15298 Q795,366.434,795,386.55896 z" fill="url(#gradient_face46)" stroke="none" stroke-width="0"/>
<path d="M800,439 L800,521 L730,500 L735,433 z" fill="none" stroke="none" stroke-width="0"/>
<linearGradient id="gradient_face47" x1="0" x2="1.01" y1="0" y2="1.01">
<stop offset="0%" stop-color="#100A0BFF"/>
<stop offset="100%" stop-color="#100A0BFF"/>
</linearGradient>
<path d="M795,464.77576 L795,493.0638 Q795,514.27985,777.0856,508.90552 L753.1996,501.73972 Q735.28516,496.3654,736.58185,478.98975 L738.3107,455.8222 Q739.6074,438.44656,756.2252,439.9805 L778.38226,442.02576 Q795,443.55972,795,464.77576 z" fill="url(#gradient_face47)" stroke="none" stroke-width="0"/>
<path d="M800,521 L800,614 L732,578 L728,503 L730,500 z" fill="none" stroke="none" stroke-width="0"/>
<linearGradient id="gradient_face48" x1="0" x2="1.01" y1="0" y2="1.01">
<stop offset="0%" stop-color="#100A0BFF"/>
<stop offset="100%" stop-color="#100A0BFF"/>
</linearGradient>
<path d="M795,549.01276 L795,581.4029 Q795,605.6955,777.5526,596.4586 L754.2895,584.1428 Q736.8421,574.906,735.71387,553.7518 L734.2096,525.5461 Q733.08136,504.39188,732.78925,504.83005 L732.3997,505.41428 Q732.1076,505.85245,750.97534,511.51276 L776.13226,519.0598 Q795,524.72015,795,549.01276 z" fill="url(#gradient_face48)" stroke="none" stroke-width="0"/>
<path d="M800,614 L800,728 L700,646 L689,626 L732,578 z" fill="none" stroke="none" stroke-width="0"/>
<linearGradient id="gradient_face49" x1="0" x2="1.01" y1="0" y2="1.01">
<stop offset="0%" stop-color="#100A0BFF"/>
<stop offset="100%" stop-color="#100A0BFF"/>
</linearGradient>
<path d="M795,647.13745 L795,687.3069 Q795,717.43396,767.67487,695.02734 L731.2414,665.15186 Q703.91626,642.74524,701.2681,637.93054 L697.73737,631.51086 Q695.08923,626.69617,706.4972,613.96173 L721.7077,596.98254 Q733.11566,584.2481,751.68097,594.0768 L776.4347,607.1817 Q795,617.01044,795,647.13745 z" fill="url(#gradient_face49)" stroke="none" stroke-width="0"/>
<path d="M800,800 L728,800 L663,721 L700,646 L800,728 z" fill="none" stroke="none" stroke-width="0"/>
<linearGradient id="gradient_face50" x1="0" x2="1.01" y1="0" y2="1.01">
<stop offset="0%" stop-color="#100A0BFF"/>
<stop offset="100%" stop-color="#100A0BFF"/>
</linearGradient>
<path d="M775.6083,795 L749.7527,795 Q730.36096,795,711.92645,772.595 L687.34705,742.72156 Q668.91254,720.3165,678.7483,700.37915 L691.8626,673.7961 Q701.69836,653.8587,729.68884,676.8109 L767.0095,707.4139 Q795,730.3661,795,749.7562 L795,775.6098 Q795,795,775.6083,795 z" fill="url(#gradient_face50)" stroke="none" stroke-width="0"/>
<path d="M728,800 L614,800 L558,696 L571,684 L663,721 z" fill="none" stroke="none" stroke-width="0"/>
<linearGradient id="gradient_face51" x1="0" x2="1.01" y1="0" y2="1.01">
<stop offset="0%" stop-color="#100A0BFF"/>
<stop offset="100%" stop-color="#100A0BFF"/>
</linearGradient>
<path d="M687.28375,795 L647.1139,795 Q616.98645,795,601.1628,765.61316 L580.0645,726.43066 Q564.24084,697.04376,566.589,694.8763 L569.71985,691.98627 Q572.068,689.8187,598.43256,700.4219 L633.5854,714.55945 Q659.95,725.1626,677.18835,746.11383 L700.17285,774.04877 Q717.4112,795,687.28375,795 z" fill="url(#gradient_face51)" stroke="none" stroke-width="0"/>
<path d="M614,800 L521,800 L506,749 L553,697 L558,696 z" fill="none" stroke="none" stroke-width="0"/>
<linearGradient id="gradient_face52" x1="0" x2="1.01" y1="0" y2="1.01">
<stop offset="0%" stop-color="#100A0BFF"/>
<stop offset="100%" stop-color="#100A0BFF"/>
</linearGradient>
<path d="M581.3626,795 L549.0075,795 Q524.7412,795,520.7949,781.58264 L515.5332,763.6928 Q511.5869,750.27545,524.7912,735.66644 L542.3969,716.1878 Q555.6012,701.5788,555.5264,701.59375 L555.42676,701.61365 Q555.352,701.6286,570.43506,729.64 L590.54584,766.9886 Q605.6289,795,581.3626,795 z" fill="url(#gradient_face52)" stroke="none" stroke-width="0"/>
<path d="M521,800 L439,800 L436,770 L441,760 L506,749 z" fill="none" stroke="none" stroke-width="0"/>
<linearGradient id="gradient_face53" x1="0" x2="1.01" y1="0" y2="1.01">
<stop offset="0%" stop-color="#100A0BFF"/>
<stop offset="100%" stop-color="#100A0BFF"/>
</linearGradient>
<path d="M493.07983,795 L464.76276,795 Q443.52493,795,442.8032,787.7826 L441.84088,778.1594 Q441.11914,770.9421,442.0845,769.01135 L443.37164,766.4371 Q444.33698,764.50635,461.77274,761.5557 L485.0204,757.6215 Q502.45612,754.67084,506.01456,766.7696 L510.7592,782.90125 Q514.3176,795,493.07983,795 z" fill="url(#gradient_face53)" stroke="none" stroke-width="0"/>
<path d="M439,800 L370,800 L436,770 z" fill="none" stroke="none" stroke-width="0"/>
<linearGradient id="gradient_face54" x1="0" x2="1.01" y1="0" y2="1.01">
<stop offset="0%" stop-color="#100A0BFF"/>
<stop offset="100%" stop-color="#100A0BFF"/>
</linearGradient>
<path d="M421.35745,795 L405.20065,795 Q393.08304,795,404.6738,789.7315 L420.12814,782.7068 Q431.7189,777.43823,432.24573,782.7068 L432.9482,789.7315 Q433.47507,795,421.35745,795 z" fill="url(#gradient_face54)" stroke="none" stroke-width="0"/>
<path d="M356,800 L279,800 L299,732 z" fill="none" stroke="none" stroke-width="0"/>
<linearGradient id="gradient_face55" x1="0" x2="1.01" y1="0" y2="1.01">
<stop offset="0%" stop-color="#100A0BFF"/>
<stop offset="100%" stop-color="#100A0BFF"/>
</linearGradient>
<path d="M327.4039,795 L303.56302,795 Q285.68237,795,290.3267,779.2093 L296.51913,758.155 Q301.16345,742.3643,314.39978,758.155 L332.04822,779.2093 Q345.28458,795,327.4039,795 z" fill="url(#gradient_face55)" stroke="none" stroke-width="0"/>
<path d="M279,800 L186,800 L234,711 L296,709 L299,732 z" fill="none" stroke="none" stroke-width="0"/>
<linearGradient id="gradient_face56" x1="0" x2="1.01" y1="0" y2="1.01">
<stop offset="0%" stop-color="#100A0BFF"/>
<stop offset="100%" stop-color="#100A0BFF"/>
</linearGradient>
<path d="M250.9944,795 L218.64186,795 Q194.37746,795,207.1749,771.2714 L224.23816,739.6333 Q237.03561,715.90466,253.4135,715.37634 L275.25067,714.67194 Q291.62854,714.1436,292.31168,719.3808 L293.22247,726.3637 Q293.9056,731.60095,288.31155,750.62067 L280.85284,775.9803 Q275.25882,795,250.9944,795 z" fill="url(#gradient_face56)" stroke="none" stroke-width="0"/>
<path d="M186,800 L72,800 L172,678 L175,677 L234,711 z" fill="none" stroke="none" stroke-width="0"/>
<linearGradient id="gradient_face57" x1="0" x2="1.01" y1="0" y2="1.01">
<stop offset="0%" stop-color="#100A0BFF"/>
<stop offset="100%" stop-color="#100A0BFF"/>
</linearGradient>
<path d="M152.88008,795 L112.69911,795 Q82.563385,795,110.27978,761.186 L147.23497,716.10065 Q174.95135,682.2867,174.80093,682.3368 L174.60036,682.4037 Q174.44994,682.4538,190.30247,691.5892 L211.4392,703.76965 Q227.29173,712.905,214.00896,737.5335 L196.29858,770.3715 Q183.01581,795,152.88008,795 z" fill="url(#gradient_face57)" stroke="none" stroke-width="0"/>
<path d="M0,800 L0,728 L95,651 L172,678 L72,800 z" fill="none" stroke="none" stroke-width="0"/>
<linearGradient id="gradient_face58" x1="0" x2="1.01" y1="0" y2="1.01">
<stop offset="0%" stop-color="#100A0BFF"/>
<stop offset="100%" stop-color="#100A0BFF"/>
</linearGradient>
<path d="M5,775.61505 L5,749.76843 Q5,730.3835,32.293922,708.26105 L68.68582,678.76447 Q95.979744,656.642,116.26728,663.75586 L143.31734,673.2409 Q163.60487,680.35474,135.4134,714.7483 L97.82479,760.60645 Q69.63333,795,50.243336,795 L24.390001,795 Q5,795,5,775.61505 z" fill="url(#gradient_face58)" stroke="none" stroke-width="0"/>
<path d="M0,728 L0,614 L81,571 L95,651 z" fill="none" stroke="none" stroke-width="0"/>
<linearGradient id="gradient_face59" x1="0" x2="1.01" y1="0" y2="1.01">
<stop offset="0%" stop-color="#100A0BFF"/>
<stop offset="100%" stop-color="#100A0BFF"/>
</linearGradient>
<path d="M5,687.3598 L5,647.15796 Q5,617.00653,26.678581,605.49817 L55.583355,590.1536 Q77.26194,578.64526,80.953804,599.74164 L85.87629,627.8701 Q89.56815,648.9665,64.19771,669.5299 L30.370447,696.9478 Q5,717.5112,5,687.3598 z" fill="url(#gradient_face59)" stroke="none" stroke-width="0"/>
<path d="M0,614 L0,521 L73,499 L102,528 L81,571 z" fill="none" stroke="none" stroke-width="0"/>
<linearGradient id="gradient_face60" x1="0" x2="1.01" y1="0" y2="1.01">
<stop offset="0%" stop-color="#100A0BFF"/>
<stop offset="100%" stop-color="#100A0BFF"/>
</linearGradient>
<path d="M5,581.3939 L5,549.00616 Q5,524.7153,24.97377,518.6958 L51.605465,510.6698 Q71.57923,504.6503,78.887825,511.9589 L88.63262,521.7037 Q95.941216,529.01227,90.32493,540.51227 L82.83655,555.84564 Q77.22027,567.34564,55.554188,578.8474 L26.66608,594.18304 Q5,605.6848,5,581.3939 z" fill="url(#gradient_face60)" stroke="none" stroke-width="0"/>
<path d="M0,521 L0,439 L53,434 L73,499 z" fill="none" stroke="none" stroke-width="0"/>
<linearGradient id="gradient_face61" x1="0" x2="1.01" y1="0" y2="1.01">
<stop offset="0%" stop-color="#100A0BFF"/>
<stop offset="100%" stop-color="#100A0BFF"/>
</linearGradient>
<path d="M5,493.05487 L5,464.76666 Q5,443.5505,18.32538,442.2934 L36.092556,440.61725 Q49.417934,439.36014,54.6152,456.25122 L61.54488,478.7727 Q66.74214,495.66382,48.2195,501.24597 L23.522642,508.68887 Q5,514.271,5,493.05487 z" fill="url(#gradient_face61)" stroke="none" stroke-width="0"/>
<path d="M0,439 L0,361 L19,362 L53,433 L53,434 z" fill="none" stroke="none" stroke-width="0"/>
<linearGradient id="gradient_face62" x1="0" x2="1.01" y1="0" y2="1.01">
<stop offset="0%" stop-color="#100A0BFF"/>
<stop offset="100%" stop-color="#100A0BFF"/>
</linearGradient>
<path d="M5,413.3353 L5,386.4409 Q5,366.27008,8.231781,366.4402 L12.540822,366.66696 Q15.772603,366.83707,25.440823,387.02658 L38.33178,413.94592 Q48,434.13544,48,432.72968 L48,430.8553 Q48,429.4495,35.1,430.66647 L17.9,432.28912 Q5,433.5061,5,413.3353 z" fill="url(#gradient_face62)" stroke="none" stroke-width="0"/>
<path d="M0,361 L0,279 L19,285 L45,303 L19,362 z" fill="none" stroke="none" stroke-width="0"/>
<linearGradient id="gradient_face63" x1="0" x2="1.01" y1="0" y2="1.01">
<stop offset="0%" stop-color="#100A0BFF"/>
<stop offset="100%" stop-color="#100A0BFF"/>
</linearGradient>
<path d="M5,335.12607 L5,306.9525 Q5,285.82233,8.532368,286.9378 L13.242191,288.42514 Q16.774559,289.54062,23.370161,294.1068 L32.164295,300.19504 Q38.7599,304.76123,31.876823,320.38052 L22.699389,341.20624 Q15.816315,356.82553,12.57142,356.65472 L8.244894,356.42703 Q5,356.25623,5,335.12607 z" fill="url(#gradient_face63)" stroke="none" stroke-width="0"/>
<path d="M0,279 L0,186 L33,204 L19,285 z" fill="none" stroke="none" stroke-width="0"/>
<linearGradient id="gradient_face64" x1="0" x2="1.01" y1="0" y2="1.01">
<stop offset="0%" stop-color="#100A0BFF"/>
<stop offset="100%" stop-color="#100A0BFF"/>
</linearGradient>
<path d="M5,251.0617 L5,218.69656 Q5,194.42271,11.739031,198.09854 L20.724405,202.99966 Q27.463434,206.67549,23.738756,228.22542 L18.77252,256.95865 Q15.047842,278.50858,12.033489,277.55667 L8.014353,276.28748 Q5,275.33557,5,251.0617 z" fill="url(#gradient_face64)" stroke="none" stroke-width="0"/>
<path d="M0,186 L0,72 L137,184 L122,215 L33,204 z" fill="none" stroke="none" stroke-width="0"/>
<linearGradient id="gradient_face65" x1="0" x2="1.01" y1="0" y2="1.01">
<stop offset="0%" stop-color="#100A0BFF"/>
<stop offset="100%" stop-color="#100A0BFF"/>
</linearGradient>
<path d="M5,152.88602 L5,112.691605 Q5,82.5458,42.734207,113.394196 L93.04648,154.5254 Q130.78069,185.3738,127.2642,192.6412 L122.575554,202.33107 Q119.059074,209.59846,93.70885,206.4653 L59.90855,202.28773 Q34.558323,199.15456,25.690826,194.31773 L13.867497,187.86865 Q5,183.03183,5,152.88602 z" fill="url(#gradient_face65)" stroke="none" stroke-width="0"/>
<path d="M0,0 L72,0 L165,113 L141,181 L137,184 L0,72 z" fill="none" stroke="none" stroke-width="0"/>
<linearGradient id="gradient_face66" x1="0" x2="1.01" y1="0" y2="1.01">
<stop offset="0%" stop-color="#100A0BFF"/>
<stop offset="100%" stop-color="#100A0BFF"/>
</linearGradient>
<path d="M24.391829,5 L50.2476,5 Q69.63943,5,96.55127,37.699333 L132.43372,81.29844 Q159.34557,113.99777,152.57857,133.17094 L143.5559,158.73517 Q136.7889,177.90833,136.89207,177.83095 L137.02965,177.72777 Q137.13283,177.65038,97.49297,145.24408 L44.639847,102.03568 Q5,69.62939,5,50.24057 L5,24.388817 Q5,5,24.391829,5 z" fill="url(#gradient_face66)" stroke="none" stroke-width="0"/>
<path d="M72,0 L186,0 L221,65 L222,81 L165,113 z" fill="none" stroke="none" stroke-width="0"/>
<linearGradient id="gradient_face67" x1="0" x2="1.01" y1="0" y2="1.01">
<stop offset="0%" stop-color="#100A0BFF"/>
<stop offset="100%" stop-color="#100A0BFF"/>
</linearGradient>
<path d="M112.71752,5 L152.88667,5 Q183.01353,5,192.93289,23.421686 L206.15872,47.983936 Q216.0781,66.405624,216.29881,69.93718 L216.59311,74.64592 Q216.81384,78.17748,201.6301,86.70168 L181.3851,98.06729 Q166.20135,106.5915,141.11815,76.11405 L107.673874,35.47745 Q82.59066,5,112.71752,5 z" fill="url(#gradient_face67)" stroke="none" stroke-width="0"/>
<path d="M186,0 L279,0 L281,6 L221,65 z" fill="none" stroke="none" stroke-width="0"/>
<linearGradient id="gradient_face68" x1="0" x2="1.01" y1="0" y2="1.01">
<stop offset="0%" stop-color="#100A0BFF"/>
<stop offset="100%" stop-color="#100A0BFF"/>
</linearGradient>
<path d="M218.67862,5 L251.08867,5 Q275.3962,5,275.3584,4.8865795 L275.30798,4.7353525 Q275.27017,4.621932,259.36237,20.264618 L238.15195,41.121532 Q222.24413,56.764217,213.88222,41.234955 L202.733,20.529266 Q194.37108,5,218.67862,5 z" fill="url(#gradient_face68)" stroke="none" stroke-width="0"/>
<path d="M279,0 L361,0 L367,69 L281,6 z" fill="none" stroke="none" stroke-width="0"/>
<linearGradient id="gradient_face69" x1="0" x2="1.01" y1="0" y2="1.01">
<stop offset="0%" stop-color="#100A0BFF"/>
<stop offset="100%" stop-color="#100A0BFF"/>
</linearGradient>
<path d="M307.08078,5 L335.27228,5 Q356.41592,5,357.81036,21.03605 L359.66962,42.41745 Q361.06406,58.453503,338.31674,41.789783 L307.98703,19.571493 Q285.23972,2.9077752,285.44894,3.5354426 L285.7279,4.3723326 Q285.93713,5,307.08078,5 z" fill="url(#gradient_face69)" stroke="none" stroke-width="0"/>
<path d="M361,0 L439,0 L435,43 L374,71 L368,71 L367,69 z" fill="none" stroke="none" stroke-width="0"/>
<linearGradient id="gradient_face70" x1="0" x2="1.01" y1="0" y2="1.01">
<stop offset="0%" stop-color="#100A0BFF"/>
<stop offset="100%" stop-color="#100A0BFF"/>
</linearGradient>
<path d="M386.57153,5 L413.39542,5 Q433.5133,5,432.54602,15.398249 L431.25632,29.26258 Q430.28903,39.660828,413.0745,47.56258 L390.1218,58.098248 Q372.90726,66,372.36215,66 L371.63528,66 Q371.09018,66,371.3327,66.485054 L371.65607,67.13179 Q371.8986,67.616844,370.2651,48.831795 L368.08713,23.785055 Q366.45364,5,386.57153,5 z" fill="url(#gradient_face70)" stroke="none" stroke-width="0"/>
<path d="M439,0 L521,0 L506,50 L501,55 L435,43 z" fill="none" stroke="none" stroke-width="0"/>
<linearGradient id="gradient_face71" x1="0" x2="1.01" y1="0" y2="1.01">
<stop offset="0%" stop-color="#100A0BFF"/>
<stop offset="100%" stop-color="#100A0BFF"/>
</linearGradient>
<path d="M464.7735,5 L493.06284,5 Q514.27985,5,510.46783,17.70675 L505.38513,34.649086 Q501.5731,47.355835,500.89624,48.03269 L499.99377,48.93516 Q499.31693,49.61201,481.64273,46.39852 L458.07715,42.113873 Q440.40295,38.900383,441.349,28.730267 L442.6104,15.1701145 Q443.55646,5,464.7735,5 z" fill="url(#gradient_face71)" stroke="none" stroke-width="0"/>
<path d="M521,0 L614,0 L589,46 L506,50 z" fill="none" stroke="none" stroke-width="0"/>
<linearGradient id="gradient_face72" x1="0" x2="1.01" y1="0" y2="1.01">
<stop offset="0%" stop-color="#100A0BFF"/>
<stop offset="100%" stop-color="#100A0BFF"/>
</linearGradient>
<path d="M548.9817,5 L581.3304,5 Q605.5919,5,599.69934,15.842357 L591.8425,30.298832 Q585.94995,41.141186,564.0111,42.198483 L534.75934,43.608204 Q512.8205,44.665497,516.3904,32.76585 L521.15027,16.899649 Q524.72015,5,548.9817,5 z" fill="url(#gradient_face72)" stroke="none" stroke-width="0"/>
<path d="M614,0 L728,0 L626,125 L589,46 z" fill="none" stroke="none" stroke-width="0"/>
<linearGradient id="gradient_face73" x1="0" x2="1.01" y1="0" y2="1.01">
<stop offset="0%" stop-color="#100A0BFF"/>
<stop offset="100%" stop-color="#100A0BFF"/>
</linearGradient>
<path d="M647.1213,5 L687.3186,5 Q717.4666,5,690.373,38.20296 L654.24817,82.47358 Q627.15454,115.676544,617.38806,94.82383 L604.36615,67.02022 Q594.5997,46.167507,601.31177,33.817257 L610.2612,17.350252 Q616.9733,5,647.1213,5 z" fill="url(#gradient_face73)" stroke="none" stroke-width="0"/>
<path d="M800,0 L800,72 L668,180 L621,161 L626,125 L728,0 z" fill="none" stroke="none" stroke-width="0"/>
<linearGradient id="gradient_face74" x1="0" x2="1.01" y1="0" y2="1.01">
<stop offset="0%" stop-color="#100A0BFF"/>
<stop offset="100%" stop-color="#100A0BFF"/>
</linearGradient>
<path d="M795,24.389181 L795,50.241425 Q795,69.63061,756.6381,101.01762 L705.4889,142.86696 Q667.127,174.25398,654.93555,169.32552 L638.6803,162.75426 Q626.48883,157.82579,627.77014,148.60074 L629.47845,136.30066 Q630.7597,127.07559,660.6438,90.45292 L700.4893,41.622677 Q730.3734,5,749.76135,5 L775.612,5 Q795,5,795,24.389181 z" fill="url(#gradient_face74)" stroke="none" stroke-width="0"/>
<path d="M800,72 L800,186 L712,233 L711,233 L668,180 z" fill="none" stroke="none" stroke-width="0"/>
<linearGradient id="gradient_face75" x1="0" x2="1.01" y1="0" y2="1.01">
<stop offset="0%" stop-color="#100A0BFF"/>
<stop offset="100%" stop-color="#100A0BFF"/>
</linearGradient>
<path d="M795,112.686455 L795,152.86676 Q795,183.002,769.72455,196.5014 L736.0239,214.5006 Q710.7484,228,711.5385,228 L712.592,228 Q713.382,228,701.8734,213.81499 L686.5286,194.90164 Q675.0201,180.71663,711.01404,151.267 L759.00604,112.00084 Q795,82.551216,795,112.686455 z" fill="url(#gradient_face75)" stroke="none" stroke-width="0"/>
<path d="M800,186 L800,279 L772,287 L712,233 z" fill="none" stroke="none" stroke-width="0"/>
<linearGradient id="gradient_face76" x1="0" x2="1.01" y1="0" y2="1.01">
<stop offset="0%" stop-color="#100A0BFF"/>
<stop offset="100%" stop-color="#100A0BFF"/>
</linearGradient>
<path d="M795,218.60577 L795,250.96161 Q795,275.2285,788.48627,277.08957 L779.80133,279.57098 Q773.2876,281.43204,757.4943,267.21808 L736.4366,248.26611 Q720.6433,234.05215,742.9503,222.13817 L772.693,206.25288 Q795,194.3389,795,218.60577 z" fill="url(#gradient_face76)" stroke="none" stroke-width="0"/>
<path d="M800,279 L800,361 L764,364 L772,287 z" fill="none" stroke="none" stroke-width="0"/>
<linearGradient id="gradient_face77" x1="0" x2="1.01" y1="0" y2="1.01">
<stop offset="0%" stop-color="#100A0BFF"/>
<stop offset="100%" stop-color="#100A0BFF"/>
</linearGradient>
<path d="M795,306.85986 L795,335.16812 Q795,356.39932,787.37897,357.03442 L777.21765,357.8812 Q769.5967,358.5163,771.70483,338.2251 L774.51575,311.17017 Q776.6239,290.87897,782.1367,289.30386 L789.4872,287.20374 Q795,285.62866,795,306.85986 z" fill="url(#gradient_face77)" stroke="none" stroke-width="0"/>
<circle cx="400" cy="400" fill="none" r="0" stroke="none" stroke-width="0"/>
<circle cx="392" cy="403" fill="none" r="0" stroke="none" stroke-width="0"/>
<circle cx="412" cy="387" fill="none" r="0" stroke="none" stroke-width="0"/>
<circle cx="391" cy="425" fill="none" r="0" stroke="none" stroke-width="0"/>
<circle cx="398" cy="365" fill="none" r="0" stroke="none" stroke-width="0"/>
<circle cx="420" cy="439" fill="none" r="0" stroke="none" stroke-width="0"/>
<circle cx="360" cy="367" fill="none" r="0" stroke="none" stroke-width="0"/>
<circle cx="459" cy="416" fill="none" r="0" stroke="none" stroke-width="0"/>
<circle cx="331" cy="409" fill="none" r="0" stroke="none" stroke-width="0"/>
<circle cx="467" cy="359" fill="none" r="0" stroke="none" stroke-width="0"/>
<circle cx="350" cy="471" fill="none" r="0" stroke="none" stroke-width="0"/>
<circle cx="419" cy="306" fill="none" r="0" stroke="none" stroke-width="0"/>
<circle cx="421" cy="502" fill="none" r="0" stroke="none" stroke-width="0"/>
<circle cx="335" cy="308" fill="none" r="0" stroke="none" stroke-width="0"/>
<circle cx="504" cy="463" fill="none" r="0" stroke="none" stroke-width="0"/>
<circle cx="271" cy="382" fill="none" r="0" stroke="none" stroke-width="0"/>
<circle cx="534" cy="362" fill="none" r="0" stroke="none" stroke-width="0"/>
<circle cx="285" cy="493" fill="none" r="0" stroke="none" stroke-width="0"/>
<circle cx="472" cy="261" fill="none" r="0" stroke="none" stroke-width="0"/>
<circle cx="389" cy="565" fill="none" r="0" stroke="none" stroke-width="0"/>
<circle cx="342" cy="236" fill="none" r="0" stroke="none" stroke-width="0"/>
<circle cx="525" cy="533" fill="none" r="0" stroke="none" stroke-width="0"/>
<circle cx="225" cy="324" fill="none" r="0" stroke="none" stroke-width="0"/>
<circle cx="600" cy="400" fill="none" r="0" stroke="none" stroke-width="0"/>
<circle cx="209" cy="483" fill="none" r="0" stroke="none" stroke-width="0"/>
<circle cx="548" cy="241" fill="none" r="0" stroke="none" stroke-width="0"/>
<circle cx="324" cy="613" fill="none" r="0" stroke="none" stroke-width="0"/>
<circle cx="384" cy="166" fill="none" r="0" stroke="none" stroke-width="0"/>
<circle cx="512" cy="616" fill="none" r="0" stroke="none" stroke-width="0"/>
<circle cx="204" cy="241" fill="none" r="0" stroke="none" stroke-width="0"/>
<circle cx="651" cy="470" fill="none" r="0" stroke="none" stroke-width="0"/>
<circle cx="133" cy="437" fill="none" r="0" stroke="none" stroke-width="0"/>
<circle cx="638" cy="255" fill="none" r="0" stroke="none" stroke-width="0"/>
<circle cx="235" cy="634" fill="none" r="0" stroke="none" stroke-width="0"/>
<circle cx="460" cy="111" fill="none" r="0" stroke="none" stroke-width="0"/>
<circle cx="462" cy="698" fill="none" r="0" stroke="none" stroke-width="0"/>
<circle cx="219" cy="144" fill="none" r="0" stroke="none" stroke-width="0"/>
<circle cx="675" cy="567" fill="none" r="0" stroke="none" stroke-width="0"/>
<circle cx="73" cy="355" fill="none" r="0" stroke="none" stroke-width="0"/>
<circle cx="727" cy="309" fill="none" r="0" stroke="none" stroke-width="0"/>
<circle cx="130" cy="620" fill="none" r="0" stroke="none" stroke-width="0"/>
<circle cx="564" cy="83" fill="none" r="0" stroke="none" stroke-width="0"/>
<circle cx="375" cy="764" fill="none" r="0" stroke="none" stroke-width="0"/>
<circle cx="275" cy="48" fill="none" r="0" stroke="none" stroke-width="0"/>
<circle cx="661" cy="680" fill="none" r="0" stroke="none" stroke-width="0"/>
<circle cx="41" cy="244" fill="none" r="0" stroke="none" stroke-width="0"/>
<circle cx="820" cy="400" fill="none" r="0" stroke="none" stroke-width="0"/>
<circle cx="812" cy="482" fill="none" r="0" stroke="none" stroke-width="0"/>
<circle cx="788" cy="561" fill="none" r="0" stroke="none" stroke-width="0"/>
<circle cx="749" cy="633" fill="none" r="0" stroke="none" stroke-width="0"/>
<circle cx="697" cy="697" fill="none" r="0" stroke="none" stroke-width="0"/>
<circle cx="633" cy="749" fill="none" r="0" stroke="none" stroke-width="0"/>
<circle cx="561" cy="788" fill="none" r="0" stroke="none" stroke-width="0"/>
<circle cx="482" cy="812" fill="none" r="0" stroke="none" stroke-width="0"/>
<circle cx="400" cy="820" fill="none" r="0" stroke="none" stroke-width="0"/>
<circle cx="318" cy="812" fill="none" r="0" stroke="none" stroke-width="0"/>
<circle cx="239" cy="788" fill="none" r="0" stroke="none" stroke-width="0"/>
<circle cx="167" cy="749" fill="none" r="0" stroke="none" stroke-width="0"/>
<circle cx="103" cy="697" fill="none" r="0" stroke="none" stroke-width="0"/>
<circle cx="51" cy="633" fill="none" r="0" stroke="none" stroke-width="0"/>
<circle cx="12" cy="561" fill="none" r="0" stroke="none" stroke-width="0"/>
<circle cx="-12" cy="482" fill="none" r="0" stroke="none" stroke-width="0"/>
<circle cx="-20" cy="400" fill="none" r="0" stroke="none" stroke-width="0"/>
<circle cx="-12" cy="318" fill="none" r="0" stroke="none" stroke-width="0"/>
<circle cx="12" cy="239" fill="none" r="0" stroke="none" stroke-width="0"/>
<circle cx="51" cy="167" fill="none" r="0" stroke="none" stroke-width="0"/>
<circle cx="103" cy="103" fill="none" r="0" stroke="none" stroke-width="0"/>
<circle cx="167" cy="51" fill="none" r="0" stroke="none" stroke-width="0"/>
<circle cx="239" cy="12" fill="none" r="0" stroke="none" stroke-width="0"/>
<circle cx="318" cy="-12" fill="none" r="0" stroke="none" stroke-width="0"/>
<circle cx="400" cy="-20" fill="none" r="0" stroke="none" stroke-width="0"/>
<circle cx="482" cy="-12" fill="none" r="0" stroke="none" stroke-width="0"/>
<circle cx="561" cy="12" fill="none" r="0" stroke="none" stroke-width="0"/>
<circle cx="633" cy="51" fill="none" r="0" stroke="none" stroke-width="0"/>
<circle cx="697" cy="103" fill="none" r="0" stroke="none" stroke-width="0"/>
<circle cx="749" cy="167" fill="none" r="0" stroke="none" stroke-width="0"/>
<circle cx="788" cy="239" fill="none" r="0" stroke="none" stroke-width="0"/>
<circle cx="812" cy="318" fill="none" r="0" stroke="none" stroke-width="0"/>
<circle cx="436" cy="770" fill="none" r="0" stroke="none" stroke-width="0"/>
<circle cx="441" cy="760" fill="none" r="0" stroke="none" stroke-width="0"/>
<circle cx="506" cy="749" fill="none" r="0" stroke="none" stroke-width="0"/>
<circle cx="663" cy="721" fill="none" r="0" stroke="none" stroke-width="0"/>
<circle cx="299" cy="732" fill="none" r="0" stroke="none" stroke-width="0"/>
<circle cx="234" cy="711" fill="none" r="0" stroke="none" stroke-width="0"/>
<circle cx="296" cy="709" fill="none" r="0" stroke="none" stroke-width="0"/>
<circle cx="299" cy="706" fill="none" r="0" stroke="none" stroke-width="0"/>
<circle cx="553" cy="697" fill="none" r="0" stroke="none" stroke-width="0"/>
<circle cx="172" cy="678" fill="none" r="0" stroke="none" stroke-width="0"/>
<circle cx="175" cy="677" fill="none" r="0" stroke="none" stroke-width="0"/>
<circle cx="558" cy="696" fill="none" r="0" stroke="none" stroke-width="0"/>
<circle cx="95" cy="651" fill="none" r="0" stroke="none" stroke-width="0"/>
<circle cx="700" cy="646" fill="none" r="0" stroke="none" stroke-width="0"/>
<circle cx="571" cy="684" fill="none" r="0" stroke="none" stroke-width="0"/>
<circle cx="379" cy="679" fill="none" r="0" stroke="none" stroke-width="0"/>
<circle cx="689" cy="626" fill="none" r="0" stroke="none" stroke-width="0"/>
<circle cx="399" cy="646" fill="none" r="0" stroke="none" stroke-width="0"/>
<circle cx="436" cy="626" fill="none" r="0" stroke="none" stroke-width="0"/>
<circle cx="601" cy="615" fill="none" r="0" stroke="none" stroke-width="0"/>
<circle cx="732" cy="578" fill="none" r="0" stroke="none" stroke-width="0"/>
<circle cx="81" cy="571" fill="none" r="0" stroke="none" stroke-width="0"/>
<circle cx="592" cy="586" fill="none" r="0" stroke="none" stroke-width="0"/>
<circle cx="461" cy="566" fill="none" r="0" stroke="none" stroke-width="0"/>
<circle cx="460" cy="562" fill="none" r="0" stroke="none" stroke-width="0"/>
<circle cx="266" cy="566" fill="none" r="0" stroke="none" stroke-width="0"/>
<circle cx="191" cy="564" fill="none" r="0" stroke="none" stroke-width="0"/>
<circle cx="325" cy="547" fill="none" r="0" stroke="none" stroke-width="0"/>
<circle cx="238" cy="556" fill="none" r="0" stroke="none" stroke-width="0"/>
<circle cx="335" cy="532" fill="none" r="0" stroke="none" stroke-width="0"/>
<circle cx="372" cy="517" fill="none" r="0" stroke="none" stroke-width="0"/>
<circle cx="475" cy="510" fill="none" r="0" stroke="none" stroke-width="0"/>
<circle cx="604" cy="533" fill="none" r="0" stroke="none" stroke-width="0"/>
<circle cx="129" cy="528" fill="none" r="0" stroke="none" stroke-width="0"/>
<circle cx="102" cy="528" fill="none" r="0" stroke="none" stroke-width="0"/>
<circle cx="392" cy="471" fill="none" r="0" stroke="none" stroke-width="0"/>
<circle cx="389" cy="465" fill="none" r="0" stroke="none" stroke-width="0"/>
<circle cx="457" cy="470" fill="none" r="0" stroke="none" stroke-width="0"/>
<circle cx="728" cy="503" fill="none" r="0" stroke="none" stroke-width="0"/>
<circle cx="459" cy="462" fill="none" r="0" stroke="none" stroke-width="0"/>
<circle cx="730" cy="500" fill="none" r="0" stroke="none" stroke-width="0"/>
<circle cx="73" cy="499" fill="none" r="0" stroke="none" stroke-width="0"/>
<circle cx="577" cy="480" fill="none" r="0" stroke="none" stroke-width="0"/>
<circle cx="307" cy="451" fill="none" r="0" stroke="none" stroke-width="0"/>
<circle cx="402" cy="414" fill="none" r="0" stroke="none" stroke-width="0"/>
<circle cx="357" cy="435" fill="none" r="0" stroke="none" stroke-width="0"/>
<circle cx="577" cy="470" fill="none" r="0" stroke="none" stroke-width="0"/>
<circle cx="412" cy="418" fill="none" r="0" stroke="none" stroke-width="0"/>
<circle cx="425" cy="412" fill="none" r="0" stroke="none" stroke-width="0"/>
<circle cx="362" cy="413" fill="none" r="0" stroke="none" stroke-width="0"/>
<circle cx="430" cy="411" fill="none" r="0" stroke="none" stroke-width="0"/>
<circle cx="282" cy="437" fill="none" r="0" stroke="none" stroke-width="0"/>
<circle cx="253" cy="441" fill="none" r="0" stroke="none" stroke-width="0"/>
<circle cx="361" cy="399" fill="none" r="0" stroke="none" stroke-width="0"/>
<circle cx="394" cy="383" fill="none" r="0" stroke="none" stroke-width="0"/>
<circle cx="388" cy="383" fill="none" r="0" stroke="none" stroke-width="0"/>
<circle cx="545" cy="420" fill="none" r="0" stroke="none" stroke-width="0"/>
<circle cx="511" cy="411" fill="none" r="0" stroke="none" stroke-width="0"/>
<circle cx="379" cy="382" fill="none" r="0" stroke="none" stroke-width="0"/>
<circle cx="53" cy="434" fill="none" r="0" stroke="none" stroke-width="0"/>
<circle cx="53" cy="433" fill="none" r="0" stroke="none" stroke-width="0"/>
<circle cx="446" cy="385" fill="none" r="0" stroke="none" stroke-width="0"/>
<circle cx="499" cy="393" fill="none" r="0" stroke="none" stroke-width="0"/>
<circle cx="735" cy="433" fill="none" r="0" stroke="none" stroke-width="0"/>
<circle cx="202" cy="409" fill="none" r="0" stroke="none" stroke-width="0"/>
<circle cx="432" cy="359" fill="none" r="0" stroke="none" stroke-width="0"/>
<circle cx="314" cy="367" fill="none" r="0" stroke="none" stroke-width="0"/>
<circle cx="196" cy="394" fill="none" r="0" stroke="none" stroke-width="0"/>
<circle cx="723" cy="405" fill="none" r="0" stroke="none" stroke-width="0"/>
<circle cx="19" cy="362" fill="none" r="0" stroke="none" stroke-width="0"/>
<circle cx="431" cy="344" fill="none" r="0" stroke="none" stroke-width="0"/>
<circle cx="311" cy="352" fill="none" r="0" stroke="none" stroke-width="0"/>
<circle cx="689" cy="389" fill="none" r="0" stroke="none" stroke-width="0"/>
<circle cx="764" cy="364" fill="none" r="0" stroke="none" stroke-width="0"/>
<circle cx="377" cy="325" fill="none" r="0" stroke="none" stroke-width="0"/>
<circle cx="153" cy="359" fill="none" r="0" stroke="none" stroke-width="0"/>
<circle cx="377" cy="324" fill="none" r="0" stroke="none" stroke-width="0"/>
<circle cx="281" cy="326" fill="none" r="0" stroke="none" stroke-width="0"/>
<circle cx="469" cy="310" fill="none" r="0" stroke="none" stroke-width="0"/>
<circle cx="650" cy="336" fill="none" r="0" stroke="none" stroke-width="0"/>
<circle cx="503" cy="312" fill="none" r="0" stroke="none" stroke-width="0"/>
<circle cx="600" cy="323" fill="none" r="0" stroke="none" stroke-width="0"/>
<circle cx="45" cy="303" fill="none" r="0" stroke="none" stroke-width="0"/>
<circle cx="19" cy="285" fill="none" r="0" stroke="none" stroke-width="0"/>
<circle cx="772" cy="287" fill="none" r="0" stroke="none" stroke-width="0"/>
<circle cx="523" cy="300" fill="none" r="0" stroke="none" stroke-width="0"/>
<circle cx="584" cy="307" fill="none" r="0" stroke="none" stroke-width="0"/>
<circle cx="377" cy="276" fill="none" r="0" stroke="none" stroke-width="0"/>
<circle cx="141" cy="300" fill="none" r="0" stroke="none" stroke-width="0"/>
<circle cx="273" cy="268" fill="none" r="0" stroke="none" stroke-width="0"/>
<circle cx="274" cy="266" fill="none" r="0" stroke="none" stroke-width="0"/>
<circle cx="123" cy="281" fill="none" r="0" stroke="none" stroke-width="0"/>
<circle cx="408" cy="240" fill="none" r="0" stroke="none" stroke-width="0"/>
<circle cx="33" cy="204" fill="none" r="0" stroke="none" stroke-width="0"/>
<circle cx="411" cy="230" fill="none" r="0" stroke="none" stroke-width="0"/>
<circle cx="712" cy="233" fill="none" r="0" stroke="none" stroke-width="0"/>
<circle cx="711" cy="233" fill="none" r="0" stroke="none" stroke-width="0"/>
<circle cx="122" cy="215" fill="none" r="0" stroke="none" stroke-width="0"/>
<circle cx="272" cy="202" fill="none" r="0" stroke="none" stroke-width="0"/>
<circle cx="457" cy="186" fill="none" r="0" stroke="none" stroke-width="0"/>
<circle cx="493" cy="184" fill="none" r="0" stroke="none" stroke-width="0"/>
<circle cx="668" cy="180" fill="none" r="0" stroke="none" stroke-width="0"/>
<circle cx="137" cy="184" fill="none" r="0" stroke="none" stroke-width="0"/>
<circle cx="141" cy="181" fill="none" r="0" stroke="none" stroke-width="0"/>
<circle cx="301" cy="164" fill="none" r="0" stroke="none" stroke-width="0"/>
<circle cx="528" cy="160" fill="none" r="0" stroke="none" stroke-width="0"/>
<circle cx="606" cy="167" fill="none" r="0" stroke="none" stroke-width="0"/>
<circle cx="621" cy="161" fill="none" r="0" stroke="none" stroke-width="0"/>
<circle cx="165" cy="113" fill="none" r="0" stroke="none" stroke-width="0"/>
<circle cx="626" cy="125" fill="none" r="0" stroke="none" stroke-width="0"/>
<circle cx="305" cy="129" fill="none" r="0" stroke="none" stroke-width="0"/>
<circle cx="222" cy="81" fill="none" r="0" stroke="none" stroke-width="0"/>
<circle cx="221" cy="65" fill="none" r="0" stroke="none" stroke-width="0"/>
<circle cx="589" cy="46" fill="none" r="0" stroke="none" stroke-width="0"/>
<circle cx="501" cy="55" fill="none" r="0" stroke="none" stroke-width="0"/>
<circle cx="506" cy="50" fill="none" r="0" stroke="none" stroke-width="0"/>
<circle cx="374" cy="71" fill="none" r="0" stroke="none" stroke-width="0"/>
<circle cx="368" cy="71" fill="none" r="0" stroke="none" stroke-width="0"/>
<circle cx="367" cy="69" fill="none" r="0" stroke="none" stroke-width="0"/>
<circle cx="435" cy="43" fill="none" r="0" stroke="none" stroke-width="0"/>
<circle cx="281" cy="6" fill="none" r="0" stroke="none" stroke-width="0"/>
<circle cx="0" cy="0" fill="none" r="0" stroke="none" stroke-width="0"/>
<circle cx="800" cy="0" fill="none" r="0" stroke="none" stroke-width="0"/>
<circle cx="800" cy="800" fill="none" r="0" stroke="none" stroke-width="0"/>
<circle cx="0" cy="800" fill="none" r="0" stroke="none" stroke-width="0"/>
<circle cx="370" cy="800" fill="none" r="0" stroke="none" stroke-width="0"/>
<circle cx="356" cy="800" fill="none" r="0" stroke="none" stroke-width="0"/>
<circle cx="800" cy="361" fill="none" r="0" stroke="none" stroke-width="0"/>
<circle cx="800" cy="439" fill="none" r="0" stroke="none" stroke-width="0"/>
<circle cx="800" cy="521" fill="none" r="0" stroke="none" stroke-width="0"/>
<circle cx="800" cy="614" fill="none" r="0" stroke="none" stroke-width="0"/>
<circle cx="800" cy="728" fill="none" r="0" stroke="none" stroke-width="0"/>
<circle cx="728" cy="800" fill="none" r="0" stroke="none" stroke-width="0"/>
<circle cx="614" cy="800" fill="none" r="0" stroke="none" stroke-width="0"/>
<circle cx="521" cy="800" fill="none" r="0" stroke="none" stroke-width="0"/>
<circle cx="439" cy="800" fill="none" r="0" stroke="none" stroke-width="0"/>
<circle cx="279" cy="800" fill="none" r="0" stroke="none" stroke-width="0"/>
<circle cx="186" cy="800" fill="none" r="0" stroke="none" stroke-width="0"/>
<circle cx="72" cy="800" fill="none" r="0" stroke="none" stroke-width="0"/>
<circle cx="0" cy="728" fill="none" r="0" stroke="none" stroke-width="0"/>
<circle cx="0" cy="614" fill="none" r="0" stroke="none" stroke-width="0"/>
<circle cx="0" cy="521" fill="none" r="0" stroke="none" stroke-width="0"/>
<circle cx="0" cy="439" fill="none" r="0" stroke="none" stroke-width="0"/>
<circle cx="0" cy="361" fill="none" r="0" stroke="none" stroke-width="0"/>
<circle cx="0" cy="279" fill="none" r="0" stroke="none" stroke-width="0"/>
<circle cx="0" cy="186" fill="none" r="0" stroke="none" stroke-width="0"/>
<circle cx="0" cy="72" fill="none" r="0" stroke="none" stroke-width="0"/>
<circle cx="72" cy="0" fill="none" r="0" stroke="none" stroke-width="0"/>
<circle cx="186" cy="0" fill="none" r="0" stroke="none" stroke-width="0"/>
<circle cx="279" cy="0" fill="none" r="0" stroke="none" stroke-width="0"/>
<circle cx="361" cy="0" fill="none" r="0" stroke="none" stroke-width="0"/>
<circle cx="439" cy="0" fill="none" r="0" stroke="none" stroke-width="0"/>
<circle cx="521" cy="0" fill="none" r="0" stroke="none" stroke-width="0"/>
<circle cx="614" cy="0" fill="none" r="0" stroke="none" stroke-width="0"/>
<circle cx="728" cy="0" fill="none" r="0" stroke="none" stroke-width="0"/>
<circle cx="800" cy="72" fill="none" r="0" stroke="none" stroke-width="0"/>
<circle cx="800" cy="186" fill="none" r="0" stroke="none" stroke-width="0"/>
<circle cx="800" cy="279" fill="none" r="0" stroke="none" stroke-width="0"/>
</svg>