<svg 
            xmlns:xlink="http://www.w3.org/1999/xlink" viewBox="0 0 800 800" xmlns="http://www.w3.org/2000/svg">
<rect fill="#12101D" height="800" stroke="none" width="800" x="0" y="0"/>
<path d="M408,361 L430,368 L398,411 L392,413 L383,410 L375,400 L375,383 L386,368 z" fill="none" stroke="none" stroke-width="0"/>
<linearGradient id="gradient_face0" x1="0" x2="1.01" y1="0" y2="1.01">
<stop offset="0%" stop-color="#FFF7FBFF"/>
<stop offset="100%" stop-color="#FFF7FBFF"/>
</linearGradient>
<path d="M412.14105,367.5646 L417.66245,369.3214 Q421.80347,370.639,413.74066,381.47342 L402.99023,395.9193 Q394.9274,406.75372,394.0492,407.04648 L392.87823,407.4368 Q392,407.72952,390.19458,407.12772 L387.78735,406.32532 Q385.98193,405.7235,384.18735,403.4803 L381.7946,400.48932 Q380,398.2461,380,394.16333 L380,388.71964 Q380,384.63684,382.72058,380.927 L386.348,375.9805 Q389.06854,372.27063,394.748,370.46356 L402.32056,368.05408 Q408,366.247,412.14105,367.5646 z" fill="url(#gradient_face0)" stroke="none" stroke-width="0"/>
<path d="M430,368 L433,368 L453,391 L455,419 L398,411 z" fill="none" stroke="none" stroke-width="0"/>
<linearGradient id="gradient_face1" x1="0" x2="1.01" y1="0" y2="1.01">
<stop offset="0%" stop-color="#EFE6F2FF"/>
<stop offset="100%" stop-color="#ECE2F0FF"/>
</linearGradient>
<path d="M431.97473,373 L431.2588,373 Q430.72186,373,435.9448,379.00638 L442.9087,387.0149 Q448.13162,393.02127,448.5638,399.07162 L449.14005,407.13882 Q449.5722,413.1892,436.81412,411.3986 L419.80334,409.0111 Q407.04526,407.2205,414.68518,396.95435 L424.87173,383.26614 Q432.51166,373,431.97473,373 z" fill="url(#gradient_face1)" stroke="none" stroke-width="0"/>
<path d="M455,419 L456,426 L437,462 L424,466 L392,413 L398,411 z" fill="none" stroke="none" stroke-width="0"/>
<linearGradient id="gradient_face2" x1="0" x2="1.01" y1="0" y2="1.01">
<stop offset="0%" stop-color="#DBD7EAFF"/>
<stop offset="100%" stop-color="#D1D1E6FF"/>
</linearGradient>
<path d="M450.6536,423.93054 L450.74915,424.5994 Q450.8208,425.101,445.63852,434.9201 L438.7288,448.0122 Q433.5465,457.83127,431.36115,458.5037 L428.4473,459.40027 Q426.26193,460.0727,418.2367,446.7809 L407.5364,429.05853 Q399.51117,415.76675,399.19806,415.8711 L398.7806,416.01025 Q398.46753,416.11462,414.10184,418.3089 L434.9476,421.23465 Q450.58194,423.42892,450.6536,423.93054 z" fill="url(#gradient_face2)" stroke="none" stroke-width="0"/>
<path d="M383,410 L392,413 L424,466 L394,482 L369,474 z" fill="none" stroke="none" stroke-width="0"/>
<linearGradient id="gradient_face3" x1="0" x2="1.01" y1="0" y2="1.01">
<stop offset="0%" stop-color="#BFC9E1FF"/>
<stop offset="100%" stop-color="#A8BEDBFF"/>
</linearGradient>
<path d="M387.28857,416.69998 L388.0789,416.9634 Q388.67163,417.161,397.16833,431.23367 L408.49725,449.99722 Q416.99396,464.0699,409.94922,467.8271 L400.55618,472.8367 Q393.51144,476.5939,387.915,474.80304 L380.4531,472.41522 Q374.85666,470.62436,378.40842,454.3878 L383.14407,432.73898 Q386.69583,416.5024,387.28857,416.69998 z" fill="url(#gradient_face3)" stroke="none" stroke-width="0"/>
<path d="M375,400 L383,410 L369,474 L341,472 L319,442 z" fill="none" stroke="none" stroke-width="0"/>
<linearGradient id="gradient_face4" x1="0" x2="1.01" y1="0" y2="1.01">
<stop offset="0%" stop-color="#99B9D8FF"/>
<stop offset="100%" stop-color="#6CAAD0FF"/>
</linearGradient>
<path d="M375.1679,408.21378 L376.56104,409.9552 Q377.60587,411.26123,373.83615,428.4942 L368.80988,451.47147 Q365.0402,468.7044,358.6273,468.24637 L350.07678,467.6356 Q343.66388,467.17755,338.3519,459.9339 L331.26923,450.27573 Q325.9572,443.03207,340.40698,432.19476 L359.6733,417.74503 Q374.12305,406.9077,375.1679,408.21378 z" fill="url(#gradient_face4)" stroke="none" stroke-width="0"/>
<path d="M300,380 L375,383 L375,400 L319,442 L300,427 z" fill="none" stroke="none" stroke-width="0"/>
<linearGradient id="gradient_face5" x1="0" x2="1.01" y1="0" y2="1.01">
<stop offset="0%" stop-color="#67A9CFFF"/>
<stop offset="100%" stop-color="#3B92C1FF"/>
</linearGradient>
<path d="M324.5,385.984 L350.5,387.024 Q370,387.804,370,390.7128 L370,394.5912 Q370,397.5,354.72345,408.9574 L334.35474,424.23395 Q319.0782,435.69135,314.85474,432.35706 L309.22345,427.9113 Q305,424.577,305,412.7651 L305,397.0159 Q305,385.204,324.5,385.984 z" fill="url(#gradient_face5)" stroke="none" stroke-width="0"/>
<path d="M293,360 L326,315 L386,368 L375,383 L300,380 z" fill="none" stroke="none" stroke-width="0"/>
<linearGradient id="gradient_face6" x1="0" x2="1.01" y1="0" y2="1.01">
<stop offset="0%" stop-color="#3F95C3FF"/>
<stop offset="100%" stop-color="#088391FF"/>
</linearGradient>
<path d="M307.05054,349.29523 L318.3324,333.91083 Q326.79382,322.37256,342.5361,336.27823 L363.52582,354.81915 Q379.2681,368.72482,377.25006,371.47668 L374.5594,375.1458 Q372.54135,377.89764,351.85785,377.0703 L324.27985,375.9672 Q303.59634,375.13986,302.09418,370.84796 L300.0913,365.1254 Q298.58914,360.8335,307.05054,349.29523 z" fill="url(#gradient_face6)" stroke="none" stroke-width="0"/>
<path d="M330,296 L391,277 L408,361 L386,368 L326,315 z" fill="none" stroke="none" stroke-width="0"/>
<linearGradient id="gradient_face7" x1="0" x2="1.01" y1="0" y2="1.01">
<stop offset="0%" stop-color="#16879FFF"/>
<stop offset="100%" stop-color="#016F60FF"/>
</linearGradient>
<path d="M350.16125,294.95718 L371.3252,288.36514 Q387.19815,283.4211,391.70157,305.6734 L397.70618,335.3431 Q402.2096,357.5954,397.70236,359.0295 L391.69272,360.94168 Q387.18546,362.3758,370.47763,347.61722 L348.2005,327.9391 Q331.49265,313.18048,332.33136,309.19672 L333.4496,303.885 Q334.2883,299.90125,350.16125,294.95718 z" fill="url(#gradient_face7)" stroke="none" stroke-width="0"/>
<path d="M391,277 L404,265 L472,287 L433,368 L430,368 L408,361 z" fill="none" stroke="none" stroke-width="0"/>
<linearGradient id="gradient_face8" x1="0" x2="1.01" y1="0" y2="1.01">
<stop offset="0%" stop-color="#017876FF"/>
<stop offset="100%" stop-color="#014C3CFF"/>
</linearGradient>
<path d="M399.09396,276.3332 L402.60764,273.0898 Q405.24286,270.6573,423.17282,276.45813 L447.07938,284.19263 Q465.0093,289.99347,454.46393,311.89545 L440.4034,341.09805 Q429.85803,363,430.1335,363 L430.5008,363 Q430.77628,363,425.23865,361.23804 L417.85513,358.88873 Q412.3175,357.12674,407.55988,333.61844 L401.21634,302.27405 Q396.4587,278.76572,399.09396,276.3332 z" fill="url(#gradient_face8)" stroke="none" stroke-width="0"/>
<path d="M472,287 L489,284 L536,348 L453,391 L433,368 z" fill="none" stroke="none" stroke-width="0"/>
<linearGradient id="gradient_face9" x1="0" x2="1.01" y1="0" y2="1.01">
<stop offset="0%" stop-color="#FFF7FBFF"/>
<stop offset="100%" stop-color="#FFF7FBFF"/>
</linearGradient>
<path d="M478.81787,290.8741 L483.3843,290.06827 Q486.8091,289.4639,499.31955,306.4994 L516.0001,329.21338 Q528.5106,346.2489,506.2151,357.7996 L476.48773,373.2005 Q454.19223,384.7512,449.61447,379.48676 L443.5108,372.46756 Q438.93304,367.20313,449.87106,344.48575 L464.45508,314.1959 Q475.39307,291.4785,478.81787,290.8741 z" fill="url(#gradient_face9)" stroke="none" stroke-width="0"/>
<path d="M536,348 L550,355 L550,442 L456,426 L455,419 L453,391 z" fill="none" stroke="none" stroke-width="0"/>
<linearGradient id="gradient_face10" x1="0" x2="1.01" y1="0" y2="1.01">
<stop offset="0%" stop-color="#EFE6F2FF"/>
<stop offset="100%" stop-color="#ECE2F0FF"/>
</linearGradient>
<path d="M538.7282,354.95425 L542.3121,356.74622 Q545,358.09018,545,381.48624 L545,412.68097 Q545,436.07703,519.6302,431.75876 L485.8038,426.00107 Q460.43402,421.6828,460.29623,420.71826 L460.11252,419.43222 Q459.9747,418.46765,459.44882,411.10513 L458.74762,401.28845 Q458.22174,393.92593,481.5673,381.83124 L512.6947,365.705 Q536.0403,353.6103,538.7282,354.95425 z" fill="url(#gradient_face10)" stroke="none" stroke-width="0"/>
<path d="M550,442 L558,455 L503,531 L437,462 L456,426 z" fill="none" stroke="none" stroke-width="0"/>
<linearGradient id="gradient_face11" x1="0" x2="1.01" y1="0" y2="1.01">
<stop offset="0%" stop-color="#DBD7EAFF"/>
<stop offset="100%" stop-color="#D1D1E6FF"/>
</linearGradient>
<path d="M548.4472,449.01694 L550.4721,452.30737 Q551.9907,454.77518,537.1335,475.30524 L517.3238,502.67865 Q502.4665,523.2087,484.65762,504.59033 L460.91248,479.76584 Q443.1036,461.14746,447.79193,452.26428 L454.0431,440.42 Q458.7314,431.53683,485.19055,436.04053 L520.4694,442.04544 Q546.9285,446.5491,548.4472,449.01694 z" fill="url(#gradient_face11)" stroke="none" stroke-width="0"/>
<path d="M424,466 L437,462 L503,531 L502,546 L406,577 L394,482 z" fill="none" stroke="none" stroke-width="0"/>
<linearGradient id="gradient_face12" x1="0" x2="1.01" y1="0" y2="1.01">
<stop offset="0%" stop-color="#BFC9E1FF"/>
<stop offset="100%" stop-color="#A8BEDBFF"/>
</linearGradient>
<path d="M428.8066,469.75238 L432.643,468.57193 Q435.52032,467.6866,454.2236,487.24005 L479.16132,513.3113 Q497.8646,532.86475,497.6762,535.6905 L497.42502,539.4582 Q497.23663,542.28394,471.127,550.71515 L436.31418,561.95685 Q410.20453,570.38806,406.96085,544.70886 L402.63593,510.46997 Q399.39224,484.7908,407.35336,480.54486 L417.9682,474.88364 Q425.92932,470.6377,428.8066,469.75238 z" fill="url(#gradient_face12)" stroke="none" stroke-width="0"/>
<path d="M341,472 L369,474 L394,482 L406,577 L397,588 L294,555 z" fill="none" stroke="none" stroke-width="0"/>
<linearGradient id="gradient_face13" x1="0" x2="1.01" y1="0" y2="1.01">
<stop offset="0%" stop-color="#99B9D8FF"/>
<stop offset="100%" stop-color="#6CAAD0FF"/>
</linearGradient>
<path d="M351.07004,477.73203 L360.77084,478.42496 Q368.04645,478.94464,374.46423,480.99832 L383.02127,483.73657 Q389.43903,485.79025,392.8384,512.70197 L397.3709,548.5842 Q400.7703,575.496,399.1247,577.5072 L396.93057,580.1889 Q395.285,582.2002,367.11356,573.1744 L329.5516,561.13995 Q301.38013,552.11414,314.10443,529.6436 L331.07013,499.6829 Q343.79443,477.21234,351.07004,477.73203 z" fill="url(#gradient_face13)" stroke="none" stroke-width="0"/>
<path d="M300,427 L319,442 L341,472 L294,555 L281,559 L213,466 z" fill="none" stroke="none" stroke-width="0"/>
<linearGradient id="gradient_face14" x1="0" x2="1.01" y1="0" y2="1.01">
<stop offset="0%" stop-color="#67A9CFFF"/>
<stop offset="100%" stop-color="#3B92C1FF"/>
</linearGradient>
<path d="M304.10687,436.61264 L310.5425,441.69342 Q315.36923,445.50397,321.27527,453.55768 L329.15,464.29593 Q335.05603,472.3496,321.7279,495.8865 L303.9571,527.26904 Q290.62897,550.8059,288.32043,551.51624 L285.2424,552.4633 Q282.93387,553.17365,264.25842,527.6322 L239.35782,493.577 Q220.68237,468.03558,244.26172,457.4655 L275.70084,443.37213 Q299.28015,432.8021,304.10687,436.61264 z" fill="url(#gradient_face14)" stroke="none" stroke-width="0"/>
<path d="M200,340 L293,360 L300,380 L300,427 L213,466 L200,462 z" fill="none" stroke="none" stroke-width="0"/>
<linearGradient id="gradient_face15" x1="0" x2="1.01" y1="0" y2="1.01">
<stop offset="0%" stop-color="#3F95C3FF"/>
<stop offset="100%" stop-color="#088391FF"/>
</linearGradient>
<path d="M230.26213,351.6223 L263.94498,358.86594 Q289.20712,364.29865,290.94498,369.26398 L293.26215,375.8844 Q295,380.84973,295,393.72342 L295,410.8883 Q295,423.762,270.30154,434.8337 L237.3703,449.59598 Q212.67186,460.6677,210.3703,459.95953 L207.30156,459.0153 Q205,458.30713,205,424.67188 L205,379.82486 Q205,346.18958,230.26213,351.6223 z" fill="url(#gradient_face15)" stroke="none" stroke-width="0"/>
<path d="M268,225 L330,296 L326,315 L293,360 L200,340 L192,329 z" fill="none" stroke="none" stroke-width="0"/>
<linearGradient id="gradient_face16" x1="0" x2="1.01" y1="0" y2="1.01">
<stop offset="0%" stop-color="#16879FFF"/>
<stop offset="100%" stop-color="#016F60FF"/>
</linearGradient>
<path d="M285.22107,252.32256 L307.7196,278.08698 Q324.59348,297.4103,323.61432,302.0613 L322.30878,308.26266 Q321.32962,312.91367,312.1959,325.36874 L300.0176,341.97552 Q290.88388,354.4306,264.4946,348.7555 L229.3089,341.18866 Q202.91962,335.51355,201.50003,333.5616 L199.60722,330.959 Q198.18762,329.00705,219.23549,300.2047 L247.29932,261.80157 Q268.3472,232.99922,285.22107,252.32256 z" fill="url(#gradient_face16)" stroke="none" stroke-width="0"/>
<path d="M267,212 L396,170 L404,265 L391,277 L330,296 L268,225 z" fill="none" stroke="none" stroke-width="0"/>
<linearGradient id="gradient_face17" x1="0" x2="1.01" y1="0" y2="1.01">
<stop offset="0%" stop-color="#017876FF"/>
<stop offset="100%" stop-color="#014C3CFF"/>
</linearGradient>
<path d="M308.06494,203.88835 L355.7691,188.35677 Q391.54718,176.70808,393.7268,202.59084 L396.63293,237.10115 Q398.81253,262.9839,395.69983,265.85715 L391.54956,269.68817 Q388.43686,272.56143,371.39282,277.8702 L348.66745,284.9486 Q331.6234,290.25742,313.99377,270.06866 L290.4876,243.15028 Q272.85797,222.96152,272.68665,220.73418 L272.4582,217.76437 Q272.28687,215.53703,308.06494,203.88835 z" fill="url(#gradient_face17)" stroke="none" stroke-width="0"/>
<path d="M396,170 L403,159 L538,203 L489,284 L472,287 L404,265 z" fill="none" stroke="none" stroke-width="0"/>
<linearGradient id="gradient_face18" x1="0" x2="1.01" y1="0" y2="1.01">
<stop offset="0%" stop-color="#FFF7FBFF"/>
<stop offset="100%" stop-color="#FFF7FBFF"/>
</linearGradient>
<path d="M402.3278,169.36949 L403.93292,166.8471 Q405.1368,164.9553,442.73416,177.20926 L492.864,193.54788 Q530.46136,205.80183,517.09186,227.90242 L499.2659,257.36984 Q485.89642,279.47043,481.83423,280.1873 L476.418,281.1431 Q472.3558,281.85995,453.26007,275.68192 L427.79904,267.44452 Q408.7033,261.26648,406.42947,234.26492 L403.39774,198.26285 Q401.1239,171.26129,402.3278,169.36949 z" fill="url(#gradient_face18)" stroke="none" stroke-width="0"/>
<path d="M538,203 L550,198 L638,319 L550,355 L536,348 L489,284 z" fill="none" stroke="none" stroke-width="0"/>
<linearGradient id="gradient_face19" x1="0" x2="1.01" y1="0" y2="1.01">
<stop offset="0%" stop-color="#EFE6F2FF"/>
<stop offset="100%" stop-color="#ECE2F0FF"/>
</linearGradient>
<path d="M543.48596,206.13084 L546.2246,204.98975 Q548.27856,204.13394,572.8571,237.92949 L605.6286,282.9902 Q630.20715,316.78577,606.20703,326.604 L574.20685,339.69498 Q550.2067,349.5132,546.9394,347.87955 L542.58295,345.7013 Q539.3156,344.06763,526.02277,325.96677 L508.299,301.83228 Q495.0062,283.73138,508.93393,260.70798 L527.5043,230.01009 Q541.432,206.98666,543.48596,206.13084 z" fill="url(#gradient_face19)" stroke="none" stroke-width="0"/>
<path d="M638,319 L650,321 L650,478 L558,455 L550,442 L550,355 z" fill="none" stroke="none" stroke-width="0"/>
<linearGradient id="gradient_face20" x1="0" x2="1.01" y1="0" y2="1.01">
<stop offset="0%" stop-color="#DBD7EAFF"/>
<stop offset="100%" stop-color="#D1D1E6FF"/>
</linearGradient>
<path d="M640.5051,324.48648 L643.0736,324.91458 Q645,325.23563,645,369.14377 L645,427.688 Q645,471.59613,619.857,465.31036 L586.33307,456.92938 Q561.19006,450.64365,559.33307,447.62598 L556.857,443.60245 Q555,440.58478,555,415.91638 L555,383.02518 Q555,358.35675,580.0736,348.09937 L613.5051,334.42282 Q638.5788,324.16544,640.5051,324.48648 z" fill="url(#gradient_face20)" stroke="none" stroke-width="0"/>
<path d="M650,478 L659,487 L563,618 L502,546 L503,531 L558,455 z" fill="none" stroke="none" stroke-width="0"/>
<linearGradient id="gradient_face21" x1="0" x2="1.01" y1="0" y2="1.01">
<stop offset="0%" stop-color="#BFC9E1FF"/>
<stop offset="100%" stop-color="#A8BEDBFF"/>
</linearGradient>
<path d="M648.9403,484.01138 L650.9357,486.00677 Q652.43225,487.50336,625.5173,524.23114 L589.63055,573.20154 Q562.7156,609.9293,546.03796,590.24426 L523.8012,563.9976 Q507.1236,544.31256,507.35452,540.8489 L507.66238,536.2306 Q507.8933,532.76685,523.5457,511.13806 L544.4156,482.29968 Q560.068,460.6709,586.28076,467.22406 L621.231,475.96164 Q647.4437,482.51483,648.9403,484.01138 z" fill="url(#gradient_face21)" stroke="none" stroke-width="0"/>
<path d="M397,588 L406,577 L502,546 L563,618 L565,630 L403,683 z" fill="none" stroke="none" stroke-width="0"/>
<linearGradient id="gradient_face22" x1="0" x2="1.01" y1="0" y2="1.01">
<stop offset="0%" stop-color="#99B9D8FF"/>
<stop offset="100%" stop-color="#6CAAD0FF"/>
</linearGradient>
<path d="M404.16098,587.1436 L406.8904,583.8076 Q408.9375,581.30566,436.36118,572.4501 L472.9261,560.6427 Q500.34976,551.7871,517.7332,572.30524 L540.9111,599.6628 Q558.2945,620.1809,558.6147,622.1018 L559.0415,624.66296 Q559.3617,626.58386,513.82806,641.48065 L453.1166,661.343 Q407.583,676.23987,405.94226,650.2616 L403.75464,615.6239 Q402.1139,589.6456,404.16098,587.1436 z" fill="url(#gradient_face22)" stroke="none" stroke-width="0"/>
<path d="M281,559 L294,555 L397,588 L403,683 L398,694 L230,639 z" fill="none" stroke="none" stroke-width="0"/>
<linearGradient id="gradient_face23" x1="0" x2="1.01" y1="0" y2="1.01">
<stop offset="0%" stop-color="#67A9CFFF"/>
<stop offset="100%" stop-color="#3B92C1FF"/>
</linearGradient>
<path d="M287.15036,562.3389 L291.04712,561.1399 Q293.96973,560.24066,323.44632,569.68463 L362.7484,582.27655 Q392.225,591.7205,393.93686,618.8248 L396.21933,654.964 Q397.93118,682.0683,397.1421,683.8044 L396.0899,686.11914 Q395.30078,687.8552,348.01474,672.37463 L284.96664,651.7339 Q237.68059,636.25336,251.64474,614.3488 L270.2636,585.1427 Q284.22775,563.23816,287.15036,562.3389 z" fill="url(#gradient_face23)" stroke="none" stroke-width="0"/>
<path d="M200,462 L213,466 L281,559 L230,639 L219,645 L112,497 z" fill="none" stroke="none" stroke-width="0"/>
<linearGradient id="gradient_face24" x1="0" x2="1.01" y1="0" y2="1.01">
<stop offset="0%" stop-color="#3F95C3FF"/>
<stop offset="100%" stop-color="#088391FF"/>
</linearGradient>
<path d="M203.13148,468.19485 L207.024,469.39258 Q209.94337,470.29083,229.44453,496.96155 L255.44609,532.52246 Q274.94724,559.1932,260.4058,582.0033 L241.01721,612.41675 Q226.47577,635.22687,224.67458,636.20935 L222.273,637.5193 Q220.47182,638.5018,190.27429,596.7332 L150.01094,541.0419 Q119.81343,499.27335,143.93303,489.68033 L176.0925,476.88962 Q200.2121,467.2966,203.13148,468.19485 z" fill="url(#gradient_face24)" stroke="none" stroke-width="0"/>
<path d="M100,305 L192,329 L200,340 L200,462 L112,497 L100,495 z" fill="none" stroke="none" stroke-width="0"/>
<linearGradient id="gradient_face25" x1="0" x2="1.01" y1="0" y2="1.01">
<stop offset="0%" stop-color="#16879FFF"/>
<stop offset="100%" stop-color="#016F60FF"/>
</linearGradient>
<path d="M130.20238,318.0462 L163.80553,326.81226 Q189.0079,333.38678,190.80553,335.85852 L193.20238,339.15417 Q195,341.62592,195,376.72046 L195,423.51315 Q195,458.6077,169.93416,468.57706 L136.51305,481.86954 Q111.44722,491.8389,109.513054,491.51654 L106.934166,491.08673 Q105,490.76437,105,436.97656 L105,365.2595 Q105,311.47168,130.20238,318.0462 z" fill="url(#gradient_face25)" stroke="none" stroke-width="0"/>
<path d="M201,146 L212,145 L267,212 L268,225 L192,329 L100,305 L98,304 L99,287 z" fill="none" stroke="none" stroke-width="0"/>
<linearGradient id="gradient_face26" x1="0" x2="1.01" y1="0" y2="1.01">
<stop offset="0%" stop-color="#017876FF"/>
<stop offset="100%" stop-color="#014C3CFF"/>
</linearGradient>
<path d="M205.54721,150.60724 L207.98624,150.3855 Q209.81552,150.21921,225.51154,169.33981 L246.43956,194.83395 Q262.1356,213.95456,262.3568,216.83064 L262.6518,220.66542 Q262.87305,223.5415,241.00221,253.47 L211.84111,293.37466 Q189.97028,323.30316,163.50966,316.40042 L128.22885,307.19672 Q101.76823,300.29395,102.19325,300.50647 L102.75996,300.7898 Q103.184975,301.00232,103.40121,297.3264 L103.689514,292.42514 Q103.90575,288.7492,133.84941,247.3565 L173.77428,192.16623 Q203.71794,150.77353,205.54721,150.60724 z" fill="url(#gradient_face26)" stroke="none" stroke-width="0"/>
<path d="M377,71 L398,82 L403,159 L396,170 L267,212 L212,145 L228,120 z" fill="none" stroke="none" stroke-width="0"/>
<linearGradient id="gradient_face27" x1="0" x2="1.01" y1="0" y2="1.01">
<stop offset="0%" stop-color="#FFF7FBFF"/>
<stop offset="100%" stop-color="#FFF7FBFF"/>
</linearGradient>
<path d="M381.54498,79.025116 L388.20068,82.51144 Q393.19247,85.12618,394.6061,106.89648 L396.491,135.92354 Q397.90466,157.69383,396.35687,160.12608 L394.29312,163.36908 Q392.74533,165.80133,355.53125,177.91753 L305.9125,194.07248 Q268.69843,206.18869,253.5398,187.72272 L233.32828,163.10143 Q218.16965,144.63545,222.09442,138.50299 L227.32745,130.32637 Q231.25223,124.19391,274.84253,109.85885 L332.9629,90.74543 Q376.5532,76.41037,381.54498,79.025116 z" fill="url(#gradient_face27)" stroke="none" stroke-width="0"/>
<path d="M398,82 L432,63 L569,108 L587,140 L550,198 L538,203 L403,159 z" fill="none" stroke="none" stroke-width="0"/>
<linearGradient id="gradient_face28" x1="0" x2="1.01" y1="0" y2="1.01">
<stop offset="0%" stop-color="#EFE6F2FF"/>
<stop offset="100%" stop-color="#ECE2F0FF"/>
</linearGradient>
<path d="M411.99298,79.908134 L423.72498,73.35202 Q432.524,68.43493,472.4451,81.54771 L525.6733,99.0314 Q565.59436,112.14418,570.26776,120.45244 L576.49896,131.53012 Q581.17236,139.83838,570.8092,156.0833 L556.9917,177.74318 Q546.62854,193.9881,543.97626,195.09323 L540.4398,196.56674 Q537.7875,197.67188,498.78226,184.95905 L446.77524,168.00862 Q407.77,155.29579,406.3972,134.15463 L404.5668,105.9664 Q403.194,84.825226,411.99298,79.908134 z" fill="url(#gradient_face28)" stroke="none" stroke-width="0"/>
<path d="M587,140 L613,140 L642,154 L710,249 L707,299 L650,321 L638,319 L550,198 z" fill="none" stroke="none" stroke-width="0"/>
<linearGradient id="gradient_face29" x1="0" x2="1.01" y1="0" y2="1.01">
<stop offset="0%" stop-color="#DBD7EAFF"/>
<stop offset="100%" stop-color="#D1D1E6FF"/>
</linearGradient>
<path d="M596.3757,145 L605.2217,145 Q611.85626,145,619.90247,148.88438 L630.6308,154.06357 Q638.677,157.94795,658.54474,185.70436 L685.0351,222.71292 Q704.90283,250.46935,704.0924,263.97632 L703.0119,281.9856 Q702.2015,295.49258,686.3833,301.5978 L665.2924,309.73816 Q649.4743,315.8434,646.8841,315.4117 L643.4304,314.83612 Q640.8402,314.4044,615.4027,279.42776 L581.48596,232.79225 Q556.0484,197.81561,566.1562,181.97093 L579.6333,160.84468 Q589.7411,145,596.3757,145 z" fill="url(#gradient_face29)" stroke="none" stroke-width="0"/>
<path d="M707,299 L716,304 L760,365 L760,435 L716,496 L708,500 L659,487 L650,478 L650,321 z" fill="none" stroke="none" stroke-width="0"/>
<linearGradient id="gradient_face30" x1="0" x2="1.01" y1="0" y2="1.01">
<stop offset="0%" stop-color="#BFC9E1FF"/>
<stop offset="100%" stop-color="#A8BEDBFF"/>
</linearGradient>
<path d="M708.41125,305.5038 L710.80316,306.83267 Q712.5971,307.8293,725.318,325.46506 L742.2791,348.97937 Q755,366.6151,755,386.64606 L755,413.35394 Q755,433.3849,742.29926,450.99274 L725.3649,474.46988 Q712.6642,492.07776,711.1014,492.85913 L709.01764,493.901 Q707.4549,494.6824,693.6935,491.0314 L675.3449,486.16342 Q661.5835,482.51245,659.60846,480.53738 L656.97504,477.904 Q655,475.92892,655,430.47916 L655,369.87946 Q655,324.4297,670.48517,318.45294 L691.13214,310.48395 Q706.6173,304.5072,708.41125,305.5038 z" fill="url(#gradient_face30)" stroke="none" stroke-width="0"/>
<path d="M659,487 L708,500 L719,571 L686,635 L616,663 L588,660 L565,630 L563,618 z" fill="none" stroke="none" stroke-width="0"/>
<linearGradient id="gradient_face31" x1="0" x2="1.01" y1="0" y2="1.01">
<stop offset="0%" stop-color="#99B9D8FF"/>
<stop offset="100%" stop-color="#6CAAD0FF"/>
</linearGradient>
<path d="M673.779,496.09393 L690.79626,500.60873 Q703.55927,503.9948,706.63434,523.8432 L710.7345,550.3077 Q713.8096,570.15607,704.39,588.4244 L691.83057,612.78217 Q682.41095,631.0505,662.27673,639.1041 L635.43115,649.8424 Q615.29694,657.89606,607.90704,657.1043 L598.05383,656.0486 Q590.6639,655.2568,584.3828,647.0641 L576.008,636.14044 Q569.7269,627.9477,569.29236,625.3402 L568.7129,621.8636 Q568.2783,619.25616,596.0996,581.2916 L633.1947,530.6723 Q661.016,492.70782,673.779,496.09393 z" fill="url(#gradient_face31)" stroke="none" stroke-width="0"/>
<path d="M565,630 L588,660 L569,717 L510,761 L434,749 L399,719 L398,694 L403,683 z" fill="none" stroke="none" stroke-width="0"/>
<linearGradient id="gradient_face32" x1="0" x2="1.01" y1="0" y2="1.01">
<stop offset="0%" stop-color="#67A9CFFF"/>
<stop offset="100%" stop-color="#3B92C1FF"/>
</linearGradient>
<path d="M568.9565,643.3785 L576.6485,653.4115 Q582.4174,660.9363,577.11804,676.8344 L570.05225,698.0319 Q564.75287,713.93005,547.93677,726.4708 L525.5154,743.1919 Q508.6993,755.73267,486.94315,752.2975 L457.93488,747.7172 Q436.17868,744.28204,426.49774,735.98413 L413.58984,724.92017 Q403.90887,716.62225,403.64926,710.1318 L403.3031,701.47784 Q403.0435,694.98737,404.12326,692.6119 L405.56296,689.4445 Q406.64273,687.06903,453.60617,671.70447 L516.22406,651.2183 Q563.1875,635.85376,568.9565,643.3785 z" fill="url(#gradient_face32)" stroke="none" stroke-width="0"/>
<path d="M219,645 L230,639 L398,694 L399,719 L365,751 L289,767 L229,720 L212,656 z" fill="none" stroke="none" stroke-width="0"/>
<linearGradient id="gradient_face33" x1="0" x2="1.01" y1="0" y2="1.01">
<stop offset="0%" stop-color="#3F95C3FF"/>
<stop offset="100%" stop-color="#088391FF"/>
</linearGradient>
<path d="M224.91756,647.46765 L228.10614,645.72845 Q230.49759,644.424,279.29117,660.39813 L344.34927,681.6969 Q393.14285,697.67096,393.37384,703.44617 L393.68185,711.1464 Q393.91287,716.92163,384.51773,725.7641 L371.9909,737.5541 Q362.5958,746.39655,340.89188,750.9658 L311.95337,757.0581 Q290.24948,761.6274,273.1953,748.26825 L250.45645,730.4562 Q233.4023,717.09705,228.60016,699.01843 L222.19731,674.91364 Q217.39519,656.835,218.93446,654.41614 L220.98683,651.191 Q222.52612,648.7721,224.91756,647.46765 z" fill="url(#gradient_face33)" stroke="none" stroke-width="0"/>
<path d="M98,496 L100,495 L112,497 L219,645 L212,656 L183,664 L101,645 L70,577 z" fill="none" stroke="none" stroke-width="0"/>
<linearGradient id="gradient_face34" x1="0" x2="1.01" y1="0" y2="1.01">
<stop offset="0%" stop-color="#16879FFF"/>
<stop offset="100%" stop-color="#016F60FF"/>
</linearGradient>
<path d="M101.67623,499.75204 L101.16513,500.0076 Q100.7818,500.19928,103.292755,500.61777 L106.64069,501.17575 Q109.15165,501.59424,140.29402,544.6697 L181.81717,602.1036 Q212.95955,645.179,211.71619,647.1329 L210.05836,649.738 Q208.815,651.69183,201.0384,653.8371 L190.66962,656.6975 Q182.89302,658.8428,159.3835,653.39545 L128.03746,646.1323 Q104.52792,640.685,95.78313,621.50287 L84.123405,595.9267 Q75.37861,576.74457,83.3829,553.5893 L94.05527,522.71564 Q102.059555,499.5604,101.67623,499.75204 z" fill="url(#gradient_face34)" stroke="none" stroke-width="0"/>
<path d="M98,304 L100,305 L100,495 L98,496 L89,494 L15,438 L15,362 L89,306 z" fill="none" stroke="none" stroke-width="0"/>
<linearGradient id="gradient_face35" x1="0" x2="1.01" y1="0" y2="1.01">
<stop offset="0%" stop-color="#017876FF"/>
<stop offset="100%" stop-color="#014C3CFF"/>
</linearGradient>
<path d="M96.6462,308.91327 L95.70551,308.44293 Q95,308.09018,95,363.23605 L95,436.76395 Q95,491.90982,95.70551,491.55707 L96.6462,491.08673 Q97.35172,490.73398,95.49071,490.3204 L93.00935,489.769 Q91.14834,489.35544,69.80383,473.20285 L41.3445,451.66605 Q20,435.51346,20,414.20538 L20,385.79462 Q20,364.48654,41.3445,348.33395 L69.80383,326.79715 Q91.14834,310.64456,93.00935,310.231 L95.49071,309.6796 Q97.35172,309.26602,96.6462,308.91327 z" fill="url(#gradient_face35)" stroke="none" stroke-width="0"/>
<path d="M187,140 L201,146 L99,287 L64,220 L91,147 z" fill="none" stroke="none" stroke-width="0"/>
<linearGradient id="gradient_face36" x1="0" x2="1.01" y1="0" y2="1.01">
<stop offset="0%" stop-color="#FFF7FBFF"/>
<stop offset="100%" stop-color="#FFF7FBFF"/>
</linearGradient>
<path d="M188.2902,145.99278 L191.14462,147.2161 Q193.28542,148.13359,165.20619,186.949 L127.76721,238.70288 Q99.68798,277.51828,90.61946,260.15854 L78.5281,237.01222 Q69.45957,219.65247,76.99366,199.28255 L87.0391,172.12265 Q94.57318,151.75273,122.04604,149.7495 L158.67654,147.07852 Q186.1494,145.0753,188.2902,145.99278 z" fill="url(#gradient_face36)" stroke="none" stroke-width="0"/>
<path d="M366,53 L377,71 L228,120 L227,76 L281,7 z" fill="none" stroke="none" stroke-width="0"/>
<linearGradient id="gradient_face37" x1="0" x2="1.01" y1="0" y2="1.01">
<stop offset="0%" stop-color="#EFE6F2FF"/>
<stop offset="100%" stop-color="#ECE2F0FF"/>
</linearGradient>
<path d="M364.53784,60.196045 L367.34055,64.78225 Q369.44254,68.22191,328.4634,81.698265 L273.8246,99.66674 Q232.84546,113.1431,232.60362,102.50227 L232.28117,88.31451 Q232.03932,77.67368,247.12791,58.39382 L267.24603,32.687344 Q282.33463,13.407487,306.365,26.412157 L338.4055,43.751717 Q362.43585,56.75639,364.53784,60.196045 z" fill="url(#gradient_face37)" stroke="none" stroke-width="0"/>
<path d="M519,0 L524,0 L572,79 L569,108 L432,63 L434,60 z" fill="none" stroke="none" stroke-width="0"/>
<linearGradient id="gradient_face38" x1="0" x2="1.01" y1="0" y2="1.01">
<stop offset="0%" stop-color="#DBD7EAFF"/>
<stop offset="100%" stop-color="#D1D1E6FF"/>
</linearGradient>
<path d="M520.7671,5 L521.00726,5 Q521.1874,5,534.8872,27.547615 L553.1536,57.611103 Q566.85345,80.158714,566.1969,86.50509 L565.3216,94.96692 Q564.66504,101.31329,527.20795,89.00986 L477.26514,72.605286 Q439.808,60.301857,439.15878,61.275707 L438.29312,62.574177 Q437.6439,63.548027,462.52682,45.98362 L495.70404,22.564407 Q520.5869,5,520.7671,5 z" fill="url(#gradient_face38)" stroke="none" stroke-width="0"/>
<path d="M642,154 L728,131 L738,219 L710,249 z" fill="none" stroke="none" stroke-width="0"/>
<linearGradient id="gradient_face39" x1="0" x2="1.01" y1="0" y2="1.01">
<stop offset="0%" stop-color="#BFC9E1FF"/>
<stop offset="100%" stop-color="#A8BEDBFF"/>
</linearGradient>
<path d="M672.2954,151.07347 L701.66205,143.21959 Q723.6871,137.3292,726.4124,161.31258 L730.04626,193.29044 Q732.77167,217.27383,726.09357,224.42891 L717.1895,233.96902 Q710.5114,241.1241,692.4391,215.87604 L668.3427,182.21194 Q650.2704,156.96387,672.2954,151.07347 z" fill="url(#gradient_face39)" stroke="none" stroke-width="0"/>
<path d="M800,361 L800,439 L760,435 L760,365 z" fill="none" stroke="none" stroke-width="0"/>
<linearGradient id="gradient_face40" x1="0" x2="1.01" y1="0" y2="1.01">
<stop offset="0%" stop-color="#12101DFF"/>
<stop offset="100%" stop-color="#12101DFF"/>
</linearGradient>
<path d="M795,386.61 L795,413.39 Q795,433.47507,786,432.57507 L774,431.37506 Q765,430.47507,765,412.19003 L765,387.80997 Q765,369.52493,774,368.62494 L786,367.42493 Q795,366.52493,795,386.61 z" fill="url(#gradient_face40)" stroke="none" stroke-width="0"/>
<path d="M800,439 L800,521 L716,496 L760,435 z" fill="none" stroke="none" stroke-width="0"/>
<linearGradient id="gradient_face41" x1="0" x2="1.01" y1="0" y2="1.01">
<stop offset="0%" stop-color="#12101DFF"/>
<stop offset="100%" stop-color="#12101DFF"/>
</linearGradient>
<path d="M795,464.756 L795,493.0641 Q795,514.29517,773.752,507.97134 L745.4213,499.53958 Q724.1733,493.2158,735.63214,477.32962 L750.91064,456.14807 Q762.36957,440.2619,772.1587,441.2408 L785.2109,442.54602 Q795,443.52493,795,464.756 z" fill="url(#gradient_face41)" stroke="none" stroke-width="0"/>
<path d="M800,521 L800,614 L719,571 L708,500 L716,496 z" fill="none" stroke="none" stroke-width="0"/>
<linearGradient id="gradient_face42" x1="0" x2="1.01" y1="0" y2="1.01">
<stop offset="0%" stop-color="#12101DFF"/>
<stop offset="100%" stop-color="#12101DFF"/>
</linearGradient>
<path d="M795,549.0155 L795,581.39795 Q795,605.6848,773.56726,594.30695 L744.99023,579.1364 Q723.55743,567.75854,720.5401,548.2831 L716.517,522.3158 Q713.4997,502.84033,714.39026,502.39505 L715.57764,501.80136 Q716.4682,501.35608,740.0277,508.36786 L771.4404,517.71686 Q795,524.72864,795,549.0155 z" fill="url(#gradient_face42)" stroke="none" stroke-width="0"/>
<path d="M800,614 L800,728 L686,635 L719,571 z" fill="none" stroke="none" stroke-width="0"/>
<linearGradient id="gradient_face43" x1="0" x2="1.01" y1="0" y2="1.01">
<stop offset="0%" stop-color="#12101DFF"/>
<stop offset="100%" stop-color="#12101DFF"/>
</linearGradient>
<path d="M795,647.1451 L795,687.3298 Q795,717.4683,764.19055,692.3343 L723.1113,658.82227 Q692.3019,633.6883,700.94885,616.91846 L712.4781,594.5588 Q721.125,577.78894,743.2875,589.5542 L772.8375,605.2413 Q795,617.00653,795,647.1451 z" fill="url(#gradient_face43)" stroke="none" stroke-width="0"/>
<path d="M800,800 L728,800 L616,663 L686,635 L800,728 z" fill="none" stroke="none" stroke-width="0"/>
<linearGradient id="gradient_face44" x1="0" x2="1.01" y1="0" y2="1.01">
<stop offset="0%" stop-color="#12101DFF"/>
<stop offset="100%" stop-color="#12101DFF"/>
</linearGradient>
<path d="M775.6112,795 L749.7594,795 Q730.3706,795,698.5147,756.03345 L656.0402,704.078 Q624.1843,665.11145,642.46564,657.79895 L666.84064,648.0489 Q685.1219,640.7364,718.0853,667.6276 L762.03656,703.48254 Q795,730.3738,795,749.76166 L795,775.6121 Q795,795,775.6112,795 z" fill="url(#gradient_face44)" stroke="none" stroke-width="0"/>
<path d="M728,800 L614,800 L569,717 L588,660 L616,663 z" fill="none" stroke="none" stroke-width="0"/>
<linearGradient id="gradient_face45" x1="0" x2="1.01" y1="0" y2="1.01">
<stop offset="0%" stop-color="#12101DFF"/>
<stop offset="100%" stop-color="#12101DFF"/>
</linearGradient>
<path d="M687.311,795 L647.12,795 Q616.97675,795,604.2125,771.4571 L587.19354,740.06647 Q574.42926,716.52356,579.54156,701.18665 L586.35803,680.73737 Q591.47034,665.40045,598.05743,666.1062 L606.84033,667.04724 Q613.4274,667.753,644.6355,705.92706 L686.24615,756.82587 Q717.4542,795,687.311,795 z" fill="url(#gradient_face45)" stroke="none" stroke-width="0"/>
<path d="M614,800 L521,800 L510,761 L569,717 z" fill="none" stroke="none" stroke-width="0"/>
<linearGradient id="gradient_face46" x1="0" x2="1.01" y1="0" y2="1.01">
<stop offset="0%" stop-color="#12101DFF"/>
<stop offset="100%" stop-color="#12101DFF"/>
</linearGradient>
<path d="M581.35657,795 L549.02985,795 Q524.7848,795,522.0731,785.3857 L518.45746,772.56665 Q515.7457,762.95233,531.22943,751.4052 L551.8743,736.00903 Q567.358,724.46185,578.83105,745.6233 L594.1285,773.83856 Q605.60156,795,581.35657,795 z" fill="url(#gradient_face46)" stroke="none" stroke-width="0"/>
<path d="M521,800 L439,800 L434,749 L510,761 z" fill="none" stroke="none" stroke-width="0"/>
<linearGradient id="gradient_face47" x1="0" x2="1.01" y1="0" y2="1.01">
<stop offset="0%" stop-color="#12101DFF"/>
<stop offset="100%" stop-color="#12101DFF"/>
</linearGradient>
<path d="M493.1364,795 L464.79205,795 Q443.53378,795,442.35574,782.9842 L440.78506,766.9631 Q439.60703,754.94727,459.54205,758.0949 L486.12204,762.29175 Q506.05707,765.4394,508.55835,774.30756 L511.89337,786.13184 Q514.39465,795,493.1364,795 z" fill="url(#gradient_face47)" stroke="none" stroke-width="0"/>
<path d="M439,800 L361,800 L365,751 L399,719 L434,749 z" fill="none" stroke="none" stroke-width="0"/>
<linearGradient id="gradient_face48" x1="0" x2="1.01" y1="0" y2="1.01">
<stop offset="0%" stop-color="#12101DFF"/>
<stop offset="100%" stop-color="#12101DFF"/>
</linearGradient>
<path d="M413.36752,795 L386.54312,795 Q366.4248,795,367.44547,782.49695 L368.80634,765.82623 Q369.827,753.3232,378.62573,745.042 L390.35742,734.0004 Q399.1562,725.71924,408.17532,733.44995 L420.20084,743.7575 Q429.21997,751.4882,430.49973,764.54175 L432.2061,781.9465 Q433.48584,795,413.36752,795 z" fill="url(#gradient_face48)" stroke="none" stroke-width="0"/>
<path d="M361,800 L279,800 L289,767 L365,751 z" fill="none" stroke="none" stroke-width="0"/>
<linearGradient id="gradient_face49" x1="0" x2="1.01" y1="0" y2="1.01">
<stop offset="0%" stop-color="#12101DFF"/>
<stop offset="100%" stop-color="#12101DFF"/>
</linearGradient>
<path d="M335.19598,795 L306.93524,795 Q285.7397,795,287.89578,787.8849 L290.77057,778.3981 Q292.92667,771.28296,312.89005,767.08014 L339.50787,761.4764 Q359.47125,757.27356,358.54733,768.5915 L357.31543,783.68207 Q356.39154,795,335.19598,795 z" fill="url(#gradient_face49)" stroke="none" stroke-width="0"/>
<path d="M279,800 L186,800 L229,720 L289,767 z" fill="none" stroke="none" stroke-width="0"/>
<linearGradient id="gradient_face50" x1="0" x2="1.01" y1="0" y2="1.01">
<stop offset="0%" stop-color="#12101DFF"/>
<stop offset="100%" stop-color="#12101DFF"/>
</linearGradient>
<path d="M251.01263,795 L218.64198,795 Q194.364,795,205.23247,774.7796 L219.72375,747.81903 Q230.59222,727.59863,246.38124,739.96674 L267.43326,756.45746 Q283.2223,768.8255,280.84277,776.67786 L277.67014,787.14764 Q275.29062,795,251.01263,795 z" fill="url(#gradient_face50)" stroke="none" stroke-width="0"/>
<path d="M186,800 L72,800 L183,664 L212,656 L229,720 z" fill="none" stroke="none" stroke-width="0"/>
<linearGradient id="gradient_face51" x1="0" x2="1.01" y1="0" y2="1.01">
<stop offset="0%" stop-color="#12101DFF"/>
<stop offset="100%" stop-color="#12101DFF"/>
</linearGradient>
<path d="M152.86815,795 L112.67769,795 Q82.53484,795,113.534164,757.01886 L154.8666,706.3773 Q185.86592,668.3962,192.64519,666.526 L201.68422,664.0325 Q208.46349,662.16235,213.0225,679.3257 L219.1012,702.2102 Q223.66022,719.37354,211.46545,742.06146 L195.20576,772.3121 Q183.011,795,152.86815,795 z" fill="url(#gradient_face51)" stroke="none" stroke-width="0"/>
<path d="M0,800 L0,728 L101,645 L183,664 L72,800 z" fill="none" stroke="none" stroke-width="0"/>
<linearGradient id="gradient_face52" x1="0" x2="1.01" y1="0" y2="1.01">
<stop offset="0%" stop-color="#12101DFF"/>
<stop offset="100%" stop-color="#12101DFF"/>
</linearGradient>
<path d="M5,775.6088 L5,749.75397 Q5,730.3628,34.181377,706.3821 L73.08988,674.4078 Q102.271255,650.427,123.80478,655.4165 L152.51614,662.06915 Q174.04967,667.0586,142.72285,705.44104 L100.95375,756.61755 Q69.62692,795,50.238846,795 L24.388077,795 Q5,795,5,775.6088 z" fill="url(#gradient_face52)" stroke="none" stroke-width="0"/>
<path d="M0,728 L0,614 L70,577 L101,645 z" fill="none" stroke="none" stroke-width="0"/>
<linearGradient id="gradient_face53" x1="0" x2="1.01" y1="0" y2="1.01">
<stop offset="0%" stop-color="#12101DFF"/>
<stop offset="100%" stop-color="#12101DFF"/>
</linearGradient>
<path d="M5,687.29736 L5,647.13464 Q5,617.01263,23.794867,607.0782 L48.85469,593.83234 Q67.64956,583.8979,75.81157,601.80164 L86.69425,625.67334 Q94.85626,643.5771,67.89938,665.7298 L31.956879,695.26666 Q5,717.4194,5,687.29736 z" fill="url(#gradient_face53)" stroke="none" stroke-width="0"/>
<path d="M0,614 L0,521 L89,494 L98,496 L70,577 z" fill="none" stroke="none" stroke-width="0"/>
<linearGradient id="gradient_face54" x1="0" x2="1.01" y1="0" y2="1.01">
<stop offset="0%" stop-color="#12101DFF"/>
<stop offset="100%" stop-color="#12101DFF"/>
</linearGradient>
<path d="M5,581.4036 L5,549.0062 Q5,524.7082,30.25882,517.04535 L63.93725,506.82834 Q89.19607,499.16553,89.8701,499.31534 L90.76881,499.51505 Q91.44284,499.66483,83.7857,521.81586 L73.576164,551.3506 Q65.91902,573.5016,47.643314,583.1616 L23.275705,596.0416 Q5,605.70166,5,581.4036 z" fill="url(#gradient_face54)" stroke="none" stroke-width="0"/>
<path d="M0,521 L0,439 L15,438 L89,494 z" fill="none" stroke="none" stroke-width="0"/>
<linearGradient id="gradient_face55" x1="0" x2="1.01" y1="0" y2="1.01">
<stop offset="0%" stop-color="#12101DFF"/>
<stop offset="100%" stop-color="#12101DFF"/>
</linearGradient>
<path d="M5,493.084 L5,464.85187 Q5,443.67776,7.5412216,443.50836 L10.929517,443.28247 Q13.470738,443.11304,32.876507,457.7985 L58.750866,477.3791 Q78.15663,492.06454,56.209644,498.72263 L26.946991,507.60004 Q5,514.2581,5,493.084 z" fill="url(#gradient_face55)" stroke="none" stroke-width="0"/>
<path d="M0,439 L0,361 L15,362 L15,438 z" fill="none" stroke="none" stroke-width="0"/>
<linearGradient id="gradient_face56" x1="0" x2="1.01" y1="0" y2="1.01">
<stop offset="0%" stop-color="#12101DFF"/>
<stop offset="100%" stop-color="#12101DFF"/>
</linearGradient>
<path d="M5,413.46222 L5,386.53778 Q5,366.34442,6.5,366.44443 L8.5,366.57776 Q10,366.67776,10,386.6711 L10,413.3289 Q10,433.32224,8.5,433.42224 L6.5,433.55557 Q5,433.65558,5,413.46222 z" fill="url(#gradient_face56)" stroke="none" stroke-width="0"/>
<path d="M0,361 L0,279 L89,306 L15,362 z" fill="none" stroke="none" stroke-width="0"/>
<linearGradient id="gradient_face57" x1="0" x2="1.01" y1="0" y2="1.01">
<stop offset="0%" stop-color="#12101DFF"/>
<stop offset="100%" stop-color="#12101DFF"/>
</linearGradient>
<path d="M5,335.14813 L5,306.916 Q5,285.74188,26.946991,292.39996 L56.209644,301.27737 Q78.15663,307.93546,58.750866,322.6209 L32.876507,342.2015 Q13.470738,356.88696,10.929517,356.71753 L7.5412216,356.49164 Q5,356.32224,5,335.14813 z" fill="url(#gradient_face57)" stroke="none" stroke-width="0"/>
<path d="M0,279 L0,186 L64,220 L99,287 L98,304 L89,306 z" fill="none" stroke="none" stroke-width="0"/>
<linearGradient id="gradient_face58" x1="0" x2="1.01" y1="0" y2="1.01">
<stop offset="0%" stop-color="#12101DFF"/>
<stop offset="100%" stop-color="#12101DFF"/>
</linearGradient>
<path d="M5,250.9997 L5,218.61017 Q5,194.31802,21.585724,203.12918 L43.700024,214.87741 Q60.285748,223.68858,70.37823,243.00847 L83.83487,268.7683 Q93.927345,288.0882,93.71823,291.64313 L93.439415,296.38303 Q93.2303,299.93796,92.02003,300.2069 L90.406334,300.56552 Q89.19607,300.83447,63.93725,293.17166 L30.25882,282.95462 Q5,275.29184,5,250.9997 z" fill="url(#gradient_face58)" stroke="none" stroke-width="0"/>
<path d="M0,186 L0,72 L91,147 L64,220 z" fill="none" stroke="none" stroke-width="0"/>
<linearGradient id="gradient_face59" x1="0" x2="1.01" y1="0" y2="1.01">
<stop offset="0%" stop-color="#12101DFF"/>
<stop offset="100%" stop-color="#12101DFF"/>
</linearGradient>
<path d="M5,152.87619 L5,112.71848 Q5,82.600204,29.023335,102.39966 L61.054447,128.79892 Q85.07778,148.59837,77.94283,167.88916 L68.42957,193.61021 Q61.29462,212.901,44.406235,203.92905 L21.888386,191.96643 Q5,182.99448,5,152.87619 z" fill="url(#gradient_face59)" stroke="none" stroke-width="0"/>
<path d="M0,0 L72,0 L187,140 L91,147 L0,72 z" fill="none" stroke="none" stroke-width="0"/>
<linearGradient id="gradient_face60" x1="0" x2="1.01" y1="0" y2="1.01">
<stop offset="0%" stop-color="#12101DFF"/>
<stop offset="100%" stop-color="#12101DFF"/>
</linearGradient>
<path d="M24.390965,5 L50.245583,5 Q69.63654,5,101.8485,44.214554 L144.79778,96.500626 Q177.00974,135.71518,151.69708,137.5609 L117.94688,140.02185 Q92.634224,141.86757,66.343956,120.19976 L31.290268,91.30936 Q5,69.641556,5,50.24909 L5,24.392466 Q5,5,24.390965,5 z" fill="url(#gradient_face60)" stroke="none" stroke-width="0"/>
<path d="M72,0 L186,0 L227,76 L228,120 L212,145 L201,146 L187,140 z" fill="none" stroke="none" stroke-width="0"/>
<linearGradient id="gradient_face61" x1="0" x2="1.01" y1="0" y2="1.01">
<stop offset="0%" stop-color="#12101DFF"/>
<stop offset="100%" stop-color="#12101DFF"/>
</linearGradient>
<path d="M112.709274,5 L152.88466,5 Q183.01619,5,194.71991,26.694714 L210.32489,55.620995 Q222.02861,77.31571,222.31003,89.69773 L222.68523,106.207085 Q222.96664,118.5891,218.80925,125.085045 L213.26604,133.74629 Q209.10864,140.24223,206.91815,140.44136 L203.9975,140.70688 Q201.80699,140.90602,198.29189,139.39954 L193.60506,137.3909 Q190.08995,135.88443,157.83629,96.619095 L114.8314,44.265327 Q82.577736,5,112.709274,5 z" fill="url(#gradient_face61)" stroke="none" stroke-width="0"/>
<path d="M186,0 L279,0 L281,7 L227,76 z" fill="none" stroke="none" stroke-width="0"/>
<linearGradient id="gradient_face62" x1="0" x2="1.01" y1="0" y2="1.01">
<stop offset="0%" stop-color="#12101DFF"/>
<stop offset="100%" stop-color="#12101DFF"/>
</linearGradient>
<path d="M218.63353,5 L250.97351,5 Q275.2285,5,275.30774,5.2773204 L275.41336,5.6470804 Q275.4926,5.924401,261.17648,24.217218 L242.08833,48.60764 Q227.77222,66.90046,217.75412,48.33032 L204.39665,23.570137 Q194.37854,5,218.63353,5 z" fill="url(#gradient_face62)" stroke="none" stroke-width="0"/>
<path d="M279,0 L361,0 L366,53 L281,7 z" fill="none" stroke="none" stroke-width="0"/>
<linearGradient id="gradient_face63" x1="0" x2="1.01" y1="0" y2="1.01">
<stop offset="0%" stop-color="#12101DFF"/>
<stop offset="100%" stop-color="#12101DFF"/>
</linearGradient>
<path d="M306.8749,5 L335.20325,5 Q356.4495,5,357.55737,16.743433 L359.03452,32.401344 Q360.1424,44.14478,337.6686,31.982489 L307.70352,15.7661 Q285.22974,3.6038082,285.34943,4.022666 L285.50897,4.5811424 Q285.62866,5,306.8749,5 z" fill="url(#gradient_face63)" stroke="none" stroke-width="0"/>
<path d="M361,0 L439,0 L434,60 L432,63 L398,82 L377,71 L366,53 z" fill="none" stroke="none" stroke-width="0"/>
<linearGradient id="gradient_face64" x1="0" x2="1.01" y1="0" y2="1.01">
<stop offset="0%" stop-color="#12101DFF"/>
<stop offset="100%" stop-color="#12101DFF"/>
</linearGradient>
<path d="M386.61554,5 L413.44437,5 Q433.566,5,432.23352,20.98987 L430.45685,42.309696 Q429.12436,58.299564,428.9396,58.576714 L428.69324,58.946243 Q428.50848,59.223392,419.33286,64.35095 L407.09866,71.187706 Q397.92303,76.31527,392.7097,73.584465 L385.75854,69.9434 Q380.5452,67.2126,377.64243,62.462612 L373.77206,56.129295 Q370.8693,51.379307,369.55667,37.465515 L367.80652,18.913792 Q366.4939,5,386.61554,5 z" fill="url(#gradient_face64)" stroke="none" stroke-width="0"/>
<path d="M439,0 L519,0 L434,60 z" fill="none" stroke="none" stroke-width="0"/>
<linearGradient id="gradient_face65" x1="0" x2="1.01" y1="0" y2="1.01">
<stop offset="0%" stop-color="#12101DFF"/>
<stop offset="100%" stop-color="#12101DFF"/>
</linearGradient>
<path d="M461.4944,5 L485.35266,5 Q503.2464,5,484.2343,18.42029 L458.8849,36.314007 Q439.8728,49.7343,440.99115,36.314007 L442.4823,18.42029 Q443.60068,5,461.4944,5 z" fill="url(#gradient_face65)" stroke="none" stroke-width="0"/>
<path d="M524,0 L614,0 L572,79 z" fill="none" stroke="none" stroke-width="0"/>
<linearGradient id="gradient_face66" x1="0" x2="1.01" y1="0" y2="1.01">
<stop offset="0%" stop-color="#12101DFF"/>
<stop offset="100%" stop-color="#12101DFF"/>
</linearGradient>
<path d="M554.7257,5 L583.8419,5 Q605.6791,5,595.4884,24.168169 L581.9008,49.725727 Q571.71014,68.8939,560.06366,49.725727 L544.53503,24.168169 Q532.88855,5,554.7257,5 z" fill="url(#gradient_face66)" stroke="none" stroke-width="0"/>
<path d="M614,0 L728,0 L613,140 L587,140 L569,108 L572,79 z" fill="none" stroke="none" stroke-width="0"/>
<linearGradient id="gradient_face67" x1="0" x2="1.01" y1="0" y2="1.01">
<stop offset="0%" stop-color="#12101DFF"/>
<stop offset="100%" stop-color="#12101DFF"/>
</linearGradient>
<path d="M647.1298,5 L687.29694,5 Q717.42224,5,685.38654,44 L642.67224,96 Q610.63654,135,604.42285,135 L596.13794,135 Q589.92426,135,585.18805,126.58013 L578.87317,115.35364 Q574.13696,106.93377,574.9578,98.99924 L576.0522,88.41987 Q576.87305,80.48534,588.9125,57.839737 L604.965,27.645601 Q617.00446,5,647.1298,5 z" fill="url(#gradient_face67)" stroke="none" stroke-width="0"/>
<path d="M800,0 L800,72 L728,131 L642,154 L613,140 L728,0 z" fill="none" stroke="none" stroke-width="0"/>
<linearGradient id="gradient_face68" x1="0" x2="1.01" y1="0" y2="1.01">
<stop offset="0%" stop-color="#12101DFF"/>
<stop offset="100%" stop-color="#12101DFF"/>
</linearGradient>
<path d="M795,24.389875 L795,50.243042 Q795,69.63292,774.1997,86.67762 L746.46594,109.403885 Q725.66565,126.448586,700.7165,133.12103 L667.4509,142.01764 Q642.5018,148.69008,636.02094,145.5614 L627.3798,141.38982 Q620.8989,138.26114,653.7383,98.28279 L697.5241,44.97834 Q730.36346,5,749.7544,5 L775.609,5 Q795,5,795,24.389875 z" fill="url(#gradient_face68)" stroke="none" stroke-width="0"/>
<path d="M800,72 L800,186 L738,219 L728,131 z" fill="none" stroke="none" stroke-width="0"/>
<linearGradient id="gradient_face69" x1="0" x2="1.01" y1="0" y2="1.01">
<stop offset="0%" stop-color="#12101DFF"/>
<stop offset="100%" stop-color="#12101DFF"/>
</linearGradient>
<path d="M795,112.692215 L795,152.86647 Q795,182.99715,779.1415,191.43799 L757.99677,202.69243 Q742.13824,211.13326,739.47943,187.73567 L735.9343,156.5389 Q733.2755,133.14131,751.79285,117.96738 L776.48267,97.735466 Q795,82.56152,795,112.692215 z" fill="url(#gradient_face69)" stroke="none" stroke-width="0"/>
<path d="M800,186 L800,279 L716,304 L707,299 L710,249 L738,219 z" fill="none" stroke="none" stroke-width="0"/>
<linearGradient id="gradient_face70" x1="0" x2="1.01" y1="0" y2="1.01">
<stop offset="0%" stop-color="#12101DFF"/>
<stop offset="100%" stop-color="#12101DFF"/>
</linearGradient>
<path d="M795,218.6092 L795,250.98758 Q795,275.27136,771.47687,282.27228 L740.11273,291.60684 Q716.5896,298.60776,715.2666,297.87277 L713.50256,296.89273 Q712.1795,296.1577,712.99066,282.6392 L714.07214,264.61447 Q714.88324,251.09592,722.744,242.67365 L733.2251,231.44392 Q741.0859,223.02165,757.26013,214.41278 L778.82574,202.9343 Q795,194.32542,795,218.6092 z" fill="url(#gradient_face70)" stroke="none" stroke-width="0"/>
<path d="M800,279 L800,361 L760,365 L716,304 z" fill="none" stroke="none" stroke-width="0"/>
<linearGradient id="gradient_face71" x1="0" x2="1.01" y1="0" y2="1.01">
<stop offset="0%" stop-color="#12101DFF"/>
<stop offset="100%" stop-color="#12101DFF"/>
</linearGradient>
<path d="M795,306.9359 L795,335.244 Q795,356.47507,785.2109,357.45398 L772.1587,358.7592 Q762.36957,359.7381,750.91064,343.85193 L735.63214,322.67038 Q724.1733,306.7842,745.4213,300.46042 L773.752,292.02866 Q795,285.70483,795,306.9359 z" fill="url(#gradient_face71)" stroke="none" stroke-width="0"/>
<circle cx="400" cy="400" fill="none" r="0" stroke="none" stroke-width="0"/>
<circle cx="408" cy="406" fill="none" r="0" stroke="none" stroke-width="0"/>
<circle cx="406" cy="419" fill="none" r="0" stroke="none" stroke-width="0"/>
<circle cx="391" cy="429" fill="none" r="0" stroke="none" stroke-width="0"/>
<circle cx="368" cy="424" fill="none" r="0" stroke="none" stroke-width="0"/>
<circle cx="350" cy="400" fill="none" r="0" stroke="none" stroke-width="0"/>
<circle cx="351" cy="365" fill="none" r="0" stroke="none" stroke-width="0"/>
<circle cx="378" cy="333" fill="none" r="0" stroke="none" stroke-width="0"/>
<circle cx="425" cy="324" fill="none" r="0" stroke="none" stroke-width="0"/>
<circle cx="473" cy="347" fill="none" r="0" stroke="none" stroke-width="0"/>
<circle cx="500" cy="400" fill="none" r="0" stroke="none" stroke-width="0"/>
<circle cx="489" cy="465" fill="none" r="0" stroke="none" stroke-width="0"/>
<circle cx="437" cy="514" fill="none" r="0" stroke="none" stroke-width="0"/>
<circle cx="360" cy="524" fill="none" r="0" stroke="none" stroke-width="0"/>
<circle cx="287" cy="482" fill="none" r="0" stroke="none" stroke-width="0"/>
<circle cx="250" cy="400" fill="none" r="0" stroke="none" stroke-width="0"/>
<circle cx="271" cy="306" fill="none" r="0" stroke="none" stroke-width="0"/>
<circle cx="347" cy="238" fill="none" r="0" stroke="none" stroke-width="0"/>
<circle cx="456" cy="229" fill="none" r="0" stroke="none" stroke-width="0"/>
<circle cx="554" cy="288" fill="none" r="0" stroke="none" stroke-width="0"/>
<circle cx="600" cy="400" fill="none" r="0" stroke="none" stroke-width="0"/>
<circle cx="570" cy="523" fill="none" r="0" stroke="none" stroke-width="0"/>
<circle cx="468" cy="609" fill="none" r="0" stroke="none" stroke-width="0"/>
<circle cx="329" cy="619" fill="none" r="0" stroke="none" stroke-width="0"/>
<circle cx="206" cy="541" fill="none" r="0" stroke="none" stroke-width="0"/>
<circle cx="150" cy="400" fill="none" r="0" stroke="none" stroke-width="0"/>
<circle cx="190" cy="247" fill="none" r="0" stroke="none" stroke-width="0"/>
<circle cx="317" cy="143" fill="none" r="0" stroke="none" stroke-width="0"/>
<circle cx="487" cy="134" fill="none" r="0" stroke="none" stroke-width="0"/>
<circle cx="635" cy="230" fill="none" r="0" stroke="none" stroke-width="0"/>
<circle cx="700" cy="400" fill="none" r="0" stroke="none" stroke-width="0"/>
<circle cx="651" cy="582" fill="none" r="0" stroke="none" stroke-width="0"/>
<circle cx="499" cy="704" fill="none" r="0" stroke="none" stroke-width="0"/>
<circle cx="298" cy="714" fill="none" r="0" stroke="none" stroke-width="0"/>
<circle cx="125" cy="600" fill="none" r="0" stroke="none" stroke-width="0"/>
<circle cx="50" cy="400" fill="none" r="0" stroke="none" stroke-width="0"/>
<circle cx="109" cy="188" fill="none" r="0" stroke="none" stroke-width="0"/>
<circle cx="286" cy="48" fill="none" r="0" stroke="none" stroke-width="0"/>
<circle cx="517" cy="39" fill="none" r="0" stroke="none" stroke-width="0"/>
<circle cx="716" cy="171" fill="none" r="0" stroke="none" stroke-width="0"/>
<circle cx="820" cy="400" fill="none" r="0" stroke="none" stroke-width="0"/>
<circle cx="812" cy="482" fill="none" r="0" stroke="none" stroke-width="0"/>
<circle cx="788" cy="561" fill="none" r="0" stroke="none" stroke-width="0"/>
<circle cx="749" cy="633" fill="none" r="0" stroke="none" stroke-width="0"/>
<circle cx="697" cy="697" fill="none" r="0" stroke="none" stroke-width="0"/>
<circle cx="633" cy="749" fill="none" r="0" stroke="none" stroke-width="0"/>
<circle cx="561" cy="788" fill="none" r="0" stroke="none" stroke-width="0"/>
<circle cx="482" cy="812" fill="none" r="0" stroke="none" stroke-width="0"/>
<circle cx="400" cy="820" fill="none" r="0" stroke="none" stroke-width="0"/>
<circle cx="318" cy="812" fill="none" r="0" stroke="none" stroke-width="0"/>
<circle cx="239" cy="788" fill="none" r="0" stroke="none" stroke-width="0"/>
<circle cx="167" cy="749" fill="none" r="0" stroke="none" stroke-width="0"/>
<circle cx="103" cy="697" fill="none" r="0" stroke="none" stroke-width="0"/>
<circle cx="51" cy="633" fill="none" r="0" stroke="none" stroke-width="0"/>
<circle cx="12" cy="561" fill="none" r="0" stroke="none" stroke-width="0"/>
<circle cx="-12" cy="482" fill="none" r="0" stroke="none" stroke-width="0"/>
<circle cx="-20" cy="400" fill="none" r="0" stroke="none" stroke-width="0"/>
<circle cx="-12" cy="318" fill="none" r="0" stroke="none" stroke-width="0"/>
<circle cx="12" cy="239" fill="none" r="0" stroke="none" stroke-width="0"/>
<circle cx="51" cy="167" fill="none" r="0" stroke="none" stroke-width="0"/>
<circle cx="103" cy="103" fill="none" r="0" stroke="none" stroke-width="0"/>
<circle cx="167" cy="51" fill="none" r="0" stroke="none" stroke-width="0"/>
<circle cx="239" cy="12" fill="none" r="0" stroke="none" stroke-width="0"/>
<circle cx="318" cy="-12" fill="none" r="0" stroke="none" stroke-width="0"/>
<circle cx="400" cy="-20" fill="none" r="0" stroke="none" stroke-width="0"/>
<circle cx="482" cy="-12" fill="none" r="0" stroke="none" stroke-width="0"/>
<circle cx="561" cy="12" fill="none" r="0" stroke="none" stroke-width="0"/>
<circle cx="633" cy="51" fill="none" r="0" stroke="none" stroke-width="0"/>
<circle cx="697" cy="103" fill="none" r="0" stroke="none" stroke-width="0"/>
<circle cx="749" cy="167" fill="none" r="0" stroke="none" stroke-width="0"/>
<circle cx="788" cy="239" fill="none" r="0" stroke="none" stroke-width="0"/>
<circle cx="812" cy="318" fill="none" r="0" stroke="none" stroke-width="0"/>
<circle cx="289" cy="767" fill="none" r="0" stroke="none" stroke-width="0"/>
<circle cx="510" cy="761" fill="none" r="0" stroke="none" stroke-width="0"/>
<circle cx="365" cy="751" fill="none" r="0" stroke="none" stroke-width="0"/>
<circle cx="434" cy="749" fill="none" r="0" stroke="none" stroke-width="0"/>
<circle cx="229" cy="720" fill="none" r="0" stroke="none" stroke-width="0"/>
<circle cx="569" cy="717" fill="none" r="0" stroke="none" stroke-width="0"/>
<circle cx="399" cy="719" fill="none" r="0" stroke="none" stroke-width="0"/>
<circle cx="101" cy="645" fill="none" r="0" stroke="none" stroke-width="0"/>
<circle cx="398" cy="694" fill="none" r="0" stroke="none" stroke-width="0"/>
<circle cx="403" cy="683" fill="none" r="0" stroke="none" stroke-width="0"/>
<circle cx="183" cy="664" fill="none" r="0" stroke="none" stroke-width="0"/>
<circle cx="616" cy="663" fill="none" r="0" stroke="none" stroke-width="0"/>
<circle cx="686" cy="635" fill="none" r="0" stroke="none" stroke-width="0"/>
<circle cx="588" cy="660" fill="none" r="0" stroke="none" stroke-width="0"/>
<circle cx="212" cy="656" fill="none" r="0" stroke="none" stroke-width="0"/>
<circle cx="219" cy="645" fill="none" r="0" stroke="none" stroke-width="0"/>
<circle cx="230" cy="639" fill="none" r="0" stroke="none" stroke-width="0"/>
<circle cx="565" cy="630" fill="none" r="0" stroke="none" stroke-width="0"/>
<circle cx="563" cy="618" fill="none" r="0" stroke="none" stroke-width="0"/>
<circle cx="70" cy="577" fill="none" r="0" stroke="none" stroke-width="0"/>
<circle cx="397" cy="588" fill="none" r="0" stroke="none" stroke-width="0"/>
<circle cx="406" cy="577" fill="none" r="0" stroke="none" stroke-width="0"/>
<circle cx="719" cy="571" fill="none" r="0" stroke="none" stroke-width="0"/>
<circle cx="281" cy="559" fill="none" r="0" stroke="none" stroke-width="0"/>
<circle cx="294" cy="555" fill="none" r="0" stroke="none" stroke-width="0"/>
<circle cx="502" cy="546" fill="none" r="0" stroke="none" stroke-width="0"/>
<circle cx="503" cy="531" fill="none" r="0" stroke="none" stroke-width="0"/>
<circle cx="394" cy="482" fill="none" r="0" stroke="none" stroke-width="0"/>
<circle cx="369" cy="474" fill="none" r="0" stroke="none" stroke-width="0"/>
<circle cx="341" cy="472" fill="none" r="0" stroke="none" stroke-width="0"/>
<circle cx="424" cy="466" fill="none" r="0" stroke="none" stroke-width="0"/>
<circle cx="437" cy="462" fill="none" r="0" stroke="none" stroke-width="0"/>
<circle cx="398" cy="411" fill="none" r="0" stroke="none" stroke-width="0"/>
<circle cx="708" cy="500" fill="none" r="0" stroke="none" stroke-width="0"/>
<circle cx="716" cy="496" fill="none" r="0" stroke="none" stroke-width="0"/>
<circle cx="392" cy="413" fill="none" r="0" stroke="none" stroke-width="0"/>
<circle cx="112" cy="497" fill="none" r="0" stroke="none" stroke-width="0"/>
<circle cx="89" cy="494" fill="none" r="0" stroke="none" stroke-width="0"/>
<circle cx="659" cy="487" fill="none" r="0" stroke="none" stroke-width="0"/>
<circle cx="213" cy="466" fill="none" r="0" stroke="none" stroke-width="0"/>
<circle cx="383" cy="410" fill="none" r="0" stroke="none" stroke-width="0"/>
<circle cx="319" cy="442" fill="none" r="0" stroke="none" stroke-width="0"/>
<circle cx="98" cy="496" fill="none" r="0" stroke="none" stroke-width="0"/>
<circle cx="100" cy="495" fill="none" r="0" stroke="none" stroke-width="0"/>
<circle cx="15" cy="438" fill="none" r="0" stroke="none" stroke-width="0"/>
<circle cx="558" cy="455" fill="none" r="0" stroke="none" stroke-width="0"/>
<circle cx="650" cy="478" fill="none" r="0" stroke="none" stroke-width="0"/>
<circle cx="200" cy="462" fill="none" r="0" stroke="none" stroke-width="0"/>
<circle cx="550" cy="442" fill="none" r="0" stroke="none" stroke-width="0"/>
<circle cx="456" cy="426" fill="none" r="0" stroke="none" stroke-width="0"/>
<circle cx="375" cy="400" fill="none" r="0" stroke="none" stroke-width="0"/>
<circle cx="455" cy="419" fill="none" r="0" stroke="none" stroke-width="0"/>
<circle cx="300" cy="427" fill="none" r="0" stroke="none" stroke-width="0"/>
<circle cx="760" cy="435" fill="none" r="0" stroke="none" stroke-width="0"/>
<circle cx="375" cy="383" fill="none" r="0" stroke="none" stroke-width="0"/>
<circle cx="453" cy="391" fill="none" r="0" stroke="none" stroke-width="0"/>
<circle cx="386" cy="368" fill="none" r="0" stroke="none" stroke-width="0"/>
<circle cx="300" cy="380" fill="none" r="0" stroke="none" stroke-width="0"/>
<circle cx="430" cy="368" fill="none" r="0" stroke="none" stroke-width="0"/>
<circle cx="433" cy="368" fill="none" r="0" stroke="none" stroke-width="0"/>
<circle cx="408" cy="361" fill="none" r="0" stroke="none" stroke-width="0"/>
<circle cx="15" cy="362" fill="none" r="0" stroke="none" stroke-width="0"/>
<circle cx="293" cy="360" fill="none" r="0" stroke="none" stroke-width="0"/>
<circle cx="760" cy="365" fill="none" r="0" stroke="none" stroke-width="0"/>
<circle cx="550" cy="355" fill="none" r="0" stroke="none" stroke-width="0"/>
<circle cx="536" cy="348" fill="none" r="0" stroke="none" stroke-width="0"/>
<circle cx="200" cy="340" fill="none" r="0" stroke="none" stroke-width="0"/>
<circle cx="326" cy="315" fill="none" r="0" stroke="none" stroke-width="0"/>
<circle cx="192" cy="329" fill="none" r="0" stroke="none" stroke-width="0"/>
<circle cx="330" cy="296" fill="none" r="0" stroke="none" stroke-width="0"/>
<circle cx="638" cy="319" fill="none" r="0" stroke="none" stroke-width="0"/>
<circle cx="650" cy="321" fill="none" r="0" stroke="none" stroke-width="0"/>
<circle cx="472" cy="287" fill="none" r="0" stroke="none" stroke-width="0"/>
<circle cx="489" cy="284" fill="none" r="0" stroke="none" stroke-width="0"/>
<circle cx="391" cy="277" fill="none" r="0" stroke="none" stroke-width="0"/>
<circle cx="716" cy="304" fill="none" r="0" stroke="none" stroke-width="0"/>
<circle cx="89" cy="306" fill="none" r="0" stroke="none" stroke-width="0"/>
<circle cx="404" cy="265" fill="none" r="0" stroke="none" stroke-width="0"/>
<circle cx="707" cy="299" fill="none" r="0" stroke="none" stroke-width="0"/>
<circle cx="100" cy="305" fill="none" r="0" stroke="none" stroke-width="0"/>
<circle cx="98" cy="304" fill="none" r="0" stroke="none" stroke-width="0"/>
<circle cx="99" cy="287" fill="none" r="0" stroke="none" stroke-width="0"/>
<circle cx="710" cy="249" fill="none" r="0" stroke="none" stroke-width="0"/>
<circle cx="738" cy="219" fill="none" r="0" stroke="none" stroke-width="0"/>
<circle cx="64" cy="220" fill="none" r="0" stroke="none" stroke-width="0"/>
<circle cx="268" cy="225" fill="none" r="0" stroke="none" stroke-width="0"/>
<circle cx="267" cy="212" fill="none" r="0" stroke="none" stroke-width="0"/>
<circle cx="538" cy="203" fill="none" r="0" stroke="none" stroke-width="0"/>
<circle cx="550" cy="198" fill="none" r="0" stroke="none" stroke-width="0"/>
<circle cx="91" cy="147" fill="none" r="0" stroke="none" stroke-width="0"/>
<circle cx="728" cy="131" fill="none" r="0" stroke="none" stroke-width="0"/>
<circle cx="396" cy="170" fill="none" r="0" stroke="none" stroke-width="0"/>
<circle cx="642" cy="154" fill="none" r="0" stroke="none" stroke-width="0"/>
<circle cx="403" cy="159" fill="none" r="0" stroke="none" stroke-width="0"/>
<circle cx="187" cy="140" fill="none" r="0" stroke="none" stroke-width="0"/>
<circle cx="613" cy="140" fill="none" r="0" stroke="none" stroke-width="0"/>
<circle cx="201" cy="146" fill="none" r="0" stroke="none" stroke-width="0"/>
<circle cx="212" cy="145" fill="none" r="0" stroke="none" stroke-width="0"/>
<circle cx="587" cy="140" fill="none" r="0" stroke="none" stroke-width="0"/>
<circle cx="228" cy="120" fill="none" r="0" stroke="none" stroke-width="0"/>
<circle cx="569" cy="108" fill="none" r="0" stroke="none" stroke-width="0"/>
<circle cx="572" cy="79" fill="none" r="0" stroke="none" stroke-width="0"/>
<circle cx="227" cy="76" fill="none" r="0" stroke="none" stroke-width="0"/>
<circle cx="398" cy="82" fill="none" r="0" stroke="none" stroke-width="0"/>
<circle cx="377" cy="71" fill="none" r="0" stroke="none" stroke-width="0"/>
<circle cx="432" cy="63" fill="none" r="0" stroke="none" stroke-width="0"/>
<circle cx="434" cy="60" fill="none" r="0" stroke="none" stroke-width="0"/>
<circle cx="366" cy="53" fill="none" r="0" stroke="none" stroke-width="0"/>
<circle cx="281" cy="7" fill="none" r="0" stroke="none" stroke-width="0"/>
<circle cx="0" cy="0" fill="none" r="0" stroke="none" stroke-width="0"/>
<circle cx="800" cy="0" fill="none" r="0" stroke="none" stroke-width="0"/>
<circle cx="800" cy="800" fill="none" r="0" stroke="none" stroke-width="0"/>
<circle cx="0" cy="800" fill="none" r="0" stroke="none" stroke-width="0"/>
<circle cx="519" cy="0" fill="none" r="0" stroke="none" stroke-width="0"/>
<circle cx="524" cy="0" fill="none" r="0" stroke="none" stroke-width="0"/>
<circle cx="800" cy="361" fill="none" r="0" stroke="none" stroke-width="0"/>
<circle cx="800" cy="439" fill="none" r="0" stroke="none" stroke-width="0"/>
<circle cx="800" cy="521" fill="none" r="0" stroke="none" stroke-width="0"/>
<circle cx="800" cy="614" fill="none" r="0" stroke="none" stroke-width="0"/>
<circle cx="800" cy="728" fill="none" r="0" stroke="none" stroke-width="0"/>
<circle cx="728" cy="800" fill="none" r="0" stroke="none" stroke-width="0"/>
<circle cx="614" cy="800" fill="none" r="0" stroke="none" stroke-width="0"/>
<circle cx="521" cy="800" fill="none" r="0" stroke="none" stroke-width="0"/>
<circle cx="439" cy="800" fill="none" r="0" stroke="none" stroke-width="0"/>
<circle cx="361" cy="800" fill="none" r="0" stroke="none" stroke-width="0"/>
<circle cx="279" cy="800" fill="none" r="0" stroke="none" stroke-width="0"/>
<circle cx="186" cy="800" fill="none" r="0" stroke="none" stroke-width="0"/>
<circle cx="72" cy="800" fill="none" r="0" stroke="none" stroke-width="0"/>
<circle cx="0" cy="728" fill="none" r="0" stroke="none" stroke-width="0"/>
<circle cx="0" cy="614" fill="none" r="0" stroke="none" stroke-width="0"/>
<circle cx="0" cy="521" fill="none" r="0" stroke="none" stroke-width="0"/>
<circle cx="0" cy="439" fill="none" r="0" stroke="none" stroke-width="0"/>
<circle cx="0" cy="361" fill="none" r="0" stroke="none" stroke-width="0"/>
<circle cx="0" cy="279" fill="none" r="0" stroke="none" stroke-width="0"/>
<circle cx="0" cy="186" fill="none" r="0" stroke="none" stroke-width="0"/>
<circle cx="0" cy="72" fill="none" r="0" stroke="none" stroke-width="0"/>
<circle cx="72" cy="0" fill="none" r="0" stroke="none" stroke-width="0"/>
<circle cx="186" cy="0" fill="none" r="0" stroke="none" stroke-width="0"/>
<circle cx="279" cy="0" fill="none" r="0" stroke="none" stroke-width="0"/>
<circle cx="361" cy="0" fill="none" r="0" stroke="none" stroke-width="0"/>
<circle cx="439" cy="0" fill="none" r="0" stroke="none" stroke-width="0"/>
<circle cx="614" cy="0" fill="none" r="0" stroke="none" stroke-width="0"/>
<circle cx="728" cy="0" fill="none" r="0" stroke="none" stroke-width="0"/>
<circle cx="800" cy="72" fill="none" r="0" stroke="none" stroke-width="0"/>
<circle cx="800" cy="186" fill="none" r="0" stroke="none" stroke-width="0"/>
<circle cx="800" cy="279" fill="none" r="0" stroke="none" stroke-width="0"/>
</svg>