<svg 
            xmlns:xlink="http://www.w3.org/1999/xlink" viewBox="0 0 800 800" xmlns="http://www.w3.org/2000/svg">
<rect fill="#260F03" height="800" stroke="none" width="800" x="0" y="0"/>
<path d="M386,390 L420,395 L422,401 L405,412 z" fill="none" stroke="none" stroke-width="0"/>
<linearGradient id="gradient_face0" x1="0" x2="1.01" y1="0" y2="1.01">
<stop offset="0%" stop-color="#2166ACFF"/>
<stop offset="100%" stop-color="#2166ACFF"/>
</linearGradient>
<path d="M403.8659,397.68112 L410.9307,398.72006 Q416.22928,399.49927,416.17,399.3214 L416.09097,399.0843 Q416.03168,398.90643,413.00378,400.86566 L408.96658,403.47797 Q405.9387,405.4372,403.72726,402.87662 L400.77872,399.4625 Q398.5673,396.90192,403.8659,397.68112 z" fill="url(#gradient_face0)" stroke="none" stroke-width="0"/>
<path d="M369,417 L386,390 L405,412 L392,427 z" fill="none" stroke="none" stroke-width="0"/>
<linearGradient id="gradient_face1" x1="0" x2="1.01" y1="0" y2="1.01">
<stop offset="0%" stop-color="#3C8ABEFF"/>
<stop offset="100%" stop-color="#4292C2FF"/>
</linearGradient>
<path d="M379.4231,409.8298 L383.54224,403.28766 Q386.6316,398.38104,390.15866,402.465 L394.86142,407.9103 Q398.3885,411.99426,396.05984,414.68118 L392.955,418.2637 Q390.62634,420.9506,386.33856,419.08636 L380.62152,416.60068 Q376.33374,414.73645,379.4231,409.8298 z" fill="url(#gradient_face1)" stroke="none" stroke-width="0"/>
<path d="M383,369 L421,354 L420,395 L386,390 z" fill="none" stroke="none" stroke-width="0"/>
<linearGradient id="gradient_face2" x1="0" x2="1.01" y1="0" y2="1.01">
<stop offset="0%" stop-color="#72B1D3FF"/>
<stop offset="100%" stop-color="#8EC2DCFF"/>
</linearGradient>
<path d="M396.7009,368.9672 L407.6247,364.65518 Q415.8175,361.42117,415.614,369.76425 L415.3427,380.88834 Q415.13922,389.2314,407.72397,388.14093 L397.83694,386.68695 Q390.4217,385.59647,389.8476,381.57788 L389.08215,376.2198 Q388.5081,372.2012,396.7009,368.9672 z" fill="url(#gradient_face2)" stroke="none" stroke-width="0"/>
<path d="M422,401 L440,413 L419,460 L412,458 L392,427 L405,412 z" fill="none" stroke="none" stroke-width="0"/>
<linearGradient id="gradient_face3" x1="0" x2="1.01" y1="0" y2="1.01">
<stop offset="0%" stop-color="#ABD1E5FF"/>
<stop offset="100%" stop-color="#CCE2EEFF"/>
</linearGradient>
<path d="M425.48483,409.3325 L430.1859,412.46652 Q433.71173,414.81708,428.4594,426.57227 L421.4563,442.24585 Q416.20398,454.00107,415.89737,453.91345 L415.48853,453.79666 Q415.18192,453.70905,410.09772,445.82852 L403.3188,435.32117 Q398.2346,427.44064,401.2581,423.952 L405.28946,419.3004 Q408.31296,415.81174,412.4068,413.1628 L417.8652,409.6309 Q421.959,406.98193,425.48483,409.3325 z" fill="url(#gradient_face3)" stroke="none" stroke-width="0"/>
<path d="M335,362 L352,356 L383,369 L386,390 L369,417 L356,419 z" fill="none" stroke="none" stroke-width="0"/>
<linearGradient id="gradient_face4" x1="0" x2="1.01" y1="0" y2="1.01">
<stop offset="0%" stop-color="#D8E8F1FF"/>
<stop offset="100%" stop-color="#F3F5F6FF"/>
</linearGradient>
<path d="M344.56442,363.9266 L348.72485,362.45822 Q351.84518,361.35693,359.827,364.70413 L370.46945,369.1671 Q378.4513,372.5143,379.15308,377.4269 L380.0888,383.97702 Q380.79062,388.8896,376.3488,395.94424 L370.42636,405.35043 Q365.98456,412.4051,363.97287,412.71457 L361.29062,413.12723 Q359.2789,413.43674,353.92847,398.9141 L346.79453,379.55054 Q341.4441,365.0279,344.56442,363.9266 z" fill="url(#gradient_face4)" stroke="none" stroke-width="0"/>
<path d="M421,354 L423,351 L485,383 L471,405 L440,413 L422,401 L420,395 z" fill="none" stroke="none" stroke-width="0"/>
<linearGradient id="gradient_face5" x1="0" x2="1.01" y1="0" y2="1.01">
<stop offset="0%" stop-color="#F7F7F7FF"/>
<stop offset="100%" stop-color="#FCDECCFF"/>
</linearGradient>
<path d="M425.57828,356.14648 L425.065,356.91638 Q424.68005,357.4938,440.62906,365.72556 L461.89438,376.70123 Q477.84338,384.93295,474.84256,389.64853 L470.8415,395.93594 Q467.84067,400.6515,459.76276,402.7361 L448.9922,405.51563 Q440.91425,407.60025,436.50024,404.6576 L430.61493,400.73404 Q426.20093,397.79135,425.8466,396.72836 L425.37415,395.31107 Q425.01984,394.24808,425.30286,382.64438 L425.6802,367.17276 Q425.96323,355.56906,425.57828,356.14648 z" fill="url(#gradient_face5)" stroke="none" stroke-width="0"/>
<path d="M356,419 L369,417 L392,427 L412,458 L340,480 L337,444 z" fill="none" stroke="none" stroke-width="0"/>
<linearGradient id="gradient_face6" x1="0" x2="1.01" y1="0" y2="1.01">
<stop offset="0%" stop-color="#FBE0D0FF"/>
<stop offset="100%" stop-color="#F5AC8BFF"/>
</linearGradient>
<path d="M361.63007,423.19266 L365.45963,422.6035 Q368.3318,422.16162,374.4179,424.80774 L382.53268,428.33594 Q388.61877,430.98206,393.29675,438.23288 L399.534,447.90063 Q404.21198,455.1515,386.28873,460.62802 L362.3911,467.93008 Q344.4679,473.40662,343.77014,465.03384 L342.83984,453.87015 Q342.14212,445.49738,347.12683,438.93854 L353.77316,430.1934 Q358.75787,423.63452,361.63007,423.19266 z" fill="url(#gradient_face6)" stroke="none" stroke-width="0"/>
<path d="M390,289 L395,290 L423,321 L423,351 L421,354 L383,369 L352,356 z" fill="none" stroke="none" stroke-width="0"/>
<linearGradient id="gradient_face7" x1="0" x2="1.01" y1="0" y2="1.01">
<stop offset="0%" stop-color="#F7BA9DFF"/>
<stop offset="100%" stop-color="#DA6A55FF"/>
</linearGradient>
<path d="M392.51505,294.60202 L392.4481,294.58865 Q392.3979,294.5786,400.07852,303.08215 L410.31937,314.42023 Q418,322.9238,418,330.8925 L418,341.51743 Q418,349.4861,417.9124,349.6175 L417.79565,349.79263 Q417.7081,349.92398,407.31277,354.0274 L393.45233,359.49863 Q383.057,363.60205,375.8783,360.5916 L366.30667,356.57773 Q359.12796,353.5673,369.15915,335.88074 L382.53406,312.29865 Q392.56525,294.61206,392.51505,294.60202 z" fill="url(#gradient_face7)" stroke="none" stroke-width="0"/>
<path d="M440,413 L471,405 L489,481 L477,488 L435,480 L419,460 z" fill="none" stroke="none" stroke-width="0"/>
<linearGradient id="gradient_face8" x1="0" x2="1.01" y1="0" y2="1.01">
<stop offset="0%" stop-color="#E8896CFF"/>
<stop offset="100%" stop-color="#B82431FF"/>
</linearGradient>
<path d="M450.70062,415.40237 L460.1918,412.95303 Q467.3102,411.11603,472.1014,431.3455 L478.48965,458.31815 Q483.28085,478.54764,481.12576,479.8048 L478.25226,481.481 Q476.09717,482.73813,464.5931,480.54688 L449.25436,477.6252 Q437.7503,475.43396,433.86777,470.5808 L428.69104,464.1099 Q424.8085,459.2567,430.4406,446.65152 L437.9501,429.84457 Q443.5822,417.23938,450.70062,415.40237 z" fill="url(#gradient_face8)" stroke="none" stroke-width="0"/>
<path d="M317,358 L335,362 L356,419 L337,444 L270,399 L277,379 z" fill="none" stroke="none" stroke-width="0"/>
<linearGradient id="gradient_face9" x1="0" x2="1.01" y1="0" y2="1.01">
<stop offset="0%" stop-color="#2166ACFF"/>
<stop offset="100%" stop-color="#2166ACFF"/>
</linearGradient>
<path d="M321.76752,364.18143 L327.18698,365.38574 Q331.25162,366.289,336.98438,381.8493 L344.62802,402.5964 Q350.36078,418.1567,346.01437,423.87564 L340.21918,431.5009 Q335.8728,437.21985,317.90976,425.1551 L293.959,409.0688 Q275.99597,397.00406,277.51773,392.65622 L279.54672,386.85907 Q281.06848,382.51123,292.0588,376.7413 L306.71255,369.0481 Q317.70288,363.27817,321.76752,364.18143 z" fill="url(#gradient_face9)" stroke="none" stroke-width="0"/>
<path d="M505,307 L514,335 L496,377 L485,383 L423,351 L423,321 z" fill="none" stroke="none" stroke-width="0"/>
<linearGradient id="gradient_face10" x1="0" x2="1.01" y1="0" y2="1.01">
<stop offset="0%" stop-color="#3C8ABEFF"/>
<stop offset="100%" stop-color="#4292C2FF"/>
</linearGradient>
<path d="M503.69705,319.2858 L506.53732,328.1222 Q508.66754,334.74948,503.6931,346.35645 L497.06055,361.83243 Q492.08612,373.4394,489.94086,374.60953 L487.0805,376.16974 Q484.93524,377.33987,467.85468,368.5241 L445.08057,356.7697 Q428,347.95395,428,341.13336 L428,332.03928 Q428,325.2187,450.07007,321.45062 L479.4968,316.42654 Q501.56686,312.6585,503.69705,319.2858 z" fill="url(#gradient_face10)" stroke="none" stroke-width="0"/>
<path d="M412,458 L419,460 L435,480 L382,549 L351,530 L338,483 L340,480 z" fill="none" stroke="none" stroke-width="0"/>
<linearGradient id="gradient_face11" x1="0" x2="1.01" y1="0" y2="1.01">
<stop offset="0%" stop-color="#72B1D3FF"/>
<stop offset="100%" stop-color="#8EC2DCFF"/>
</linearGradient>
<path d="M413.261,463.56036 L414.8789,464.0226 Q416.09232,464.36932,419.85873,469.07733 L424.88065,475.3547 Q428.64706,480.0627,414.28574,498.75952 L395.13733,523.6886 Q380.776,542.38544,373.13126,537.6999 L362.9383,531.4526 Q355.29355,526.7671,351.73407,513.89825 L346.9881,496.73978 Q343.42862,483.87094,343.35086,483.98758 L343.24716,484.14313 Q343.1694,484.25977,363.83286,477.94595 L391.38412,469.5275 Q412.04758,463.21365,413.261,463.56036 z" fill="url(#gradient_face11)" stroke="none" stroke-width="0"/>
<path d="M310,268 L353,262 L390,289 L352,356 L335,362 L317,358 z" fill="none" stroke="none" stroke-width="0"/>
<linearGradient id="gradient_face12" x1="0" x2="1.01" y1="0" y2="1.01">
<stop offset="0%" stop-color="#ABD1E5FF"/>
<stop offset="100%" stop-color="#CCE2EEFF"/>
</linearGradient>
<path d="M326.25092,270.78088 L340.78586,268.75275 Q351.68707,267.23163,361.2164,274.18546 L373.92215,283.45724 Q383.45148,290.41107,372.98795,308.85992 L359.0366,333.45837 Q348.57306,351.90723,344.4071,353.37756 L338.85248,355.338 Q334.6865,356.80835,330.78992,355.94247 L325.59448,354.78793 Q321.69794,353.92203,319.79346,329.436 L317.25418,296.788 Q315.3497,272.30197,326.25092,270.78088 z" fill="url(#gradient_face12)" stroke="none" stroke-width="0"/>
<path d="M485,383 L496,377 L565,443 L531,479 L489,481 L471,405 z" fill="none" stroke="none" stroke-width="0"/>
<linearGradient id="gradient_face13" x1="0" x2="1.01" y1="0" y2="1.01">
<stop offset="0%" stop-color="#D8E8F1FF"/>
<stop offset="100%" stop-color="#F3F5F6FF"/>
</linearGradient>
<path d="M490.5239,385.6824 L493.18756,384.2295 Q495.18533,383.1398,514.0158,401.15155 L539.12305,425.1672 Q557.95355,443.17896,549.19214,452.45572 L537.51025,464.82477 Q528.7489,474.10153,517.9968,474.61353 L503.66074,475.2962 Q492.9087,475.8082,487.9417,454.83655 L481.3191,426.87433 Q476.3521,405.90268,480.0043,400.1635 L484.87393,392.51126 Q488.52612,386.7721,490.5239,385.6824 z" fill="url(#gradient_face13)" stroke="none" stroke-width="0"/>
<path d="M242,424 L270,399 L337,444 L340,480 L338,483 L238,481 z" fill="none" stroke="none" stroke-width="0"/>
<linearGradient id="gradient_face14" x1="0" x2="1.01" y1="0" y2="1.01">
<stop offset="0%" stop-color="#F7F7F7FF"/>
<stop offset="100%" stop-color="#FCDECCFF"/>
</linearGradient>
<path d="M253.92223,420.05814 L263.35785,411.63345 Q270.43457,405.31497,288.96927,417.76364 L313.6822,434.36188 Q332.2169,446.81055,333.01355,456.3706 L334.07578,469.11737 Q334.87247,478.67743,335.0187,478.45807 L335.2137,478.16556 Q335.35995,477.9462,307.75867,477.39417 L270.957,476.65814 Q243.35573,476.1061,244.40266,461.18726 L245.79858,441.29547 Q246.84552,426.37662,253.92223,420.05814 z" fill="url(#gradient_face14)" stroke="none" stroke-width="0"/>
<path d="M473,223 L511,275 L505,307 L423,321 L395,290 z" fill="none" stroke="none" stroke-width="0"/>
<linearGradient id="gradient_face15" x1="0" x2="1.01" y1="0" y2="1.01">
<stop offset="0%" stop-color="#FBE0D0FF"/>
<stop offset="100%" stop-color="#F5AC8BFF"/>
</linearGradient>
<path d="M482.21436,244.08348 L495.62735,262.4381 Q505.6871,276.20407,504.19913,284.13998 L502.21515,294.72122 Q500.72714,302.65717,477.96942,306.54263 L447.6258,311.72324 Q424.86807,315.6087,418.0516,308.06192 L408.96298,297.9995 Q402.14648,290.4527,423.14893,272.41214 L451.1522,248.35806 Q472.15463,230.3175,482.21436,244.08348 z" fill="url(#gradient_face15)" stroke="none" stroke-width="0"/>
<path d="M435,480 L477,488 L464,592 L396,574 L382,549 z" fill="none" stroke="none" stroke-width="0"/>
<linearGradient id="gradient_face16" x1="0" x2="1.01" y1="0" y2="1.01">
<stop offset="0%" stop-color="#F7BA9DFF"/>
<stop offset="100%" stop-color="#DA6A55FF"/>
</linearGradient>
<path d="M447.39966,487.45172 L461.1466,490.0702 Q471.45682,492.03406,467.94427,520.1345 L463.26086,557.60187 Q459.7483,585.70233,441.62204,580.90424 L417.45367,574.5067 Q399.32742,569.70856,395.92102,563.6257 L391.37912,555.5152 Q387.97272,549.4323,402.70773,530.24896 L422.35443,504.6712 Q437.08945,485.48788,447.39966,487.45172 z" fill="url(#gradient_face16)" stroke="none" stroke-width="0"/>
<path d="M287,259 L310,268 L317,358 L277,379 L217,291 z" fill="none" stroke="none" stroke-width="0"/>
<linearGradient id="gradient_face17" x1="0" x2="1.01" y1="0" y2="1.01">
<stop offset="0%" stop-color="#E8896CFF"/>
<stop offset="100%" stop-color="#B82431FF"/>
</linearGradient>
<path d="M292.5835,266.55402 L299.82617,269.3881 Q305.25818,271.51367,307.20862,296.59076 L309.8092,330.02692 Q311.75964,355.104,301.81805,360.32333 L288.5626,367.28247 Q278.621,372.5018,262.3761,348.67593 L240.71622,316.9081 Q224.4713,293.0822,243.27534,284.48608 L268.3474,273.02457 Q287.15146,264.42844,292.5835,266.55402 z" fill="url(#gradient_face17)" stroke="none" stroke-width="0"/>
<path d="M618,360 L619,364 L584,437 L565,443 L496,377 L514,335 z" fill="none" stroke="none" stroke-width="0"/>
<linearGradient id="gradient_face18" x1="0" x2="1.01" y1="0" y2="1.01">
<stop offset="0%" stop-color="#2166ACFF"/>
<stop offset="100%" stop-color="#2166ACFF"/>
</linearGradient>
<path d="M613.8327,363.94632 L613.7638,363.67062 Q613.7121,363.46384,603.7269,384.29007 L590.4133,412.05835 Q580.42816,432.88455,576.1948,434.2214 L570.55035,436.00388 Q566.317,437.3407,547.0103,418.87344 L521.26807,394.2504 Q501.96136,375.7831,506.45306,365.30246 L512.442,351.32828 Q516.9337,340.84766,546.0189,347.8393 L584.7992,357.16147 Q613.8844,364.1531,613.8327,363.94632 z" fill="url(#gradient_face18)" stroke="none" stroke-width="0"/>
<path d="M230,494 L238,481 L338,483 L351,530 L258,579 L250,575 z" fill="none" stroke="none" stroke-width="0"/>
<linearGradient id="gradient_face19" x1="0" x2="1.01" y1="0" y2="1.01">
<stop offset="0%" stop-color="#3C8ABEFF"/>
<stop offset="100%" stop-color="#4292C2FF"/>
</linearGradient>
<path d="M236.9774,492.20193 L239.13853,488.6901 Q240.7594,486.05618,268.78387,486.61667 L306.14987,487.36398 Q334.17435,487.9245,337.45438,499.78302 L341.82773,515.5944 Q345.10776,527.45294,318.9575,541.2311 L284.09048,559.60187 Q257.94022,573.37994,256.84842,572.83405 L255.39265,572.10614 Q254.30084,571.56024,248.61755,548.5429 L241.03983,517.85315 Q235.35654,494.83585,236.9774,492.20193 z" fill="url(#gradient_face19)" stroke="none" stroke-width="0"/>
<path d="M389,164 L403,160 L472,213 L473,223 L395,290 L390,289 L353,262 z" fill="none" stroke="none" stroke-width="0"/>
<linearGradient id="gradient_face20" x1="0" x2="1.01" y1="0" y2="1.01">
<stop offset="0%" stop-color="#72B1D3FF"/>
<stop offset="100%" stop-color="#8EC2DCFF"/>
</linearGradient>
<path d="M395.55746,167.3265 L399.21133,166.28255 Q401.95175,165.49959,421.53818,180.54425 L447.65347,200.60379 Q467.2399,215.64847,467.3976,217.22539 L467.60785,219.32797 Q467.76556,220.9049,445.51312,240.01918 L415.8432,265.50485 Q393.5908,284.61914,393.13123,284.52722 L392.51852,284.4047 Q392.059,284.31277,382.1394,277.07416 L368.91333,267.4227 Q358.99374,260.1841,369.14075,232.56172 L382.67007,195.73187 Q392.81708,168.10948,395.55746,167.3265 z" fill="url(#gradient_face20)" stroke="none" stroke-width="0"/>
<path d="M489,481 L531,479 L568,577 L558,592 L468,596 L464,592 L477,488 z" fill="none" stroke="none" stroke-width="0"/>
<linearGradient id="gradient_face21" x1="0" x2="1.01" y1="0" y2="1.01">
<stop offset="0%" stop-color="#ABD1E5FF"/>
<stop offset="100%" stop-color="#CCE2EEFF"/>
</linearGradient>
<path d="M501.60486,485.40543 L516.4629,484.6979 Q527.6064,484.16727,538.049,511.8261 L551.97253,548.7045 Q562.41516,576.3634,560.26434,579.5896 L557.3966,583.89124 Q555.2458,587.1175,529.6655,588.2544 L495.55847,589.77026 Q469.9782,590.90717,469.76416,590.6931 L469.47876,590.4077 Q469.2647,590.19366,472.98172,560.4575 L477.93774,520.8094 Q481.65475,491.07324,484.29672,489.5321 L487.81937,487.47723 Q490.46133,485.93607,501.60486,485.40543 z" fill="url(#gradient_face21)" stroke="none" stroke-width="0"/>
<path d="M216,291 L217,291 L277,379 L270,399 L242,424 L149,375 L147,353 z" fill="none" stroke="none" stroke-width="0"/>
<linearGradient id="gradient_face22" x1="0" x2="1.01" y1="0" y2="1.01">
<stop offset="0%" stop-color="#D8E8F1FF"/>
<stop offset="100%" stop-color="#F3F5F6FF"/>
</linearGradient>
<path d="M216.84871,296 L215.42516,296 Q214.35748,296,231.48427,321.1193 L254.31998,354.61166 Q271.44678,379.73093,269.72485,384.65063 L267.42902,391.21027 Q265.7071,396.12997,258.3728,402.67847 L248.59373,411.40976 Q241.25943,417.95825,215.00168,404.1235 L179.99133,385.67722 Q153.73357,371.84247,153.27542,366.80286 L152.66457,360.08337 Q152.2064,355.04373,171.9194,337.33063 L198.20338,313.71313 Q217.91638,296,216.84871,296 z" fill="url(#gradient_face22)" stroke="none" stroke-width="0"/>
<path d="M612,250 L631,268 L618,360 L514,335 L505,307 L511,275 z" fill="none" stroke="none" stroke-width="0"/>
<linearGradient id="gradient_face23" x1="0" x2="1.01" y1="0" y2="1.01">
<stop offset="0%" stop-color="#F7F7F7FF"/>
<stop offset="100%" stop-color="#FCDECCFF"/>
</linearGradient>
<path d="M615.0891,259.81403 L621.1457,265.55185 Q625.6882,269.85526,622.12744,295.0544 L617.37976,328.65335 Q613.819,353.8525,585.0434,346.9353 L546.67596,337.71237 Q517.9004,330.79517,515.57465,323.55945 L512.47363,313.91187 Q510.14786,306.67615,511.70007,298.39764 L513.7697,287.35962 Q515.3219,279.08112,543.88934,272.00998 L581.97925,262.5818 Q610.54663,255.51064,615.0891,259.81403 z" fill="url(#gradient_face23)" stroke="none" stroke-width="0"/>
<path d="M351,530 L382,549 L396,574 L335,659 L305,658 L258,579 z" fill="none" stroke="none" stroke-width="0"/>
<linearGradient id="gradient_face24" x1="0" x2="1.01" y1="0" y2="1.01">
<stop offset="0%" stop-color="#FBE0D0FF"/>
<stop offset="100%" stop-color="#F5AC8BFF"/>
</linearGradient>
<path d="M359.05176,540.7994 L370.0364,547.53186 Q378.2749,552.5813,381.81754,558.9074 L386.54105,567.3423 Q390.08368,573.6684,372.8073,597.742 L349.7722,629.84015 Q332.49582,653.91376,325.11682,653.6678 L315.27814,653.33984 Q307.89914,653.0939,295.0262,631.4564 L277.8623,602.60645 Q264.98938,580.969,290.73654,567.40326 L325.0661,549.3157 Q350.81326,535.74994,359.05176,540.7994 z" fill="url(#gradient_face24)" stroke="none" stroke-width="0"/>
<path d="M276,154 L303,134 L389,164 L353,262 L310,268 L287,259 z" fill="none" stroke="none" stroke-width="0"/>
<linearGradient id="gradient_face25" x1="0" x2="1.01" y1="0" y2="1.01">
<stop offset="0%" stop-color="#F7BA9DFF"/>
<stop offset="100%" stop-color="#DA6A55FF"/>
</linearGradient>
<path d="M288.04437,151.30058 L297.07654,144.61009 Q303.85065,139.59222,327.46167,147.82863 L358.94302,158.8105 Q382.55405,167.0469,372.5899,194.1715 L359.30438,230.33763 Q349.34024,257.46222,337.71942,259.08374 L322.225,261.24576 Q310.6042,262.86725,304.91965,260.64288 L297.34027,257.67703 Q291.65573,255.45264,288.5401,225.71239 L284.3859,186.0587 Q281.27023,156.31845,288.04437,151.30058 z" fill="url(#gradient_face25)" stroke="none" stroke-width="0"/>
<path d="M565,443 L584,437 L661,508 L654,545 L568,577 L531,479 z" fill="none" stroke="none" stroke-width="0"/>
<linearGradient id="gradient_face26" x1="0" x2="1.01" y1="0" y2="1.01">
<stop offset="0%" stop-color="#E8896CFF"/>
<stop offset="100%" stop-color="#B82431FF"/>
</linearGradient>
<path d="M572.24304,445.95612 L578.2422,444.06165 Q582.7416,442.64078,604.5906,462.78726 L633.7226,489.64923 Q655.5716,509.79572,653.7836,519.2464 L651.39966,531.8473 Q649.6117,541.2979,626.0042,550.08215 L594.5275,561.7944 Q570.92004,570.57855,560.6787,543.4529 L547.0236,507.28528 Q536.7823,480.15958,546.0707,470.3248 L558.45526,457.21176 Q567.74365,447.37695,572.24304,445.95612 z" fill="url(#gradient_face26)" stroke="none" stroke-width="0"/>
<path d="M149,375 L242,424 L238,481 L230,494 L124,491 L104,454 z" fill="none" stroke="none" stroke-width="0"/>
<linearGradient id="gradient_face27" x1="0" x2="1.01" y1="0" y2="1.01">
<stop offset="0%" stop-color="#2166ACFF"/>
<stop offset="100%" stop-color="#2166ACFF"/>
</linearGradient>
<path d="M176.70007,395.24622 L211.03372,413.336 Q236.78397,426.90332,235.67824,442.65988 L234.20393,463.66864 Q233.09822,479.4252,231.34528,482.2737 L229.00801,486.07178 Q227.25507,488.92032,197.18642,488.0693 L157.09488,486.93463 Q127.02622,486.08365,121.83378,476.47763 L114.910515,463.6696 Q109.71807,454.06357,122.0876,432.34818 L138.5803,403.3943 Q150.94984,381.6789,176.70007,395.24622 z" fill="url(#gradient_face27)" stroke="none" stroke-width="0"/>
<path d="M554,145 L597,160 L612,250 L511,275 L473,223 L472,213 z" fill="none" stroke="none" stroke-width="0"/>
<linearGradient id="gradient_face28" x1="0" x2="1.01" y1="0" y2="1.01">
<stop offset="0%" stop-color="#3C8ABEFF"/>
<stop offset="100%" stop-color="#4292C2FF"/>
</linearGradient>
<path d="M566.2796,154.57907 L581.29425,159.81673 Q592.5552,163.74498,596.68085,188.49893 L602.18176,221.50421 Q606.3074,246.25816,578.33215,253.18272 L541.03186,262.41547 Q513.05664,269.34003,502.4916,254.88258 L488.40485,235.60599 Q477.83978,221.14853,477.65985,219.34904 L477.41992,216.9497 Q477.23996,215.15022,500.57355,195.8004 L531.68506,170.00064 Q555.0186,150.65082,566.2796,154.57907 z" fill="url(#gradient_face28)" stroke="none" stroke-width="0"/>
<path d="M464,592 L468,596 L451,702 L405,719 L335,659 L396,574 z" fill="none" stroke="none" stroke-width="0"/>
<linearGradient id="gradient_face29" x1="0" x2="1.01" y1="0" y2="1.01">
<stop offset="0%" stop-color="#72B1D3FF"/>
<stop offset="100%" stop-color="#8EC2DCFF"/>
</linearGradient>
<path d="M461.7899,596.86096 L462.28635,597.3574 Q462.6587,597.72974,457.81882,627.9077 L451.3657,668.145 Q446.52582,698.323,434.37497,702.81354 L418.17383,708.8009 Q406.02295,713.29144,386.73703,696.7606 L361.02243,674.71954 Q341.73648,658.1887,358.63132,634.6468 L381.15775,603.2575 Q398.05255,579.7155,417.06207,584.74744 L442.40805,591.45667 Q461.41754,596.48865,461.7899,596.86096 z" fill="url(#gradient_face29)" stroke="none" stroke-width="0"/>
<path d="M185,153 L276,154 L287,259 L217,291 L216,291 L159,199 z" fill="none" stroke="none" stroke-width="0"/>
<linearGradient id="gradient_face30" x1="0" x2="1.01" y1="0" y2="1.01">
<stop offset="0%" stop-color="#ABD1E5FF"/>
<stop offset="100%" stop-color="#CCE2EEFF"/>
</linearGradient>
<path d="M212.97679,158.30774 L246.41365,158.67517 Q271.4913,158.95076,274.53973,188.04956 L278.60434,226.84796 Q281.65277,255.94676,261.93033,264.96274 L235.63376,276.98404 Q215.91133,286,216.77315,286 L217.92224,286 Q218.78406,286,202.59167,259.86493 L181.00185,225.01819 Q164.80946,198.88313,171.73637,186.62784 L180.97224,170.28745 Q187.89914,158.03217,212.97679,158.30774 z" fill="url(#gradient_face30)" stroke="none" stroke-width="0"/>
<path d="M619,364 L732,399 L739,433 L734,450 L661,508 L584,437 z" fill="none" stroke="none" stroke-width="0"/>
<linearGradient id="gradient_face31" x1="0" x2="1.01" y1="0" y2="1.01">
<stop offset="0%" stop-color="#D8E8F1FF"/>
<stop offset="100%" stop-color="#F3F5F6FF"/>
</linearGradient>
<path d="M653.4596,379.90765 L695.88184,393.0473 Q727.6985,402.902,729.54425,411.86728 L732.0053,423.82092 Q733.85114,432.7862,732.59076,437.07138 L730.9103,442.78497 Q729.64996,447.07016,709.1275,463.37567 L681.7643,485.11633 Q661.2418,501.4218,639.9012,481.74408 L611.44696,455.50705 Q590.10626,435.8293,599.56726,416.0964 L612.1819,389.78586 Q621.6429,370.05295,653.4596,379.90765 z" fill="url(#gradient_face31)" stroke="none" stroke-width="0"/>
<path d="M124,491 L230,494 L250,575 L145,621 L136,617 L107,575 z" fill="none" stroke="none" stroke-width="0"/>
<linearGradient id="gradient_face32" x1="0" x2="1.01" y1="0" y2="1.01">
<stop offset="0%" stop-color="#F7F7F7FF"/>
<stop offset="100%" stop-color="#FCDECCFF"/>
</linearGradient>
<path d="M157.46324,496.94907 L196.65988,498.0584 Q226.05734,498.8904,231.48103,520.8563 L238.7126,550.14417 Q244.13628,572.1101,214.39975,585.1375 L174.75105,602.50745 Q145.01453,615.53485,143.30484,614.775 L141.02525,613.76184 Q139.31557,613.002,131.21759,601.27386 L120.42029,585.6364 Q112.3223,573.9083,117.04534,550.5709 L123.34273,519.45447 Q128.06577,496.11707,157.46324,496.94907 z" fill="url(#gradient_face32)" stroke="none" stroke-width="0"/>
<path d="M448,64 L501,66 L517,76 L554,145 L472,213 L403,160 z" fill="none" stroke="none" stroke-width="0"/>
<linearGradient id="gradient_face33" x1="0" x2="1.01" y1="0" y2="1.01">
<stop offset="0%" stop-color="#FBE0D0FF"/>
<stop offset="100%" stop-color="#F5AC8BFF"/>
</linearGradient>
<path d="M465.62897,69.6688 L484.97238,70.39874 Q499.47995,70.9462,503.6026,73.52286 L509.09946,76.9584 Q513.2221,79.53506,523.554,98.80269 L537.3299,124.49286 Q547.6618,143.7605,524.9274,162.61339 L494.61496,187.7506 Q471.88055,206.6035,453.08633,192.16736 L428.02737,172.91916 Q409.23315,158.48302,421.79962,131.67451 L438.55493,95.92985 Q451.12143,69.121346,465.62897,69.6688 z" fill="url(#gradient_face33)" stroke="none" stroke-width="0"/>
<path d="M468,596 L558,592 L584,687 L566,710 L516,728 L451,702 z" fill="none" stroke="none" stroke-width="0"/>
<linearGradient id="gradient_face34" x1="0" x2="1.01" y1="0" y2="1.01">
<stop offset="0%" stop-color="#F7BA9DFF"/>
<stop offset="100%" stop-color="#DA6A55FF"/>
</linearGradient>
<path d="M496.87378,599.7217 L529.6498,598.26495 Q554.23175,597.1724,561.5165,623.78973 L571.22943,659.2795 Q578.5142,685.8968,573.8451,691.86285 L567.6197,699.8176 Q562.95056,705.7836,548.89343,710.84424 L530.1506,717.5917 Q516.09344,722.6522,498.23648,715.50946 L474.4272,705.9857 Q456.57022,698.8429,461.28668,669.4343 L467.57532,630.22284 Q472.2918,600.8142,496.87378,599.7217 z" fill="url(#gradient_face34)" stroke="none" stroke-width="0"/>
<path d="M101,218 L159,199 L216,291 L147,353 L66,299 L85,231 z" fill="none" stroke="none" stroke-width="0"/>
<linearGradient id="gradient_face35" x1="0" x2="1.01" y1="0" y2="1.01">
<stop offset="0%" stop-color="#E8896CFF"/>
<stop offset="100%" stop-color="#B82431FF"/>
</linearGradient>
<path d="M119.4508,217.21722 L140.80481,210.22194 Q156.82031,204.97548,172.6381,230.50595 L193.72849,264.54657 Q209.54628,290.07703,190.6458,307.0601 L165.44514,329.70413 Q146.54465,346.6872,124.118774,331.7366 L94.2176,311.8025 Q71.79172,296.8519,77.07045,277.95956 L84.108765,252.76982 Q89.3875,233.8775,93.60184,230.45335 L99.220955,225.88783 Q103.43529,222.46368,119.4508,217.21722 z" fill="url(#gradient_face35)" stroke="none" stroke-width="0"/>
<path d="M631,268 L716,258 L747,295 L751,365 L732,399 L619,364 L618,360 z" fill="none" stroke="none" stroke-width="0"/>
<linearGradient id="gradient_face36" x1="0" x2="1.01" y1="0" y2="1.01">
<stop offset="0%" stop-color="#2166ACFF"/>
<stop offset="100%" stop-color="#2166ACFF"/>
</linearGradient>
<path d="M658.9587,269.74524 L690.3548,266.05157 Q713.9019,263.2813,722.3621,273.37903 L733.64246,286.84265 Q742.1027,296.94037,743.24945,317.00778 L744.7784,343.76434 Q745.9251,363.83176,741.0308,372.58994 L734.5051,384.2675 Q729.61084,393.02567,697.67804,383.13495 L655.1009,369.94736 Q623.168,360.05664,623.1438,359.95975 L623.1115,359.83057 Q623.0873,359.73367,626.7846,333.5682 L631.7143,298.68094 Q635.4116,272.51547,658.9587,269.74524 z" fill="url(#gradient_face36)" stroke="none" stroke-width="0"/>
<path d="M250,575 L258,579 L305,658 L253,716 L230,718 L169,682 L145,621 z" fill="none" stroke="none" stroke-width="0"/>
<linearGradient id="gradient_face37" x1="0" x2="1.01" y1="0" y2="1.01">
<stop offset="0%" stop-color="#3C8ABEFF"/>
<stop offset="100%" stop-color="#4292C2FF"/>
</linearGradient>
<path d="M251.23773,581.20905 L253.07478,582.12756 Q254.45259,582.81647,267.76404,605.19104 L285.51263,635.0238 Q298.8241,657.3984,284.356,673.5359 L265.06516,695.05255 Q250.59705,711.19006,244.76659,711.6971 L236.99265,712.37305 Q231.16217,712.88007,213.7204,702.58655 L190.4647,688.8619 Q173.02293,678.56836,166.54057,662.0924 L157.89742,640.1244 Q151.41505,623.6484,180.94852,610.7099 L220.32646,593.4586 Q249.85992,580.52014,251.23773,581.20905 z" fill="url(#gradient_face37)" stroke="none" stroke-width="0"/>
<path d="M364,30 L435,49 L448,64 L403,160 L389,164 L303,134 L304,60 z" fill="none" stroke="none" stroke-width="0"/>
<linearGradient id="gradient_face38" x1="0" x2="1.01" y1="0" y2="1.01">
<stop offset="0%" stop-color="#72B1D3FF"/>
<stop offset="100%" stop-color="#8EC2DCFF"/>
</linearGradient>
<path d="M384.84555,40.754322 L411.92007,47.99962 Q432.22595,53.43359,435.1863,56.849373 L439.13342,61.403748 Q442.09378,64.819534,429.29718,92.11892 L412.23508,128.51811 Q399.43848,155.81749,396.35205,156.69934 L392.2368,157.87512 Q389.15036,158.75696,364.8197,150.26953 L332.37888,138.95296 Q308.04822,130.46552,308.3213,110.259155 L308.68536,83.31733 Q308.9584,63.110962,325.63278,54.773777 L347.86526,43.65753 Q364.53964,35.320347,384.84555,40.754322 z" fill="url(#gradient_face38)" stroke="none" stroke-width="0"/>
<path d="M568,577 L654,545 L692,592 L688,636 L634,685 L584,687 L558,592 z" fill="none" stroke="none" stroke-width="0"/>
<linearGradient id="gradient_face39" x1="0" x2="1.01" y1="0" y2="1.01">
<stop offset="0%" stop-color="#ABD1E5FF"/>
<stop offset="100%" stop-color="#CCE2EEFF"/>
</linearGradient>
<path d="M595.59515,572.06696 L628.0396,559.99457 Q652.373,550.9403,662.7122,563.7283 L676.49774,580.7788 Q686.837,593.5668,685.74493,605.57874 L684.28894,621.5947 Q683.19696,633.6067,667.83344,647.54767 L647.34875,666.1356 Q631.9852,680.0766,618.72156,680.6071 L601.0367,681.3145 Q587.7731,681.8451,580.4684,655.15485 L570.72876,619.56793 Q563.4241,592.87775,565.7754,589.35077 L568.91046,584.6482 Q571.2618,581.1212,595.59515,572.06696 z" fill="url(#gradient_face39)" stroke="none" stroke-width="0"/>
<path d="M66,299 L147,353 L149,375 L104,454 L48,445 L37,436 L21,363 z" fill="none" stroke="none" stroke-width="0"/>
<linearGradient id="gradient_face40" x1="0" x2="1.01" y1="0" y2="1.01">
<stop offset="0%" stop-color="#D8E8F1FF"/>
<stop offset="100%" stop-color="#F3F5F6FF"/>
</linearGradient>
<path d="M89.77044,320.8562 L119.751335,340.84348 Q142.23701,355.83392,142.72943,361.25055 L143.38599,368.4727 Q143.8784,373.88928,131.1262,396.2765 L114.12325,426.12613 Q101.37105,448.51334,85.99679,446.04248 L65.49777,442.748 Q50.123516,440.27713,47.54001,438.16333 L44.095333,435.34497 Q41.511826,433.2312,36.964718,412.48502 L30.901909,384.82346 Q26.354801,364.07727,38.63379,346.6138 L55.005775,323.32922 Q67.28477,305.86575,89.77044,320.8562 z" fill="url(#gradient_face40)" stroke="none" stroke-width="0"/>
<path d="M597,160 L635,137 L698,156 L726,226 L716,258 L631,268 L612,250 z" fill="none" stroke="none" stroke-width="0"/>
<linearGradient id="gradient_face41" x1="0" x2="1.01" y1="0" y2="1.01">
<stop offset="0%" stop-color="#F7F7F7FF"/>
<stop offset="100%" stop-color="#FCDECCFF"/>
</linearGradient>
<path d="M612.4483,156.49423 L625.727,148.45715 Q635.686,142.42932,653.2557,147.72812 L676.68195,154.79318 Q694.25165,160.09198,702.1853,179.92616 L712.76355,206.37173 Q720.6972,226.2059,718.14655,234.36809 L714.7456,245.25099 Q712.19495,253.41318,688.3584,256.21747 L656.5764,259.95654 Q632.73987,262.76083,627.9148,258.18967 L621.4813,252.09482 Q616.65625,247.52368,612.4062,222.0232 L606.7394,188.02254 Q602.4893,162.52206,612.4483,156.49423 z" fill="url(#gradient_face41)" stroke="none" stroke-width="0"/>
<path d="M305,658 L335,659 L405,719 L395,747 L363,776 L288,771 L253,716 z" fill="none" stroke="none" stroke-width="0"/>
<linearGradient id="gradient_face42" x1="0" x2="1.01" y1="0" y2="1.01">
<stop offset="0%" stop-color="#FBE0D0FF"/>
<stop offset="100%" stop-color="#F5AC8BFF"/>
</linearGradient>
<path d="M314.9394,663.3341 L325.30484,663.6796 Q333.07892,663.9387,352.89554,680.92444 L379.31772,703.572 Q399.13437,720.5577,396.608,727.6316 L393.23947,737.06335 Q390.7131,744.13727,381.86368,752.15704 L370.06442,762.8501 Q361.215,770.8699,340.1082,769.46277 L311.96576,767.5866 Q290.85895,766.1795,281.37747,751.28 L268.73547,731.414 Q259.25397,716.5145,273.62738,700.48267 L292.79193,679.1068 Q307.16534,663.07495,314.9394,663.3341 z" fill="url(#gradient_face42)" stroke="none" stroke-width="0"/>
<path d="M294,52 L304,60 L303,134 L276,154 L185,153 L174,127 L173,124 L213,50 z" fill="none" stroke="none" stroke-width="0"/>
<linearGradient id="gradient_face43" x1="0" x2="1.01" y1="0" y2="1.01">
<stop offset="0%" stop-color="#F7BA9DFF"/>
<stop offset="100%" stop-color="#DA6A55FF"/>
</linearGradient>
<path d="M294.22476,58.58294 L296.93484,60.751007 Q298.9674,62.37706,298.68738,83.100815 L298.31396,110.73249 Q298.0339,131.45625,290.93607,136.71393 L281.47223,143.72415 Q274.3744,148.98183,248.56078,148.69817 L214.14264,148.31995 Q188.32904,148.03629,185.43472,141.19518 L181.57564,132.07372 Q178.68134,125.23261,178.60536,125.00469 L178.50406,124.70081 Q178.4281,124.47289,189.68195,103.65327 L204.68709,75.89377 Q215.94093,55.07414,238.81631,55.638966 L269.31683,56.392063 Q292.1922,56.956886,294.22476,58.58294 z" fill="url(#gradient_face43)" stroke="none" stroke-width="0"/>
<path d="M661,508 L734,450 L776,514 L744,584 L692,592 L654,545 z" fill="none" stroke="none" stroke-width="0"/>
<linearGradient id="gradient_face44" x1="0" x2="1.01" y1="0" y2="1.01">
<stop offset="0%" stop-color="#E8896CFF"/>
<stop offset="100%" stop-color="#B82431FF"/>
</linearGradient>
<path d="M685.744,494.7264 L712.64667,473.3517 Q732.82367,457.32068,744.0678,474.45456 L759.05994,497.29977 Q770.3041,514.43365,761.3851,533.94403 L749.493,559.9579 Q740.574,579.46826,726.62604,581.6141 L708.0288,584.4752 Q694.0809,586.62103,683.6595,573.73145 L669.76434,556.5454 Q659.343,543.6558,661.2102,533.7863 L663.6998,520.62695 Q665.567,510.75745,685.744,494.7264 z" fill="url(#gradient_face44)" stroke="none" stroke-width="0"/>
<path d="M48,445 L104,454 L124,491 L107,575 L73,575 L9,519 z" fill="none" stroke="none" stroke-width="0"/>
<linearGradient id="gradient_face45" x1="0" x2="1.01" y1="0" y2="1.01">
<stop offset="0%" stop-color="#2166ACFF"/>
<stop offset="100%" stop-color="#2166ACFF"/>
</linearGradient>
<path d="M65.75702,452.91797 L85.76636,456.13376 Q100.77336,458.5456,106.16335,468.51706 L113.350006,481.81238 Q118.74,491.78387,113.99116,515.2487 L107.65938,546.53516 Q102.91054,570,94.50098,570 L83.28823,570 Q74.87868,570,56.994427,554.35126 L33.148758,533.4863 Q15.26451,517.8376,25.910162,497.63815 L40.104366,470.70557 Q50.75002,450.50613,65.75702,452.91797 z" fill="url(#gradient_face45)" stroke="none" stroke-width="0"/>
<path d="M517,76 L594,37 L643,104 L635,137 L597,160 L554,145 z" fill="none" stroke="none" stroke-width="0"/>
<linearGradient id="gradient_face46" x1="0" x2="1.01" y1="0" y2="1.01">
<stop offset="0%" stop-color="#3C8ABEFF"/>
<stop offset="100%" stop-color="#4292C2FF"/>
</linearGradient>
<path d="M544.41895,67.71725 L571.8772,53.80981 Q592.47095,43.37923,606.0078,61.88884 L624.057,86.56832 Q637.5939,105.07793,635.505,113.69452 L632.71985,125.1833 Q630.631,133.79988,620.369,140.01105 L606.68646,148.2926 Q596.42456,154.50377,584.743,150.4288 L569.16754,144.99551 Q557.48596,140.92055,547.38776,122.08873 L533.92346,96.979645 Q523.82526,78.14783,544.41895,67.71725 z" fill="url(#gradient_face46)" stroke="none" stroke-width="0"/>
<path d="M464,800 L431,800 L395,747 L405,719 L451,702 L516,728 L512,770 z" fill="none" stroke="none" stroke-width="0"/>
<linearGradient id="gradient_face47" x1="0" x2="1.01" y1="0" y2="1.01">
<stop offset="0%" stop-color="#72B1D3FF"/>
<stop offset="100%" stop-color="#8EC2DCFF"/>
</linearGradient>
<path d="M453.89066,795 L442.32352,795 Q433.64813,795,423.72247,780.3872 L410.48828,760.9035 Q400.56262,746.2908,403.07083,739.2677 L406.41516,729.9036 Q408.9234,722.88055,421.5251,718.22345 L438.3273,712.0139 Q450.929,707.35675,468.8506,714.5254 L492.74603,724.08356 Q510.66763,731.2522,509.64432,741.9971 L508.2799,756.32355 Q507.25656,767.0684,493.8494,775.4479 L475.97318,786.62054 Q462.566,795,453.89066,795 z" fill="url(#gradient_face47)" stroke="none" stroke-width="0"/>
<path d="M174,127 L185,153 L159,199 L101,218 L63,123 z" fill="none" stroke="none" stroke-width="0"/>
<linearGradient id="gradient_face48" x1="0" x2="1.01" y1="0" y2="1.01">
<stop offset="0%" stop-color="#ABD1E5FF"/>
<stop offset="100%" stop-color="#CCE2EEFF"/>
</linearGradient>
<path d="M173.27638,138.12201 L176.79637,146.44197 Q179.43636,152.68195,172.2858,165.33295 L162.7517,182.20097 Q155.60112,194.85197,140.09094,199.9329 L119.4107,206.70746 Q103.90052,211.78839,93.87871,186.73387 L80.5163,153.32784 Q70.49449,128.27332,100.53706,129.35593 L140.59383,130.79942 Q170.6364,131.88203,173.27638,138.12201 z" fill="url(#gradient_face48)" stroke="none" stroke-width="0"/>
<path d="M800,361 L800,439 L739,433 L732,399 L751,365 z" fill="none" stroke="none" stroke-width="0"/>
<linearGradient id="gradient_face49" x1="0" x2="1.01" y1="0" y2="1.01">
<stop offset="0%" stop-color="#260F03FF"/>
<stop offset="100%" stop-color="#260F03FF"/>
</linearGradient>
<path d="M795,386.54257 L795,413.36627 Q795,433.48407,779.4464,431.9542 L758.70825,429.9144 Q743.1546,428.38452,741.39,419.81354 L739.0372,408.38553 Q737.2726,399.81454,742.31006,390.8001 L749.0267,378.7809 Q754.0641,369.7665,766.3449,368.76398 L782.71924,367.4273 Q795,366.4248,795,386.54257 z" fill="url(#gradient_face49)" stroke="none" stroke-width="0"/>
<path d="M800,439 L800,521 L776,514 L734,450 L739,433 z" fill="none" stroke="none" stroke-width="0"/>
<linearGradient id="gradient_face50" x1="0" x2="1.01" y1="0" y2="1.01">
<stop offset="0%" stop-color="#260F03FF"/>
<stop offset="100%" stop-color="#260F03FF"/>
</linearGradient>
<path d="M795,464.7726 L795,493.09302 Q795,514.3333,790.25073,512.9481 L783.9184,511.1012 Q779.1691,509.716,767.2533,491.55853 L751.36554,467.34857 Q739.4497,449.1911,740.4035,445.94812 L741.6753,441.62408 Q742.6291,438.3811,758.3404,439.92645 L779.28876,441.98697 Q795,443.53232,795,464.7726 z" fill="url(#gradient_face50)" stroke="none" stroke-width="0"/>
<path d="M800,521 L800,614 L744,584 L776,514 z" fill="none" stroke="none" stroke-width="0"/>
<linearGradient id="gradient_face51" x1="0" x2="1.01" y1="0" y2="1.01">
<stop offset="0%" stop-color="#260F03FF"/>
<stop offset="100%" stop-color="#260F03FF"/>
</linearGradient>
<path d="M795,549.0198 L795,581.3794 Q795,605.6492,781.6497,598.4972 L763.84937,588.9613 Q750.4991,581.8094,758.97437,563.2697 L770.2748,538.5501 Q778.75006,520.01044,783.62506,521.4323 L790.125,523.3281 Q795,524.75,795,549.0198 z" fill="url(#gradient_face51)" stroke="none" stroke-width="0"/>
<path d="M800,614 L800,728 L688,636 L692,592 L744,584 z" fill="none" stroke="none" stroke-width="0"/>
<linearGradient id="gradient_face52" x1="0" x2="1.01" y1="0" y2="1.01">
<stop offset="0%" stop-color="#260F03FF"/>
<stop offset="100%" stop-color="#260F03FF"/>
</linearGradient>
<path d="M795,647.12225 L795,687.2937 Q795,717.42224,764.46576,692.3405 L723.75336,658.89825 Q693.2191,633.8165,694.241,622.57574 L695.6035,607.588 Q696.6254,596.3472,710.5709,594.2018 L729.16486,591.3411 Q743.11035,589.1957,758.67725,597.5351 L779.4331,608.6543 Q795,616.9937,795,647.12225 z" fill="url(#gradient_face52)" stroke="none" stroke-width="0"/>
<path d="M800,800 L728,800 L634,685 L688,636 L800,728 z" fill="none" stroke="none" stroke-width="0"/>
<linearGradient id="gradient_face53" x1="0" x2="1.01" y1="0" y2="1.01">
<stop offset="0%" stop-color="#260F03FF"/>
<stop offset="100%" stop-color="#260F03FF"/>
</linearGradient>
<path d="M775.61127,795 L749.7596,795 Q730.37085,795,703.52246,762.1536 L667.7247,718.3584 Q640.87634,685.512,655.0622,672.63965 L673.9767,655.4765 Q688.16254,642.6041,720.2138,668.93195 L762.9488,704.03564 Q795,730.36346,795,749.7544 L795,775.609 Q795,795,775.61127,795 z" fill="url(#gradient_face53)" stroke="none" stroke-width="0"/>
<path d="M728,800 L614,800 L566,710 L584,687 L634,685 z" fill="none" stroke="none" stroke-width="0"/>
<linearGradient id="gradient_face54" x1="0" x2="1.01" y1="0" y2="1.01">
<stop offset="0%" stop-color="#260F03FF"/>
<stop offset="100%" stop-color="#260F03FF"/>
</linearGradient>
<path d="M687.31866,795 L647.1366,795 Q617,795,603.483,769.6556 L585.46027,735.86304 Q571.9433,710.5186,576.3138,704.9341 L582.1411,697.48804 Q586.5116,691.9035,600.0704,691.3612 L618.1487,690.63806 Q631.7074,690.0957,657.43176,721.567 L691.7309,763.5287 Q717.45526,795,687.31866,795 z" fill="url(#gradient_face54)" stroke="none" stroke-width="0"/>
<path d="M614,800 L521,800 L512,770 L516,728 L566,710 z" fill="none" stroke="none" stroke-width="0"/>
<linearGradient id="gradient_face55" x1="0" x2="1.01" y1="0" y2="1.01">
<stop offset="0%" stop-color="#260F03FF"/>
<stop offset="100%" stop-color="#260F03FF"/>
</linearGradient>
<path d="M581.3827,795 L549.0041,795 Q524.72015,795,522.4252,787.3501 L519.3652,777.15015 Q517.07025,769.50024,518.1522,758.1393 L519.59485,742.9914 Q520.6769,731.63043,533.5609,726.9922 L550.7397,720.80786 Q563.6238,716.16956,576.23663,739.8187 L593.0538,771.3509 Q605.6667,795,581.3827,795 z" fill="url(#gradient_face55)" stroke="none" stroke-width="0"/>
<path d="M521,800 L464,800 L512,770 z" fill="none" stroke="none" stroke-width="0"/>
<linearGradient id="gradient_face56" x1="0" x2="1.01" y1="0" y2="1.01">
<stop offset="0%" stop-color="#260F03FF"/>
<stop offset="100%" stop-color="#260F03FF"/>
</linearGradient>
<path d="M504.4261,795 L491.28775,795 Q481.434,795,489.73187,789.8138 L500.79575,782.89886 Q509.09366,777.7127,510.6495,782.89886 L512.724,789.8138 Q514.27985,795,504.4261,795 z" fill="url(#gradient_face56)" stroke="none" stroke-width="0"/>
<path d="M431,800 L361,800 L363,776 L395,747 z" fill="none" stroke="none" stroke-width="0"/>
<linearGradient id="gradient_face57" x1="0" x2="1.01" y1="0" y2="1.01">
<stop offset="0%" stop-color="#260F03FF"/>
<stop offset="100%" stop-color="#260F03FF"/>
</linearGradient>
<path d="M405.0218,795 L382.97162,795 Q366.434,795,366.8495,790.01416 L367.40347,783.3664 Q367.81894,778.38055,375.70197,771.2366 L386.21268,761.7113 Q394.09567,754.5673,402.3348,766.6971 L413.32028,782.8702 Q421.55942,795,405.0218,795 z" fill="url(#gradient_face57)" stroke="none" stroke-width="0"/>
<path d="M361,800 L279,800 L288,771 L363,776 z" fill="none" stroke="none" stroke-width="0"/>
<linearGradient id="gradient_face58" x1="0" x2="1.01" y1="0" y2="1.01">
<stop offset="0%" stop-color="#260F03FF"/>
<stop offset="100%" stop-color="#260F03FF"/>
</linearGradient>
<path d="M335.21564,795 L306.97067,795 Q285.787,795,287.53253,789.3754 L289.85992,781.87604 Q291.6055,776.25146,311.40237,777.5712 L337.79822,779.331 Q357.5951,780.65076,357.23636,784.95557 L356.75806,790.69525 Q356.39932,795,335.21564,795 z" fill="url(#gradient_face58)" stroke="none" stroke-width="0"/>
<path d="M279,800 L186,800 L230,718 L253,716 L288,771 z" fill="none" stroke="none" stroke-width="0"/>
<linearGradient id="gradient_face59" x1="0" x2="1.01" y1="0" y2="1.01">
<stop offset="0%" stop-color="#260F03FF"/>
<stop offset="100%" stop-color="#260F03FF"/>
</linearGradient>
<path d="M251.02872,795 L218.64502,795 Q194.35727,795,205.98825,773.3241 L221.49622,744.42285 Q233.1272,722.74695,238.31221,722.2961 L245.22556,721.6949 Q250.41057,721.244,260.04883,736.3899 L272.89987,756.58435 Q282.53815,771.7302,280.37164,778.7111 L277.48297,788.01904 Q275.31647,795,251.02872,795 z" fill="url(#gradient_face59)" stroke="none" stroke-width="0"/>
<path d="M186,800 L72,800 L169,682 L230,718 z" fill="none" stroke="none" stroke-width="0"/>
<linearGradient id="gradient_face60" x1="0" x2="1.01" y1="0" y2="1.01">
<stop offset="0%" stop-color="#260F03FF"/>
<stop offset="100%" stop-color="#260F03FF"/>
</linearGradient>
<path d="M152.88081,795 L112.71046,795 Q82.58269,795,108.85127,763.0444 L143.87605,720.43695 Q170.14464,688.4813,186.09856,697.8967 L207.37044,710.4506 Q223.32436,719.8661,211.22963,742.40625 L195.10332,772.45984 Q183.00859,795,152.88081,795 z" fill="url(#gradient_face60)" stroke="none" stroke-width="0"/>
<path d="M0,800 L0,728 L136,617 L145,621 L169,682 L72,800 z" fill="none" stroke="none" stroke-width="0"/>
<linearGradient id="gradient_face61" x1="0" x2="1.01" y1="0" y2="1.01">
<stop offset="0%" stop-color="#260F03FF"/>
<stop offset="100%" stop-color="#260F03FF"/>
</linearGradient>
<path d="M5,775.61194 L5,749.76117 Q5,730.3731,44.533783,698.1065 L97.24549,655.0845 Q136.77928,622.81793,138.07466,623.3937 L139.80185,624.1613 Q141.09723,624.737,147.74937,641.64453 L156.6189,664.1879 Q163.27104,681.09546,135.18103,715.26685 L97.72767,760.8286 Q69.63765,795,50.246357,795 L24.391294,795 Q5,795,5,775.61194 z" fill="url(#gradient_face61)" stroke="none" stroke-width="0"/>
<path d="M0,728 L0,614 L73,575 L107,575 L136,617 z" fill="none" stroke="none" stroke-width="0"/>
<linearGradient id="gradient_face62" x1="0" x2="1.01" y1="0" y2="1.01">
<stop offset="0%" stop-color="#260F03FF"/>
<stop offset="100%" stop-color="#260F03FF"/>
</linearGradient>
<path d="M5,687.3249 L5,647.1379 Q5,616.99756,25.775566,605.8983 L53.476322,591.0993 Q74.251884,580,83.28921,580 L95.33897,580 Q104.37629,580,111.84254,590.8132 L121.79754,605.2308 Q129.2638,616.04395,91.98466,646.47034 L42.279137,687.0388 Q5,717.46515,5,687.3249 z" fill="url(#gradient_face62)" stroke="none" stroke-width="0"/>
<path d="M0,614 L0,521 L9,519 L73,575 z" fill="none" stroke="none" stroke-width="0"/>
<linearGradient id="gradient_face63" x1="0" x2="1.01" y1="0" y2="1.01">
<stop offset="0%" stop-color="#260F03FF"/>
<stop offset="100%" stop-color="#260F03FF"/>
</linearGradient>
<path d="M5,581.4652 L5,549.20557 Q5,525.01086,5.783893,524.8367 L6.8290844,524.6044 Q7.6129775,524.4302,24.60797,539.30084 L47.26796,559.1283 Q64.26295,573.9989,46.484066,583.49725 L22.778885,596.1616 Q5,605.66,5,581.4652 z" fill="url(#gradient_face63)" stroke="none" stroke-width="0"/>
<path d="M0,521 L0,439 L37,436 L48,445 L9,519 z" fill="none" stroke="none" stroke-width="0"/>
<linearGradient id="gradient_face64" x1="0" x2="1.01" y1="0" y2="1.01">
<stop offset="0%" stop-color="#260F03FF"/>
<stop offset="100%" stop-color="#260F03FF"/>
</linearGradient>
<path d="M5,493.42014 L5,464.95776 Q5,443.611,14.118307,442.87167 L26.276049,441.88593 Q35.394356,441.1466,37.27765,442.68747 L39.78871,444.74197 Q41.672005,446.28287,30.867163,466.78436 L16.460707,494.1197 Q5.655864,514.62115,5.4591045,514.6649 L5.196759,514.7232 Q5,514.7669,5,493.42014 z" fill="url(#gradient_face64)" stroke="none" stroke-width="0"/>
<path d="M0,439 L0,361 L21,363 L37,436 z" fill="none" stroke="none" stroke-width="0"/>
<linearGradient id="gradient_face65" x1="0" x2="1.01" y1="0" y2="1.01">
<stop offset="0%" stop-color="#260F03FF"/>
<stop offset="100%" stop-color="#260F03FF"/>
</linearGradient>
<path d="M5,413.45438 L5,386.62262 Q5,366.4988,8.568951,366.8387 L13.327553,367.2919 Q16.896503,367.6318,21.094673,386.78595 L26.69223,412.32483 Q30.8904,431.47897,23.12328,432.10873 L12.767119,432.94843 Q5,433.5782,5,413.45438 z" fill="url(#gradient_face65)" stroke="none" stroke-width="0"/>
<path d="M0,361 L0,279 L66,299 L21,363 z" fill="none" stroke="none" stroke-width="0"/>
<linearGradient id="gradient_face66" x1="0" x2="1.01" y1="0" y2="1.01">
<stop offset="0%" stop-color="#260F03FF"/>
<stop offset="100%" stop-color="#260F03FF"/>
</linearGradient>
<path d="M5,335.2394 L5,306.95386 Q5,285.7397,20.87992,290.5518 L42.053143,296.9679 Q57.93306,301.78,46.127518,318.5701 L30.386793,340.9569 Q18.581251,357.747,14.506876,357.35898 L9.074375,356.8416 Q5,356.45355,5,335.2394 z" fill="url(#gradient_face66)" stroke="none" stroke-width="0"/>
<path d="M0,279 L0,186 L85,231 L66,299 z" fill="none" stroke="none" stroke-width="0"/>
<linearGradient id="gradient_face67" x1="0" x2="1.01" y1="0" y2="1.01">
<stop offset="0%" stop-color="#260F03FF"/>
<stop offset="100%" stop-color="#260F03FF"/>
</linearGradient>
<path d="M5,250.9948 L5,218.60036 Q5,194.30452,27.230125,206.07341 L56.870293,221.76527 Q79.10042,233.53416,74.13817,251.2938 L67.521835,274.9733 Q62.559586,292.7329,45.29171,287.50024 L22.267876,280.52332 Q5,275.29062,5,250.9948 z" fill="url(#gradient_face67)" stroke="none" stroke-width="0"/>
<path d="M0,186 L0,72 L63,123 L101,218 L85,231 z" fill="none" stroke="none" stroke-width="0"/>
<linearGradient id="gradient_face68" x1="0" x2="1.01" y1="0" y2="1.01">
<stop offset="0%" stop-color="#260F03FF"/>
<stop offset="100%" stop-color="#260F03FF"/>
</linearGradient>
<path d="M5,152.8369 L5,112.63329 Q5,82.4806,21.152435,95.55638 L42.689014,112.99075 Q58.84145,126.066536,69.68627,153.17859 L84.14604,189.328 Q94.99086,216.44006,91.81813,219.01791 L87.58783,222.45503 Q84.4151,225.03288,60.59057,212.41989 L28.82453,195.60258 Q5,182.9896,5,152.8369 z" fill="url(#gradient_face68)" stroke="none" stroke-width="0"/>
<path d="M0,0 L72,0 L173,124 L174,127 L63,123 L0,72 z" fill="none" stroke="none" stroke-width="0"/>
<linearGradient id="gradient_face69" x1="0" x2="1.01" y1="0" y2="1.01">
<stop offset="0%" stop-color="#260F03FF"/>
<stop offset="100%" stop-color="#260F03FF"/>
</linearGradient>
<path d="M24.38716,5 L50.236706,5 Q69.62386,5,99.30043,41.434597 L138.86919,90.01406 Q168.54576,126.448654,168.07526,125.03716 L167.44794,123.15518 Q166.97743,121.74369,136.33873,120.639595 L95.48713,119.167465 Q64.84843,118.06336,46.893898,103.52875 L22.954527,84.149254 Q5,69.61464,5,50.230247 L5,24.384392 Q5,5,24.38716,5 z" fill="url(#gradient_face69)" stroke="none" stroke-width="0"/>
<path d="M72,0 L186,0 L213,50 L173,124 z" fill="none" stroke="none" stroke-width="0"/>
<linearGradient id="gradient_face70" x1="0" x2="1.01" y1="0" y2="1.01">
<stop offset="0%" stop-color="#260F03FF"/>
<stop offset="100%" stop-color="#260F03FF"/>
</linearGradient>
<path d="M112.67018,5 L152.86868,5 Q183.01758,5,190.30737,18.499643 L200.02711,36.49917 Q207.31693,49.99881,196.76865,69.51313 L182.70427,95.532234 Q172.15599,115.046555,145.26558,82.032585 L109.411705,38.013966 Q82.52129,5,112.67018,5 z" fill="url(#gradient_face70)" stroke="none" stroke-width="0"/>
<path d="M186,0 L279,0 L294,52 L213,50 z" fill="none" stroke="none" stroke-width="0"/>
<linearGradient id="gradient_face71" x1="0" x2="1.01" y1="0" y2="1.01">
<stop offset="0%" stop-color="#260F03FF"/>
<stop offset="100%" stop-color="#260F03FF"/>
</linearGradient>
<path d="M218.63924,5 L250.98163,5 Q275.23843,5,278.8586,17.549955 L283.68552,34.28323 Q287.3057,46.833183,265.92056,46.305157 L237.40704,45.60112 Q216.0219,45.07309,209.53006,33.051163 L200.87427,17.021927 Q194.38243,5,218.63924,5 z" fill="url(#gradient_face71)" stroke="none" stroke-width="0"/>
<path d="M279,0 L361,0 L364,30 L304,60 L294,52 z" fill="none" stroke="none" stroke-width="0"/>
<linearGradient id="gradient_face72" x1="0" x2="1.01" y1="0" y2="1.01">
<stop offset="0%" stop-color="#260F03FF"/>
<stop offset="100%" stop-color="#260F03FF"/>
</linearGradient>
<path d="M306.89484,5 L335.2264,5 Q356.47507,5,357.13712,11.620657 L358.01987,20.4482 Q358.68195,27.068855,342.46497,35.177345 L320.84232,45.988667 Q304.62534,54.097157,302.7469,52.5944 L300.2423,50.59072 Q298.36386,49.087963,294.54855,35.861572 L289.4615,18.226389 Q285.64618,5,306.89484,5 z" fill="url(#gradient_face72)" stroke="none" stroke-width="0"/>
<path d="M361,0 L439,0 L435,49 L364,30 z" fill="none" stroke="none" stroke-width="0"/>
<linearGradient id="gradient_face73" x1="0" x2="1.01" y1="0" y2="1.01">
<stop offset="0%" stop-color="#260F03FF"/>
<stop offset="100%" stop-color="#260F03FF"/>
</linearGradient>
<path d="M386.64,5 L413.4601,5 Q433.5752,5,432.65387,16.286282 L431.42545,31.334656 Q430.50412,42.620937,411.94226,37.653683 L387.1931,31.030676 Q368.6313,26.06342,367.9994,19.744394 L367.15683,11.319026 Q366.52493,5,386.64,5 z" fill="url(#gradient_face73)" stroke="none" stroke-width="0"/>
<path d="M439,0 L521,0 L501,66 L448,64 L435,49 z" fill="none" stroke="none" stroke-width="0"/>
<linearGradient id="gradient_face74" x1="0" x2="1.01" y1="0" y2="1.01">
<stop offset="0%" stop-color="#260F03FF"/>
<stop offset="100%" stop-color="#260F03FF"/>
</linearGradient>
<path d="M464.80402,5 L493.06476,5 Q514.2603,5,509.1823,21.757427 L502.41162,44.100662 Q497.33362,60.85809,483.2407,60.32628 L464.4501,59.6172 Q450.35715,59.085392,447.2963,55.553654 L443.21518,50.84467 Q440.15436,47.31293,441.19058,34.619053 L442.57224,17.69388 Q443.60846,5,464.80402,5 z" fill="url(#gradient_face74)" stroke="none" stroke-width="0"/>
<path d="M521,0 L614,0 L594,37 L517,76 L501,66 z" fill="none" stroke="none" stroke-width="0"/>
<linearGradient id="gradient_face75" x1="0" x2="1.01" y1="0" y2="1.01">
<stop offset="0%" stop-color="#260F03FF"/>
<stop offset="100%" stop-color="#260F03FF"/>
</linearGradient>
<path d="M548.98065,5 L581.34235,5 Q605.6136,5,601.0331,13.473894 L594.9258,24.772419 Q590.3453,33.246315,568.419,44.35185 L539.1839,59.15923 Q517.2576,70.26476,514.14874,68.32174 L510.00366,65.73105 Q506.89484,63.788025,512.2392,46.15162 L519.365,22.636408 Q524.70935,5,548.98065,5 z" fill="url(#gradient_face75)" stroke="none" stroke-width="0"/>
<path d="M614,0 L728,0 L643,104 L594,37 z" fill="none" stroke="none" stroke-width="0"/>
<linearGradient id="gradient_face76" x1="0" x2="1.01" y1="0" y2="1.01">
<stop offset="0%" stop-color="#260F03FF"/>
<stop offset="100%" stop-color="#260F03FF"/>
</linearGradient>
<path d="M647.1235,5 L687.3135,5 Q717.45593,5,695.18506,32.24909 L665.49054,68.58121 Q643.2196,95.8303,630.224,78.06074 L612.8964,54.36798 Q599.90076,36.59842,605.02484,27.118893 L611.85693,14.479526 Q616.981,5,647.1235,5 z" fill="url(#gradient_face76)" stroke="none" stroke-width="0"/>
<path d="M800,0 L800,72 L698,156 L635,137 L643,104 L728,0 z" fill="none" stroke="none" stroke-width="0"/>
<linearGradient id="gradient_face77" x1="0" x2="1.01" y1="0" y2="1.01">
<stop offset="0%" stop-color="#260F03FF"/>
<stop offset="100%" stop-color="#260F03FF"/>
</linearGradient>
<path d="M795,24.392113 L795,50.248264 Q795,69.64038,765.5654,93.88062 L726.3193,126.20096 Q696.8847,150.44121,680.1115,145.38263 L657.74725,138.63785 Q640.9741,133.57927,642.9592,125.39052 L645.60614,114.47219 Q647.59125,106.28344,672.4252,75.89841 L705.5371,35.385033 Q730.371,5,749.7597,5 L775.6113,5 Q795,5,795,24.392113 z" fill="url(#gradient_face77)" stroke="none" stroke-width="0"/>
<path d="M800,72 L800,186 L726,226 L698,156 z" fill="none" stroke="none" stroke-width="0"/>
<linearGradient id="gradient_face78" x1="0" x2="1.01" y1="0" y2="1.01">
<stop offset="0%" stop-color="#260F03FF"/>
<stop offset="100%" stop-color="#260F03FF"/>
</linearGradient>
<path d="M795,112.72214 L795,152.89177 Q795,183.01898,775.06757,193.79329 L748.49097,208.15901 Q728.5585,218.93332,721.19086,200.51422 L711.3673,175.95543 Q703.9997,157.53635,731.2998,135.05391 L767.6999,105.07735 Q795,82.59492,795,112.72214 z" fill="url(#gradient_face78)" stroke="none" stroke-width="0"/>
<path d="M800,186 L800,279 L747,295 L716,258 L726,226 z" fill="none" stroke="none" stroke-width="0"/>
<linearGradient id="gradient_face79" x1="0" x2="1.01" y1="0" y2="1.01">
<stop offset="0%" stop-color="#260F03FF"/>
<stop offset="100%" stop-color="#260F03FF"/>
</linearGradient>
<path d="M795,218.65646 L795,251.01653 Q795,275.28656,781.1141,279.47855 L762.59955,285.06784 Q748.7136,289.2598,740.57574,279.54688 L729.7253,266.59628 Q721.5874,256.88336,724.161,248.64789 L727.5924,237.66728 Q730.166,229.43181,749.6162,218.9182 L775.5498,204.90004 Q795,194.38641,795,218.65646 z" fill="url(#gradient_face79)" stroke="none" stroke-width="0"/>
<path d="M800,279 L800,361 L751,365 L747,295 z" fill="none" stroke="none" stroke-width="0"/>
<linearGradient id="gradient_face80" x1="0" x2="1.01" y1="0" y2="1.01">
<stop offset="0%" stop-color="#260F03FF"/>
<stop offset="100%" stop-color="#260F03FF"/>
</linearGradient>
<path d="M795,306.93008 L795,335.19376 Q795,356.39154,783.2099,357.354 L767.4897,358.63727 Q755.6996,359.59973,754.65466,341.3142 L753.2615,316.93356 Q752.2166,298.64804,765.05164,294.77332 L782.165,289.60703 Q795,285.7323,795,306.93008 z" fill="url(#gradient_face80)" stroke="none" stroke-width="0"/>
<circle cx="400" cy="400" fill="none" r="0" stroke="none" stroke-width="0"/>
<circle cx="394" cy="405" fill="none" r="0" stroke="none" stroke-width="0"/>
<circle cx="403" cy="384" fill="none" r="0" stroke="none" stroke-width="0"/>
<circle cx="413" cy="421" fill="none" r="0" stroke="none" stroke-width="0"/>
<circle cx="369" cy="390" fill="none" r="0" stroke="none" stroke-width="0"/>
<circle cx="438" cy="385" fill="none" r="0" stroke="none" stroke-width="0"/>
<circle cx="377" cy="443" fill="none" r="0" stroke="none" stroke-width="0"/>
<circle cx="387" cy="344" fill="none" r="0" stroke="none" stroke-width="0"/>
<circle cx="452" cy="439" fill="none" r="0" stroke="none" stroke-width="0"/>
<circle cx="327" cy="405" fill="none" r="0" stroke="none" stroke-width="0"/>
<circle cx="459" cy="343" fill="none" r="0" stroke="none" stroke-width="0"/>
<circle cx="391" cy="489" fill="none" r="0" stroke="none" stroke-width="0"/>
<circle cx="344" cy="320" fill="none" r="0" stroke="none" stroke-width="0"/>
<circle cx="503" cy="427" fill="none" r="0" stroke="none" stroke-width="0"/>
<circle cx="297" cy="450" fill="none" r="0" stroke="none" stroke-width="0"/>
<circle cx="450" cy="288" fill="none" r="0" stroke="none" stroke-width="0"/>
<circle cx="437" cy="525" fill="none" r="0" stroke="none" stroke-width="0"/>
<circle cx="284" cy="324" fill="none" r="0" stroke="none" stroke-width="0"/>
<circle cx="546" cy="381" fill="none" r="0" stroke="none" stroke-width="0"/>
<circle cx="296" cy="515" fill="none" r="0" stroke="none" stroke-width="0"/>
<circle cx="405" cy="237" fill="none" r="0" stroke="none" stroke-width="0"/>
<circle cx="507" cy="534" fill="none" r="0" stroke="none" stroke-width="0"/>
<circle cx="224" cy="366" fill="none" r="0" stroke="none" stroke-width="0"/>
<circle cx="564" cy="308" fill="none" r="0" stroke="none" stroke-width="0"/>
<circle cx="332" cy="584" fill="none" r="0" stroke="none" stroke-width="0"/>
<circle cx="330" cy="208" fill="none" r="0" stroke="none" stroke-width="0"/>
<circle cx="585" cy="504" fill="none" r="0" stroke="none" stroke-width="0"/>
<circle cx="184" cy="442" fill="none" r="0" stroke="none" stroke-width="0"/>
<circle cx="543" cy="221" fill="none" r="0" stroke="none" stroke-width="0"/>
<circle cx="408" cy="637" fill="none" r="0" stroke="none" stroke-width="0"/>
<circle cx="235" cy="219" fill="none" r="0" stroke="none" stroke-width="0"/>
<circle cx="651" cy="432" fill="none" r="0" stroke="none" stroke-width="0"/>
<circle cx="181" cy="543" fill="none" r="0" stroke="none" stroke-width="0"/>
<circle cx="477" cy="142" fill="none" r="0" stroke="none" stroke-width="0"/>
<circle cx="512" cy="654" fill="none" r="0" stroke="none" stroke-width="0"/>
<circle cx="143" cy="276" fill="none" r="0" stroke="none" stroke-width="0"/>
<circle cx="684" cy="325" fill="none" r="0" stroke="none" stroke-width="0"/>
<circle cx="227" cy="648" fill="none" r="0" stroke="none" stroke-width="0"/>
<circle cx="370" cy="91" fill="none" r="0" stroke="none" stroke-width="0"/>
<circle cx="629" cy="621" fill="none" r="0" stroke="none" stroke-width="0"/>
<circle cx="74" cy="379" fill="none" r="0" stroke="none" stroke-width="0"/>
<circle cx="668" cy="200" fill="none" r="0" stroke="none" stroke-width="0"/>
<circle cx="324" cy="734" fill="none" r="0" stroke="none" stroke-width="0"/>
<circle cx="238" cy="89" fill="none" r="0" stroke="none" stroke-width="0"/>
<circle cx="733" cy="535" fill="none" r="0" stroke="none" stroke-width="0"/>
<circle cx="51" cy="516" fill="none" r="0" stroke="none" stroke-width="0"/>
<circle cx="595" cy="79" fill="none" r="0" stroke="none" stroke-width="0"/>
<circle cx="461" cy="779" fill="none" r="0" stroke="none" stroke-width="0"/>
<circle cx="102" cy="146" fill="none" r="0" stroke="none" stroke-width="0"/>
<circle cx="820" cy="400" fill="none" r="0" stroke="none" stroke-width="0"/>
<circle cx="812" cy="482" fill="none" r="0" stroke="none" stroke-width="0"/>
<circle cx="788" cy="561" fill="none" r="0" stroke="none" stroke-width="0"/>
<circle cx="749" cy="633" fill="none" r="0" stroke="none" stroke-width="0"/>
<circle cx="697" cy="697" fill="none" r="0" stroke="none" stroke-width="0"/>
<circle cx="633" cy="749" fill="none" r="0" stroke="none" stroke-width="0"/>
<circle cx="561" cy="788" fill="none" r="0" stroke="none" stroke-width="0"/>
<circle cx="482" cy="812" fill="none" r="0" stroke="none" stroke-width="0"/>
<circle cx="400" cy="820" fill="none" r="0" stroke="none" stroke-width="0"/>
<circle cx="318" cy="812" fill="none" r="0" stroke="none" stroke-width="0"/>
<circle cx="239" cy="788" fill="none" r="0" stroke="none" stroke-width="0"/>
<circle cx="167" cy="749" fill="none" r="0" stroke="none" stroke-width="0"/>
<circle cx="103" cy="697" fill="none" r="0" stroke="none" stroke-width="0"/>
<circle cx="51" cy="633" fill="none" r="0" stroke="none" stroke-width="0"/>
<circle cx="12" cy="561" fill="none" r="0" stroke="none" stroke-width="0"/>
<circle cx="-12" cy="482" fill="none" r="0" stroke="none" stroke-width="0"/>
<circle cx="-20" cy="400" fill="none" r="0" stroke="none" stroke-width="0"/>
<circle cx="-12" cy="318" fill="none" r="0" stroke="none" stroke-width="0"/>
<circle cx="12" cy="239" fill="none" r="0" stroke="none" stroke-width="0"/>
<circle cx="51" cy="167" fill="none" r="0" stroke="none" stroke-width="0"/>
<circle cx="103" cy="103" fill="none" r="0" stroke="none" stroke-width="0"/>
<circle cx="167" cy="51" fill="none" r="0" stroke="none" stroke-width="0"/>
<circle cx="239" cy="12" fill="none" r="0" stroke="none" stroke-width="0"/>
<circle cx="318" cy="-12" fill="none" r="0" stroke="none" stroke-width="0"/>
<circle cx="400" cy="-20" fill="none" r="0" stroke="none" stroke-width="0"/>
<circle cx="482" cy="-12" fill="none" r="0" stroke="none" stroke-width="0"/>
<circle cx="561" cy="12" fill="none" r="0" stroke="none" stroke-width="0"/>
<circle cx="633" cy="51" fill="none" r="0" stroke="none" stroke-width="0"/>
<circle cx="697" cy="103" fill="none" r="0" stroke="none" stroke-width="0"/>
<circle cx="749" cy="167" fill="none" r="0" stroke="none" stroke-width="0"/>
<circle cx="788" cy="239" fill="none" r="0" stroke="none" stroke-width="0"/>
<circle cx="812" cy="318" fill="none" r="0" stroke="none" stroke-width="0"/>
<circle cx="288" cy="771" fill="none" r="0" stroke="none" stroke-width="0"/>
<circle cx="363" cy="776" fill="none" r="0" stroke="none" stroke-width="0"/>
<circle cx="512" cy="770" fill="none" r="0" stroke="none" stroke-width="0"/>
<circle cx="395" cy="747" fill="none" r="0" stroke="none" stroke-width="0"/>
<circle cx="516" cy="728" fill="none" r="0" stroke="none" stroke-width="0"/>
<circle cx="230" cy="718" fill="none" r="0" stroke="none" stroke-width="0"/>
<circle cx="253" cy="716" fill="none" r="0" stroke="none" stroke-width="0"/>
<circle cx="405" cy="719" fill="none" r="0" stroke="none" stroke-width="0"/>
<circle cx="566" cy="710" fill="none" r="0" stroke="none" stroke-width="0"/>
<circle cx="451" cy="702" fill="none" r="0" stroke="none" stroke-width="0"/>
<circle cx="634" cy="685" fill="none" r="0" stroke="none" stroke-width="0"/>
<circle cx="169" cy="682" fill="none" r="0" stroke="none" stroke-width="0"/>
<circle cx="584" cy="687" fill="none" r="0" stroke="none" stroke-width="0"/>
<circle cx="335" cy="659" fill="none" r="0" stroke="none" stroke-width="0"/>
<circle cx="305" cy="658" fill="none" r="0" stroke="none" stroke-width="0"/>
<circle cx="688" cy="636" fill="none" r="0" stroke="none" stroke-width="0"/>
<circle cx="145" cy="621" fill="none" r="0" stroke="none" stroke-width="0"/>
<circle cx="744" cy="584" fill="none" r="0" stroke="none" stroke-width="0"/>
<circle cx="136" cy="617" fill="none" r="0" stroke="none" stroke-width="0"/>
<circle cx="468" cy="596" fill="none" r="0" stroke="none" stroke-width="0"/>
<circle cx="692" cy="592" fill="none" r="0" stroke="none" stroke-width="0"/>
<circle cx="464" cy="592" fill="none" r="0" stroke="none" stroke-width="0"/>
<circle cx="558" cy="592" fill="none" r="0" stroke="none" stroke-width="0"/>
<circle cx="73" cy="575" fill="none" r="0" stroke="none" stroke-width="0"/>
<circle cx="396" cy="574" fill="none" r="0" stroke="none" stroke-width="0"/>
<circle cx="258" cy="579" fill="none" r="0" stroke="none" stroke-width="0"/>
<circle cx="568" cy="577" fill="none" r="0" stroke="none" stroke-width="0"/>
<circle cx="250" cy="575" fill="none" r="0" stroke="none" stroke-width="0"/>
<circle cx="107" cy="575" fill="none" r="0" stroke="none" stroke-width="0"/>
<circle cx="382" cy="549" fill="none" r="0" stroke="none" stroke-width="0"/>
<circle cx="9" cy="519" fill="none" r="0" stroke="none" stroke-width="0"/>
<circle cx="351" cy="530" fill="none" r="0" stroke="none" stroke-width="0"/>
<circle cx="776" cy="514" fill="none" r="0" stroke="none" stroke-width="0"/>
<circle cx="654" cy="545" fill="none" r="0" stroke="none" stroke-width="0"/>
<circle cx="435" cy="480" fill="none" r="0" stroke="none" stroke-width="0"/>
<circle cx="477" cy="488" fill="none" r="0" stroke="none" stroke-width="0"/>
<circle cx="661" cy="508" fill="none" r="0" stroke="none" stroke-width="0"/>
<circle cx="338" cy="483" fill="none" r="0" stroke="none" stroke-width="0"/>
<circle cx="340" cy="480" fill="none" r="0" stroke="none" stroke-width="0"/>
<circle cx="489" cy="481" fill="none" r="0" stroke="none" stroke-width="0"/>
<circle cx="230" cy="494" fill="none" r="0" stroke="none" stroke-width="0"/>
<circle cx="412" cy="458" fill="none" r="0" stroke="none" stroke-width="0"/>
<circle cx="419" cy="460" fill="none" r="0" stroke="none" stroke-width="0"/>
<circle cx="531" cy="479" fill="none" r="0" stroke="none" stroke-width="0"/>
<circle cx="238" cy="481" fill="none" r="0" stroke="none" stroke-width="0"/>
<circle cx="124" cy="491" fill="none" r="0" stroke="none" stroke-width="0"/>
<circle cx="392" cy="427" fill="none" r="0" stroke="none" stroke-width="0"/>
<circle cx="337" cy="444" fill="none" r="0" stroke="none" stroke-width="0"/>
<circle cx="405" cy="412" fill="none" r="0" stroke="none" stroke-width="0"/>
<circle cx="369" cy="417" fill="none" r="0" stroke="none" stroke-width="0"/>
<circle cx="356" cy="419" fill="none" r="0" stroke="none" stroke-width="0"/>
<circle cx="440" cy="413" fill="none" r="0" stroke="none" stroke-width="0"/>
<circle cx="422" cy="401" fill="none" r="0" stroke="none" stroke-width="0"/>
<circle cx="565" cy="443" fill="none" r="0" stroke="none" stroke-width="0"/>
<circle cx="420" cy="395" fill="none" r="0" stroke="none" stroke-width="0"/>
<circle cx="48" cy="445" fill="none" r="0" stroke="none" stroke-width="0"/>
<circle cx="104" cy="454" fill="none" r="0" stroke="none" stroke-width="0"/>
<circle cx="386" cy="390" fill="none" r="0" stroke="none" stroke-width="0"/>
<circle cx="386" cy="390" fill="none" r="0" stroke="none" stroke-width="0"/>
<circle cx="584" cy="437" fill="none" r="0" stroke="none" stroke-width="0"/>
<circle cx="37" cy="436" fill="none" r="0" stroke="none" stroke-width="0"/>
<circle cx="471" cy="405" fill="none" r="0" stroke="none" stroke-width="0"/>
<circle cx="734" cy="450" fill="none" r="0" stroke="none" stroke-width="0"/>
<circle cx="242" cy="424" fill="none" r="0" stroke="none" stroke-width="0"/>
<circle cx="739" cy="433" fill="none" r="0" stroke="none" stroke-width="0"/>
<circle cx="383" cy="369" fill="none" r="0" stroke="none" stroke-width="0"/>
<circle cx="270" cy="399" fill="none" r="0" stroke="none" stroke-width="0"/>
<circle cx="485" cy="383" fill="none" r="0" stroke="none" stroke-width="0"/>
<circle cx="496" cy="377" fill="none" r="0" stroke="none" stroke-width="0"/>
<circle cx="277" cy="379" fill="none" r="0" stroke="none" stroke-width="0"/>
<circle cx="421" cy="354" fill="none" r="0" stroke="none" stroke-width="0"/>
<circle cx="352" cy="356" fill="none" r="0" stroke="none" stroke-width="0"/>
<circle cx="335" cy="362" fill="none" r="0" stroke="none" stroke-width="0"/>
<circle cx="423" cy="351" fill="none" r="0" stroke="none" stroke-width="0"/>
<circle cx="732" cy="399" fill="none" r="0" stroke="none" stroke-width="0"/>
<circle cx="317" cy="358" fill="none" r="0" stroke="none" stroke-width="0"/>
<circle cx="21" cy="363" fill="none" r="0" stroke="none" stroke-width="0"/>
<circle cx="149" cy="375" fill="none" r="0" stroke="none" stroke-width="0"/>
<circle cx="619" cy="364" fill="none" r="0" stroke="none" stroke-width="0"/>
<circle cx="751" cy="365" fill="none" r="0" stroke="none" stroke-width="0"/>
<circle cx="618" cy="360" fill="none" r="0" stroke="none" stroke-width="0"/>
<circle cx="514" cy="335" fill="none" r="0" stroke="none" stroke-width="0"/>
<circle cx="423" cy="321" fill="none" r="0" stroke="none" stroke-width="0"/>
<circle cx="147" cy="353" fill="none" r="0" stroke="none" stroke-width="0"/>
<circle cx="505" cy="307" fill="none" r="0" stroke="none" stroke-width="0"/>
<circle cx="395" cy="290" fill="none" r="0" stroke="none" stroke-width="0"/>
<circle cx="390" cy="289" fill="none" r="0" stroke="none" stroke-width="0"/>
<circle cx="747" cy="295" fill="none" r="0" stroke="none" stroke-width="0"/>
<circle cx="66" cy="299" fill="none" r="0" stroke="none" stroke-width="0"/>
<circle cx="66" cy="299" fill="none" r="0" stroke="none" stroke-width="0"/>
<circle cx="217" cy="291" fill="none" r="0" stroke="none" stroke-width="0"/>
<circle cx="216" cy="291" fill="none" r="0" stroke="none" stroke-width="0"/>
<circle cx="511" cy="275" fill="none" r="0" stroke="none" stroke-width="0"/>
<circle cx="310" cy="268" fill="none" r="0" stroke="none" stroke-width="0"/>
<circle cx="353" cy="262" fill="none" r="0" stroke="none" stroke-width="0"/>
<circle cx="287" cy="259" fill="none" r="0" stroke="none" stroke-width="0"/>
<circle cx="631" cy="268" fill="none" r="0" stroke="none" stroke-width="0"/>
<circle cx="716" cy="258" fill="none" r="0" stroke="none" stroke-width="0"/>
<circle cx="612" cy="250" fill="none" r="0" stroke="none" stroke-width="0"/>
<circle cx="726" cy="226" fill="none" r="0" stroke="none" stroke-width="0"/>
<circle cx="85" cy="231" fill="none" r="0" stroke="none" stroke-width="0"/>
<circle cx="473" cy="223" fill="none" r="0" stroke="none" stroke-width="0"/>
<circle cx="101" cy="218" fill="none" r="0" stroke="none" stroke-width="0"/>
<circle cx="472" cy="213" fill="none" r="0" stroke="none" stroke-width="0"/>
<circle cx="159" cy="199" fill="none" r="0" stroke="none" stroke-width="0"/>
<circle cx="698" cy="156" fill="none" r="0" stroke="none" stroke-width="0"/>
<circle cx="389" cy="164" fill="none" r="0" stroke="none" stroke-width="0"/>
<circle cx="403" cy="160" fill="none" r="0" stroke="none" stroke-width="0"/>
<circle cx="597" cy="160" fill="none" r="0" stroke="none" stroke-width="0"/>
<circle cx="276" cy="154" fill="none" r="0" stroke="none" stroke-width="0"/>
<circle cx="63" cy="123" fill="none" r="0" stroke="none" stroke-width="0"/>
<circle cx="185" cy="153" fill="none" r="0" stroke="none" stroke-width="0"/>
<circle cx="554" cy="145" fill="none" r="0" stroke="none" stroke-width="0"/>
<circle cx="635" cy="137" fill="none" r="0" stroke="none" stroke-width="0"/>
<circle cx="303" cy="134" fill="none" r="0" stroke="none" stroke-width="0"/>
<circle cx="174" cy="127" fill="none" r="0" stroke="none" stroke-width="0"/>
<circle cx="173" cy="124" fill="none" r="0" stroke="none" stroke-width="0"/>
<circle cx="643" cy="104" fill="none" r="0" stroke="none" stroke-width="0"/>
<circle cx="213" cy="50" fill="none" r="0" stroke="none" stroke-width="0"/>
<circle cx="517" cy="76" fill="none" r="0" stroke="none" stroke-width="0"/>
<circle cx="594" cy="37" fill="none" r="0" stroke="none" stroke-width="0"/>
<circle cx="304" cy="60" fill="none" r="0" stroke="none" stroke-width="0"/>
<circle cx="501" cy="66" fill="none" r="0" stroke="none" stroke-width="0"/>
<circle cx="294" cy="52" fill="none" r="0" stroke="none" stroke-width="0"/>
<circle cx="448" cy="64" fill="none" r="0" stroke="none" stroke-width="0"/>
<circle cx="435" cy="49" fill="none" r="0" stroke="none" stroke-width="0"/>
<circle cx="364" cy="30" fill="none" r="0" stroke="none" stroke-width="0"/>
<circle cx="0" cy="0" fill="none" r="0" stroke="none" stroke-width="0"/>
<circle cx="800" cy="0" fill="none" r="0" stroke="none" stroke-width="0"/>
<circle cx="800" cy="800" fill="none" r="0" stroke="none" stroke-width="0"/>
<circle cx="0" cy="800" fill="none" r="0" stroke="none" stroke-width="0"/>
<circle cx="464" cy="800" fill="none" r="0" stroke="none" stroke-width="0"/>
<circle cx="431" cy="800" fill="none" r="0" stroke="none" stroke-width="0"/>
<circle cx="800" cy="361" fill="none" r="0" stroke="none" stroke-width="0"/>
<circle cx="800" cy="439" fill="none" r="0" stroke="none" stroke-width="0"/>
<circle cx="800" cy="521" fill="none" r="0" stroke="none" stroke-width="0"/>
<circle cx="800" cy="614" fill="none" r="0" stroke="none" stroke-width="0"/>
<circle cx="800" cy="728" fill="none" r="0" stroke="none" stroke-width="0"/>
<circle cx="728" cy="800" fill="none" r="0" stroke="none" stroke-width="0"/>
<circle cx="614" cy="800" fill="none" r="0" stroke="none" stroke-width="0"/>
<circle cx="521" cy="800" fill="none" r="0" stroke="none" stroke-width="0"/>
<circle cx="361" cy="800" fill="none" r="0" stroke="none" stroke-width="0"/>
<circle cx="279" cy="800" fill="none" r="0" stroke="none" stroke-width="0"/>
<circle cx="186" cy="800" fill="none" r="0" stroke="none" stroke-width="0"/>
<circle cx="72" cy="800" fill="none" r="0" stroke="none" stroke-width="0"/>
<circle cx="0" cy="728" fill="none" r="0" stroke="none" stroke-width="0"/>
<circle cx="0" cy="614" fill="none" r="0" stroke="none" stroke-width="0"/>
<circle cx="0" cy="521" fill="none" r="0" stroke="none" stroke-width="0"/>
<circle cx="0" cy="439" fill="none" r="0" stroke="none" stroke-width="0"/>
<circle cx="0" cy="361" fill="none" r="0" stroke="none" stroke-width="0"/>
<circle cx="0" cy="279" fill="none" r="0" stroke="none" stroke-width="0"/>
<circle cx="0" cy="186" fill="none" r="0" stroke="none" stroke-width="0"/>
<circle cx="0" cy="72" fill="none" r="0" stroke="none" stroke-width="0"/>
<circle cx="72" cy="0" fill="none" r="0" stroke="none" stroke-width="0"/>
<circle cx="186" cy="0" fill="none" r="0" stroke="none" stroke-width="0"/>
<circle cx="279" cy="0" fill="none" r="0" stroke="none" stroke-width="0"/>
<circle cx="361" cy="0" fill="none" r="0" stroke="none" stroke-width="0"/>
<circle cx="439" cy="0" fill="none" r="0" stroke="none" stroke-width="0"/>
<circle cx="521" cy="0" fill="none" r="0" stroke="none" stroke-width="0"/>
<circle cx="614" cy="0" fill="none" r="0" stroke="none" stroke-width="0"/>
<circle cx="728" cy="0" fill="none" r="0" stroke="none" stroke-width="0"/>
<circle cx="800" cy="72" fill="none" r="0" stroke="none" stroke-width="0"/>
<circle cx="800" cy="186" fill="none" r="0" stroke="none" stroke-width="0"/>
<circle cx="800" cy="279" fill="none" r="0" stroke="none" stroke-width="0"/>
</svg>