<svg 
            xmlns:xlink="http://www.w3.org/1999/xlink" viewBox="0 0 800 800" xmlns="http://www.w3.org/2000/svg">
<rect fill="#221508" height="800" stroke="none" width="800" x="0" y="0"/>
<path d="M375,395 L425,366 L425,424 z" fill="none" stroke="none" stroke-width="0"/>
<linearGradient id="gradient_face0" x1="0" x2="1.01" y1="0" y2="1.01">
<stop offset="0%" stop-color="#B3E2CDFF"/>
<stop offset="100%" stop-color="#B3E2CDFF"/>
</linearGradient>
<path d="M395.47604,388.90405 L409.48972,380.7761 Q420,374.68015,420,386.87207 L420,403.12793 Q420,415.31985,409.48972,409.2239 L395.47604,401.09595 Q384.96576,395,395.47604,388.90405 z" fill="url(#gradient_face0)" stroke="none" stroke-width="0"/>
<path d="M325,405 L375,395 L425,424 L436,469 z" fill="none" stroke="none" stroke-width="0"/>
<linearGradient id="gradient_face1" x1="0" x2="1.01" y1="0" y2="1.01">
<stop offset="0%" stop-color="#EDD1B3FF"/>
<stop offset="100%" stop-color="#FACDADFF"/>
</linearGradient>
<path d="M349.53668,405.19168 L363.58817,402.38138 Q374.12677,400.27365,388.08337,408.3685 L406.6922,419.16162 Q420.6488,427.25644,422.96396,436.72757 L426.05084,449.35574 Q428.36603,458.82684,401.55563,443.36862 L365.80847,422.75763 Q338.99808,407.2994,349.53668,405.19168 z" fill="url(#gradient_face1)" stroke="none" stroke-width="0"/>
<path d="M453,302 L425,366 L375,395 L325,405 L287,398 z" fill="none" stroke="none" stroke-width="0"/>
<linearGradient id="gradient_face2" x1="0" x2="1.01" y1="0" y2="1.01">
<stop offset="0%" stop-color="#E0D1CEFF"/>
<stop offset="100%" stop-color="#CED4E3FF"/>
</linearGradient>
<path d="M435.9403,328.5191 L427.44604,347.93457 Q421.07535,362.49615,406.71503,370.82513 L387.5679,381.93048 Q373.20758,390.25946,358.73367,393.15424 L339.43515,397.01395 Q324.96124,399.90872,317.84552,398.59793 L308.35794,396.85022 Q301.24222,395.53943,343.56287,371.06485 L399.9904,338.43207 Q442.31104,313.9575,435.9403,328.5191 z" fill="url(#gradient_face2)" stroke="none" stroke-width="0"/>
<path d="M453,302 L475,274 L475,525 L436,469 L425,424 L425,366 z" fill="none" stroke="none" stroke-width="0"/>
<linearGradient id="gradient_face3" x1="0" x2="1.01" y1="0" y2="1.01">
<stop offset="0%" stop-color="#D9D1E6FF"/>
<stop offset="100%" stop-color="#EFCBE4FF"/>
</linearGradient>
<path d="M461.12775,299.74857 L466.1976,293.296 Q470,288.45657,470,354.64105 L470,442.88702 Q470,509.0715,461.1907,496.42227 L449.44498,479.5566 Q440.63568,466.90735,437.44498,453.8545 L433.1907,436.45062 Q430,423.39777,430,406.4922 L430,383.95145 Q430,367.0459,438.1976,348.3085 L449.12775,323.32535 Q457.32535,304.58798,461.12775,299.74857 z" fill="url(#gradient_face3)" stroke="none" stroke-width="0"/>
<path d="M220,402 L287,398 L325,405 L436,469 L475,525 L489,557 z" fill="none" stroke="none" stroke-width="0"/>
<linearGradient id="gradient_face4" x1="0" x2="1.01" y1="0" y2="1.01">
<stop offset="0%" stop-color="#F1D0DFFF"/>
<stop offset="100%" stop-color="#E8EECDFF"/>
</linearGradient>
<path d="M251.87346,405.10602 L271.76953,403.91818 Q286.6916,403.0273,297.6585,405.04755 L312.28104,407.74115 Q323.24796,409.76138,356.03412,428.6651 L399.749,453.8701 Q432.53513,472.7738,443.95944,489.17795 L459.19186,511.0501 Q470.61615,527.4543,472.9295,532.7419 L476.01392,539.792 Q478.32727,545.07965,405.9145,503.3548 L309.36414,447.7217 Q236.95139,405.9969,251.87346,405.10602 z" fill="url(#gradient_face4)" stroke="none" stroke-width="0"/>
<path d="M506,214 L475,274 L453,302 L287,398 L220,402 L186,399 z" fill="none" stroke="none" stroke-width="0"/>
<linearGradient id="gradient_face5" x1="0" x2="1.01" y1="0" y2="1.01">
<stop offset="0%" stop-color="#E6F2CAFF"/>
<stop offset="100%" stop-color="#FAF2B3FF"/>
</linearGradient>
<path d="M486.83673,240.19743 L477.65887,257.961 Q470.77548,271.2837,464.44183,279.3447 L455.99698,290.0927 Q449.66333,298.15375,400.42062,326.63144 L334.76373,364.60168 Q285.52103,393.0794,265.88608,394.25162 L239.7061,395.8146 Q220.07114,396.98685,214.70972,396.5138 L207.56116,395.88303 Q202.19974,395.40997,289.65585,344.8494 L406.264,277.4353 Q493.72012,226.87476,486.83673,240.19743 z" fill="url(#gradient_face5)" stroke="none" stroke-width="0"/>
<path d="M512,205 L525,209 L525,591 L513,595 L489,557 L475,525 L475,274 L506,214 z" fill="none" stroke="none" stroke-width="0"/>
<linearGradient id="gradient_face6" x1="0" x2="1.01" y1="0" y2="1.01">
<stop offset="0%" stop-color="#F8F2B5FF"/>
<stop offset="100%" stop-color="#F4E5C5FF"/>
</linearGradient>
<path d="M515.86475,211.42049 L518.2277,212.14757 Q520,212.69287,520,325.10388 L520,474.9852 Q520,587.3962,518.54065,587.8826 L516.59485,588.53125 Q515.13544,589.0177,508.6236,578.7073 L499.94113,564.96 Q493.4293,554.6496,489.4005,545.441 L484.02878,533.1628 Q480,523.9541,480,449.3325 L480,349.83698 Q480,275.21536,489.09436,257.61337 L501.22015,234.1441 Q510.31448,216.54214,511.44788,214.84204 L512.9591,212.57526 Q514.09247,210.87517,515.86475,211.42049 z" fill="url(#gradient_face6)" stroke="none" stroke-width="0"/>
<path d="M175,399 L186,399 L220,402 L489,557 L513,595 L508,601 L490,615 L168,430 L169,423 z" fill="none" stroke="none" stroke-width="0"/>
<linearGradient id="gradient_face7" x1="0" x2="1.01" y1="0" y2="1.01">
<stop offset="0%" stop-color="#F7E9BDFF"/>
<stop offset="100%" stop-color="#D5D1CCFF"/>
</linearGradient>
<path d="M180.96667,404 L183.71706,404 Q185.77985,404,195.58405,404.86508 L208.65631,406.01852 Q218.46053,406.88358,298.55215,453.03305 L405.341,514.5657 Q485.43265,560.7151,491.8518,570.8788 L500.41068,584.4303 Q506.82983,594.594,506.13217,595.43115 L505.202,596.54736 Q504.50433,597.3845,500.02707,600.8669 L494.05737,605.50995 Q489.5801,608.9923,394.73477,554.50037 L268.2743,481.84454 Q173.42896,427.35263,173.57425,426.33557 L173.76797,424.9795 Q173.91327,423.96243,175.41046,417.97372 L177.4067,409.98874 Q178.90388,404,180.96667,404 z" fill="url(#gradient_face7)" stroke="none" stroke-width="0"/>
<path d="M477,173 L508,199 L512,205 L506,214 L186,399 L175,399 L168,377 L166,352 z" fill="none" stroke="none" stroke-width="0"/>
<linearGradient id="gradient_face8" x1="0" x2="1.01" y1="0" y2="1.01">
<stop offset="0%" stop-color="#B3E2CDFF"/>
<stop offset="100%" stop-color="#B3E2CDFF"/>
</linearGradient>
<path d="M484.7967,186.06496 L495.90573,195.3822 Q504.23752,202.37015,504.7635,203.1591 L505.46478,204.21104 Q505.99075,205,504.93967,206.57663 L503.5382,208.67882 Q502.48712,210.25545,407.13858,265.3788 L280.00723,338.87665 Q184.65869,394,182.85791,394 L180.45688,394 Q178.65608,394,176.94078,388.609 L174.65369,381.42105 Q172.93839,376.03006,172.42778,369.64758 L171.74698,361.13763 Q171.23639,354.75516,262.80496,302.05173 L384.89636,231.78046 Q476.46494,179.07701,484.7967,186.06496 z" fill="url(#gradient_face8)" stroke="none" stroke-width="0"/>
<path d="M525,209 L551,216 L575,228 L575,572 L551,584 L525,591 z" fill="none" stroke="none" stroke-width="0"/>
<linearGradient id="gradient_face9" x1="0" x2="1.01" y1="0" y2="1.01">
<stop offset="0%" stop-color="#EDD1B3FF"/>
<stop offset="100%" stop-color="#FACDADFF"/>
</linearGradient>
<path d="M535.7642,217.07611 L543.4499,219.14532 Q549.2141,220.69724,555.4499,223.81511 L563.7642,227.97229 Q570,231.09016,570,332.43607 L570,467.56393 Q570,568.90985,563.7642,572.0277 L555.4499,576.1849 Q549.2141,579.3028,543.4499,580.8547 L535.7642,582.9239 Q530,584.4758,530,473.7903 L530,326.2097 Q530,215.5242,535.7642,217.07611 z" fill="url(#gradient_face9)" stroke="none" stroke-width="0"/>
<path d="M160,473 L168,430 L490,615 L471,634 L447,649 L161,483 z" fill="none" stroke="none" stroke-width="0"/>
<linearGradient id="gradient_face10" x1="0" x2="1.01" y1="0" y2="1.01">
<stop offset="0%" stop-color="#E0D1CEFF"/>
<stop offset="100%" stop-color="#CED4E3FF"/>
</linearGradient>
<path d="M167.01999,462.60376 L169.65167,448.4584 Q171.62544,437.84943,264.69183,491.31924 L388.78036,562.61237 Q481.84677,616.08215,477.65286,620.27606 L472.061,625.8679 Q467.86713,630.0618,461.57834,633.9923 L453.19333,639.2329 Q446.90457,643.1634,362.54944,594.202 L250.07594,528.9202 Q165.72083,479.95886,165.51845,477.93503 L165.2486,475.2366 Q165.04622,473.21277,167.01999,462.60376 z" fill="url(#gradient_face10)" stroke="none" stroke-width="0"/>
<path d="M433,140 L471,167 L477,173 L166,352 L160,327 L160,298 z" fill="none" stroke="none" stroke-width="0"/>
<linearGradient id="gradient_face11" x1="0" x2="1.01" y1="0" y2="1.01">
<stop offset="0%" stop-color="#D9D1E6FF"/>
<stop offset="100%" stop-color="#EFCBE4FF"/>
</linearGradient>
<path d="M443.23483,153.40573 L457.2501,163.36394 Q467.7615,170.83258,468.0882,171.15927 L468.52377,171.59485 Q468.85046,171.92152,378.98575,223.64432 L259.1661,292.60803 Q169.30138,344.3308,168.01097,338.9541 L166.29042,331.78513 Q165,326.4084,165,318.75085 L165,308.5408 Q165,300.88324,245.31703,254.3994 L352.4064,192.42094 Q432.72342,145.93709,443.23483,153.40573 z" fill="url(#gradient_face11)" stroke="none" stroke-width="0"/>
<path d="M575,228 L600,236 L625,252 L625,548 L600,564 L575,572 z" fill="none" stroke="none" stroke-width="0"/>
<linearGradient id="gradient_face12" x1="0" x2="1.01" y1="0" y2="1.01">
<stop offset="0%" stop-color="#F1D0DFFF"/>
<stop offset="100%" stop-color="#E8EECDFF"/>
</linearGradient>
<path d="M585.3563,236.5638 L592.4981,238.84917 Q597.8545,240.5632,604.4981,244.81514 L613.3563,250.48439 Q620,254.73633,620,341.89453 L620,458.10547 Q620,545.2637,613.3563,549.5156 L604.4981,555.1849 Q597.8545,559.4368,592.4981,561.1508 L585.3563,563.4362 Q580,565.15027,580,466.0601 L580,333.9399 Q580,234.84976,585.3563,236.5638 z" fill="url(#gradient_face12)" stroke="none" stroke-width="0"/>
<path d="M156,530 L161,483 L447,649 L426,666 L400,679 L158,539 z" fill="none" stroke="none" stroke-width="0"/>
<linearGradient id="gradient_face13" x1="0" x2="1.01" y1="0" y2="1.01">
<stop offset="0%" stop-color="#E6F2CAFF"/>
<stop offset="100%" stop-color="#FAF2B3FF"/>
</linearGradient>
<path d="M162.28796,518.1584 L163.92715,502.75003 Q165.15654,491.19373,247.07332,538.7398 L356.2957,602.13464 Q438.21246,649.6807,433.73184,653.3079 L427.7577,658.1441 Q423.27707,661.7713,416.34576,665.23694 L407.104,669.85785 Q400.17267,673.3235,328.84225,632.0579 L233.735,577.03723 Q162.40457,535.77167,162.00076,533.9546 L161.46237,531.5318 Q161.05856,529.71466,162.28796,518.1584 z" fill="url(#gradient_face13)" stroke="none" stroke-width="0"/>
<path d="M383,111 L426,134 L433,140 L160,298 L155,269 L159,241 z" fill="none" stroke="none" stroke-width="0"/>
<linearGradient id="gradient_face14" x1="0" x2="1.01" y1="0" y2="1.01">
<stop offset="0%" stop-color="#F8F2B5FF"/>
<stop offset="100%" stop-color="#F4E5C5FF"/>
</linearGradient>
<path d="M395.1176,123.15184 L411.1421,131.72307 Q423.16046,138.15149,423.52945,138.46777 L424.02145,138.8895 Q424.39047,139.2058,346.18567,184.46718 L241.91257,244.8157 Q163.70775,290.07712,162.61378,283.7321 L161.15515,275.27203 Q160.06119,268.92703,161.1249,261.48114 L162.54315,251.5533 Q163.60684,244.10742,229.45457,205.89221 L317.25156,154.93861 Q383.09927,116.72342,395.1176,123.15184 z" fill="url(#gradient_face14)" stroke="none" stroke-width="0"/>
<path d="M625,252 L654,264 L675,282 L675,518 L654,536 L625,548 z" fill="none" stroke="none" stroke-width="0"/>
<linearGradient id="gradient_face15" x1="0" x2="1.01" y1="0" y2="1.01">
<stop offset="0%" stop-color="#F7E9BDFF"/>
<stop offset="100%" stop-color="#D5D1CCFF"/>
</linearGradient>
<path d="M636.40546,262.13065 L644.94604,265.66467 Q651.35144,268.31522,656.94604,273.11053 L664.40546,279.50433 Q670,284.29968,670,353.71988 L670,446.28012 Q670,515.7003,664.40546,520.49567 L656.94604,526.88947 Q651.35144,531.6848,644.94604,534.3353 L636.40546,537.8693 Q630,540.5199,630,456.20795 L630,343.79205 Q630,259.48013,636.40546,262.13065 z" fill="url(#gradient_face15)" stroke="none" stroke-width="0"/>
<path d="M158,597 L158,539 L400,679 L371,699 L347,706 z" fill="none" stroke="none" stroke-width="0"/>
<linearGradient id="gradient_face16" x1="0" x2="1.01" y1="0" y2="1.01">
<stop offset="0%" stop-color="#B3E2CDFF"/>
<stop offset="100%" stop-color="#B3E2CDFF"/>
</linearGradient>
<path d="M163,580.17883 L163,561.6018 Q163,547.66895,231.2967,587.17944 L322.35898,639.8601 Q390.65567,679.3706,384.10663,683.8872 L375.37454,689.9093 Q368.8255,694.4259,362.47253,696.2789 L354.00195,698.74945 Q347.64902,700.60236,292.2543,668.65515 L218.3947,626.0589 Q163,594.1117,163,580.17883 z" fill="url(#gradient_face16)" stroke="none" stroke-width="0"/>
<path d="M371,101 L383,111 L159,241 L157,200 L163,181 L328,86 z" fill="none" stroke="none" stroke-width="0"/>
<linearGradient id="gradient_face17" x1="0" x2="1.01" y1="0" y2="1.01">
<stop offset="0%" stop-color="#EDD1B3FF"/>
<stop offset="100%" stop-color="#FACDADFF"/>
</linearGradient>
<path d="M370.2394,106.87471 L372.5636,108.81154 Q374.30673,110.26416,311.0929,146.95078 L226.80774,195.86626 Q163.59389,232.55287,163.12704,222.98239 L162.50456,210.22176 Q162.03772,200.65129,163.58092,195.76445 L165.63853,189.24869 Q167.18175,184.36185,215.58102,156.49559 L280.1134,119.34059 Q328.5127,91.474335,340.50775,95.65866 L356.5012,101.23776 Q368.49625,105.42209,370.2394,106.87471 z" fill="url(#gradient_face17)" stroke="none" stroke-width="0"/>
<path d="M675,282 L716,304 L725,317 L725,483 L716,496 L675,518 z" fill="none" stroke="none" stroke-width="0"/>
<linearGradient id="gradient_face18" x1="0" x2="1.01" y1="0" y2="1.01">
<stop offset="0%" stop-color="#E0D1CEFF"/>
<stop offset="100%" stop-color="#CED4E3FF"/>
</linearGradient>
<path d="M689.7724,295.60098 L702.80225,302.59262 Q712.5746,307.83633,714.80225,311.054 L717.7724,315.3442 Q720,318.5619,720,367.42474 L720,432.57526 Q720,481.4381,717.7724,484.6558 L714.80225,488.946 Q712.5746,492.16367,702.80225,497.40738 L689.7724,504.39902 Q680,509.64273,680,443.8571 L680,356.1429 Q680,290.35727,689.7724,295.60098 z" fill="url(#gradient_face18)" stroke="none" stroke-width="0"/>
<path d="M158,599 L158,597 L347,706 L299,732 L292,732 L168,661 z" fill="none" stroke="none" stroke-width="0"/>
<linearGradient id="gradient_face19" x1="0" x2="1.01" y1="0" y2="1.01">
<stop offset="0%" stop-color="#D9D1E6FF"/>
<stop offset="100%" stop-color="#EFCBE4FF"/>
</linearGradient>
<path d="M163,600.7162 L163,603.5387 Q163,605.6555,215.12637,635.71783 L284.6282,675.8009 Q336.7546,705.8632,325.04807,712.2042 L309.43936,720.65894 Q297.73282,727,296.41202,727 L294.65094,727 Q293.33014,727,257.09793,706.25415 L208.7883,678.59296 Q172.55609,657.8471,169.68925,640.0728 L165.86682,616.3737 Q163,598.59937,163,600.7162 z" fill="url(#gradient_face19)" stroke="none" stroke-width="0"/>
<path d="M298,65 L328,86 L163,181 L167,121 L266,63 z" fill="none" stroke="none" stroke-width="0"/>
<linearGradient id="gradient_face20" x1="0" x2="1.01" y1="0" y2="1.01">
<stop offset="0%" stop-color="#F1D0DFFF"/>
<stop offset="100%" stop-color="#E8EECDFF"/>
</linearGradient>
<path d="M303.00732,74.608406 L311.97086,80.88289 Q318.69354,85.588745,273.6688,111.51208 L213.63583,146.0765 Q168.61111,171.99983,169.5716,157.59248 L170.85225,138.38266 Q171.81274,123.9753,200.4322,107.20834 L238.59149,84.8524 Q267.21097,68.08544,275.93307,68.63057 L287.56256,69.357414 Q296.28467,69.90255,303.00732,74.608406 z" fill="url(#gradient_face20)" stroke="none" stroke-width="0"/>
<path d="M725,317 L785,362 L785,438 L725,483 z" fill="none" stroke="none" stroke-width="0"/>
<linearGradient id="gradient_face21" x1="0" x2="1.01" y1="0" y2="1.01">
<stop offset="0%" stop-color="#E6F2CAFF"/>
<stop offset="100%" stop-color="#FAF2B3FF"/>
</linearGradient>
<path d="M745,338.25 L765,353.25 Q780,364.5,780,385.8 L780,414.2 Q780,435.5,765,446.75 L745,461.75 Q730,473,730,429.2 L730,370.8 Q730,327,745,338.25 z" fill="url(#gradient_face21)" stroke="none" stroke-width="0"/>
<path d="M163,688 L168,661 L292,732 L208,759 z" fill="none" stroke="none" stroke-width="0"/>
<linearGradient id="gradient_face22" x1="0" x2="1.01" y1="0" y2="1.01">
<stop offset="0%" stop-color="#F8F2B5FF"/>
<stop offset="100%" stop-color="#F4E5C5FF"/>
</linearGradient>
<path d="M169.28148,681.5391 L170.6251,674.28345 Q171.63284,668.84174,204.0472,687.40155 L247.26634,712.148 Q279.68073,730.7078,258.82224,737.41235 L231.01094,746.3517 Q210.15248,753.0562,197.58885,733.2336 L180.83736,706.80347 Q168.27374,686.98083,169.28148,681.5391 z" fill="url(#gradient_face22)" stroke="none" stroke-width="0"/>
<path d="M201,27 L266,63 L167,121 L165,114 z" fill="none" stroke="none" stroke-width="0"/>
<linearGradient id="gradient_face23" x1="0" x2="1.01" y1="0" y2="1.01">
<stop offset="0%" stop-color="#F7E9BDFF"/>
<stop offset="100%" stop-color="#D5D1CCFF"/>
</linearGradient>
<path d="M219.20482,42.798317 L240.17374,54.41187 Q255.90042,63.122036,230.14114,78.213326 L195.79546,98.335045 Q170.03618,113.42634,170.1112,113.688965 L170.21126,114.03913 Q170.2863,114.30175,180.24385,90.23767 L193.52058,58.152233 Q203.47813,34.08815,219.20482,42.798317 z" fill="url(#gradient_face23)" stroke="none" stroke-width="0"/>
<path d="M800,361 L800,439 L785,438 L785,362 z" fill="none" stroke="none" stroke-width="0"/>
<linearGradient id="gradient_face24" x1="0" x2="1.01" y1="0" y2="1.01">
<stop offset="0%" stop-color="#221508FF"/>
<stop offset="100%" stop-color="#221508FF"/>
</linearGradient>
<path d="M795,386.53778 L795,413.46222 Q795,433.65558,793.5,433.55557 L791.5,433.42224 Q790,433.32224,790,413.3289 L790,386.6711 Q790,366.67776,791.5,366.57776 L793.5,366.44443 Q795,366.34442,795,386.53778 z" fill="url(#gradient_face24)" stroke="none" stroke-width="0"/>
<path d="M800,439 L800,521 L716,496 L725,483 L785,438 z" fill="none" stroke="none" stroke-width="0"/>
<linearGradient id="gradient_face25" x1="0" x2="1.01" y1="0" y2="1.01">
<stop offset="0%" stop-color="#221508FF"/>
<stop offset="100%" stop-color="#221508FF"/>
</linearGradient>
<path d="M795,464.86298 L795,493.10995 Q795,514.29517,773.71106,507.95917 L745.32587,499.5112 Q724.0369,493.1752,725.4206,491.17657 L727.26544,488.51178 Q728.6491,486.51315,746.00946,473.4929 L769.1567,456.1325 Q786.517,443.11224,789.0619,443.2819 L792.4551,443.50812 Q795,443.67776,795,464.86298 z" fill="url(#gradient_face25)" stroke="none" stroke-width="0"/>
<path d="M800,521 L800,614 L654,536 L675,518 L716,496 z" fill="none" stroke="none" stroke-width="0"/>
<linearGradient id="gradient_face26" x1="0" x2="1.01" y1="0" y2="1.01">
<stop offset="0%" stop-color="#221508FF"/>
<stop offset="100%" stop-color="#221508FF"/>
</linearGradient>
<path d="M795,549.00806 L795,581.38055 Q795,605.66,755.34216,584.4729 L702.465,556.22345 Q662.8072,535.0364,667.3176,531.1703 L673.3316,526.01544 Q677.8421,522.1493,689.45404,515.9185 L704.9366,507.6108 Q716.5485,501.38,740.084,508.38458 L771.46454,517.72406 Q795,524.72864,795,549.00806 z" fill="url(#gradient_face26)" stroke="none" stroke-width="0"/>
<path d="M800,614 L800,728 L600,564 L625,548 L654,536 z" fill="none" stroke="none" stroke-width="0"/>
<linearGradient id="gradient_face27" x1="0" x2="1.01" y1="0" y2="1.01">
<stop offset="0%" stop-color="#221508FF"/>
<stop offset="100%" stop-color="#221508FF"/>
</linearGradient>
<path d="M795,647.1285 L795,687.30304 Q795,717.43396,739.04846,671.55365 L664.44635,610.37994 Q608.4948,564.49963,614.1428,560.8849 L621.6736,556.06525 Q627.32166,552.4505,635.2436,549.1724 L645.8063,544.8017 Q653.7282,541.5236,696.10974,564.16583 L752.61847,594.3554 Q795,616.99756,795,647.1285 z" fill="url(#gradient_face27)" stroke="none" stroke-width="0"/>
<path d="M800,800 L728,800 L551,584 L575,572 L600,564 L800,728 z" fill="none" stroke="none" stroke-width="0"/>
<linearGradient id="gradient_face28" x1="0" x2="1.01" y1="0" y2="1.01">
<stop offset="0%" stop-color="#221508FF"/>
<stop offset="100%" stop-color="#221508FF"/>
</linearGradient>
<path d="M775.6101,795 L749.75696,795 Q730.36707,795,678.9075,732.2018 L610.2946,648.4709 Q558.83496,585.67267,564.25183,582.96423 L571.4743,579.353 Q576.8912,576.6446,583.5037,574.52856 L592.3205,571.7072 Q598.93304,569.5912,657.7532,617.82367 L736.17993,682.1336 Q795,730.3661,795,749.7562 L795,775.6098 Q795,795,775.6101,795 z" fill="url(#gradient_face28)" stroke="none" stroke-width="0"/>
<path d="M728,800 L614,800 L508,601 L513,595 L525,591 L551,584 z" fill="none" stroke="none" stroke-width="0"/>
<linearGradient id="gradient_face29" x1="0" x2="1.01" y1="0" y2="1.01">
<stop offset="0%" stop-color="#221508FF"/>
<stop offset="100%" stop-color="#221508FF"/>
</linearGradient>
<path d="M687.30743,795 L647.1328,795 Q617.0018,795,586.0994,736.9852 L544.8963,659.6322 Q513.994,601.61743,514.57495,600.9203 L515.34955,599.9908 Q515.93054,599.29364,519.08386,598.2425 L523.2884,596.841 Q526.4418,595.78986,533.2633,593.9533 L542.3587,591.5045 Q549.1803,589.66797,599.6577,651.2676 L666.961,733.4004 Q717.4385,795,687.30743,795 z" fill="url(#gradient_face29)" stroke="none" stroke-width="0"/>
<path d="M614,800 L521,800 L471,634 L490,615 L508,601 z" fill="none" stroke="none" stroke-width="0"/>
<linearGradient id="gradient_face30" x1="0" x2="1.01" y1="0" y2="1.01">
<stop offset="0%" stop-color="#221508FF"/>
<stop offset="100%" stop-color="#221508FF"/>
</linearGradient>
<path d="M581.3849,795 L549.00256,795 Q524.7159,795,510.29608,747.12634 L491.0697,683.2948 Q476.64993,635.42114,481.6496,630.4215 L488.31577,623.7553 Q493.31543,618.7557,497.23483,615.7072 L502.4607,611.64264 Q506.3801,608.59424,536.16754,664.516 L575.88416,739.07825 Q605.6716,795,581.3849,795 z" fill="url(#gradient_face30)" stroke="none" stroke-width="0"/>
<path d="M521,800 L439,800 L426,666 L447,649 L471,634 z" fill="none" stroke="none" stroke-width="0"/>
<linearGradient id="gradient_face31" x1="0" x2="1.01" y1="0" y2="1.01">
<stop offset="0%" stop-color="#221508FF"/>
<stop offset="100%" stop-color="#221508FF"/>
</linearGradient>
<path d="M493.05197,795 L464.7585,795 Q443.5384,795,439.84778,756.9582 L434.92694,706.23584 Q431.23633,668.19403,436.83807,663.6593 L444.30704,657.613 Q449.90878,653.07825,455.36615,649.6674 L462.64264,645.11957 Q468.1,641.70874,481.95163,687.6961 L500.42047,749.01263 Q514.2721,795,493.05197,795 z" fill="url(#gradient_face31)" stroke="none" stroke-width="0"/>
<path d="M439,800 L361,800 L371,699 L400,679 L426,666 z" fill="none" stroke="none" stroke-width="0"/>
<linearGradient id="gradient_face32" x1="0" x2="1.01" y1="0" y2="1.01">
<stop offset="0%" stop-color="#221508FF"/>
<stop offset="100%" stop-color="#221508FF"/>
</linearGradient>
<path d="M413.39987,795 L386.61108,795 Q366.5195,795,369.2878,767.0399 L372.9789,729.7599 Q375.74725,701.7998,383.78802,696.25446 L394.50906,688.8606 Q402.54987,683.31525,408.30276,680.4388 L415.97327,676.6035 Q421.72617,673.7271,425.25577,710.10895 L429.96185,758.6181 Q433.49146,795,413.39987,795 z" fill="url(#gradient_face32)" stroke="none" stroke-width="0"/>
<path d="M361,800 L279,800 L299,732 L347,706 L371,699 z" fill="none" stroke="none" stroke-width="0"/>
<linearGradient id="gradient_face33" x1="0" x2="1.01" y1="0" y2="1.01">
<stop offset="0%" stop-color="#221508FF"/>
<stop offset="100%" stop-color="#221508FF"/>
</linearGradient>
<path d="M335.23413,795 L306.91882,795 Q285.68237,795,290.94067,777.12177 L297.95172,753.2842 Q303.21002,735.40594,316.9207,727.9794 L335.20157,718.0772 Q348.91223,710.6506,353.82712,709.2171 L360.38025,707.3058 Q365.29514,705.87225,362.64777,732.6106 L359.11795,768.26166 Q356.4706,795,335.23413,795 z" fill="url(#gradient_face33)" stroke="none" stroke-width="0"/>
<path d="M279,800 L186,800 L208,759 L292,732 L299,732 z" fill="none" stroke="none" stroke-width="0"/>
<linearGradient id="gradient_face34" x1="0" x2="1.01" y1="0" y2="1.01">
<stop offset="0%" stop-color="#221508FF"/>
<stop offset="100%" stop-color="#221508FF"/>
</linearGradient>
<path d="M250.98834,795 L218.62773,795 Q194.35727,795,199.48553,785.44275 L206.32324,772.69977 Q211.45152,763.1425,235.85121,755.29974 L268.38412,744.8428 Q292.7838,737,292.64395,737 L292.4575,737 Q292.31763,737,287.19998,754.4 L280.37646,777.6 Q275.25882,795,250.98834,795 z" fill="url(#gradient_face34)" stroke="none" stroke-width="0"/>
<path d="M186,800 L72,800 L163,688 L208,759 z" fill="none" stroke="none" stroke-width="0"/>
<linearGradient id="gradient_face35" x1="0" x2="1.01" y1="0" y2="1.01">
<stop offset="0%" stop-color="#221508FF"/>
<stop offset="100%" stop-color="#221508FF"/>
</linearGradient>
<path d="M152.85747,795 L112.655975,795 Q82.50485,795,106.50269,765.4642 L138.4998,726.0831 Q162.49763,696.54736,174.41231,715.346 L190.29852,740.41095 Q202.21318,759.20966,196.4518,769.9467 L188.76997,784.2629 Q183.00859,795,152.85747,795 z" fill="url(#gradient_face35)" stroke="none" stroke-width="0"/>
<path d="M0,800 L0,728 L158,599 L168,661 L163,688 L72,800 z" fill="none" stroke="none" stroke-width="0"/>
<linearGradient id="gradient_face36" x1="0" x2="1.01" y1="0" y2="1.01">
<stop offset="0%" stop-color="#221508FF"/>
<stop offset="100%" stop-color="#221508FF"/>
</linearGradient>
<path d="M5,775.61176 L5,749.7608 Q5,730.37256,49.8334,693.76807 L109.611275,644.9621 Q154.44467,608.3576,156.98904,624.1327 L160.38153,645.1661 Q162.92589,660.94116,161.54283,668.40967 L159.69875,678.36774 Q158.31567,685.83624,131.70702,718.5854 L96.228806,762.25085 Q69.62015,795,50.234104,795 L24.386044,795 Q5,795,5,775.61176 z" fill="url(#gradient_face36)" stroke="none" stroke-width="0"/>
<path d="M0,728 L0,614 L156,530 L158,539 L158,597 L158,599 z" fill="none" stroke="none" stroke-width="0"/>
<linearGradient id="gradient_face37" x1="0" x2="1.01" y1="0" y2="1.01">
<stop offset="0%" stop-color="#221508FF"/>
<stop offset="100%" stop-color="#221508FF"/>
</linearGradient>
<path d="M5,687.31995 L5,647.1294 Q5,616.98645,49.26575,593.15106 L108.28675,561.37054 Q152.5525,537.5351,152.68675,538.1392 L152.86575,538.94476 Q153,539.5489,153,556.7842 L153,579.76465 Q153,597,153,596.88824 L153,596.7392 Q153,596.62744,108.6,632.87805 L49.4,681.2122 Q5,717.4629,5,687.31995 z" fill="url(#gradient_face37)" stroke="none" stroke-width="0"/>
<path d="M0,614 L0,521 L160,473 L161,483 L156,530 z" fill="none" stroke="none" stroke-width="0"/>
<linearGradient id="gradient_face38" x1="0" x2="1.01" y1="0" y2="1.01">
<stop offset="0%" stop-color="#221508FF"/>
<stop offset="100%" stop-color="#221508FF"/>
</linearGradient>
<path d="M5,581.35626 L5,548.9928 Q5,524.72015,50.18847,511.1636 L110.43976,493.08823 Q155.62823,479.53168,155.7318,480.5674 L155.8699,481.9484 Q155.97348,482.98413,154.57356,496.14334 L152.707,513.68896 Q151.30708,526.8482,107.41496,550.4824 L48.892124,581.9947 Q5,605.6289,5,581.35626 z" fill="url(#gradient_face38)" stroke="none" stroke-width="0"/>
<path d="M0,521 L0,439 L169,423 L168,430 L160,473 z" fill="none" stroke="none" stroke-width="0"/>
<linearGradient id="gradient_face39" x1="0" x2="1.01" y1="0" y2="1.01">
<stop offset="0%" stop-color="#221508FF"/>
<stop offset="100%" stop-color="#221508FF"/>
</linearGradient>
<path d="M5,493.06058 L5,464.76825 Q5,443.54898,52.4458,439.05707 L115.70687,433.06787 Q163.15268,428.57596,163.1264,428.75983 L163.09138,429.00494 Q163.06512,429.1888,160.83824,441.15833 L157.86905,457.11768 Q155.64217,469.0872,110.44952,482.645 L50.19265,500.72205 Q5,514.27985,5,493.06058 z" fill="url(#gradient_face39)" stroke="none" stroke-width="0"/>
<path d="M0,439 L0,361 L168,377 L175,399 L169,423 z" fill="none" stroke="none" stroke-width="0"/>
<linearGradient id="gradient_face40" x1="0" x2="1.01" y1="0" y2="1.01">
<stop offset="0%" stop-color="#221508FF"/>
<stop offset="100%" stop-color="#221508FF"/>
</linearGradient>
<path d="M5,413.40262 L5,386.60046 Q5,366.4988,52.771126,371.04843 L116.46596,377.11462 Q164.23708,381.66425,165.9075,386.91415 L168.13472,393.914 Q169.80515,399.16388,168.36577,404.92142 L166.44658,412.5981 Q165.0072,418.35565,117.00504,422.90024 L53.002163,428.9597 Q5,433.50427,5,413.40262 z" fill="url(#gradient_face40)" stroke="none" stroke-width="0"/>
<path d="M0,361 L0,279 L160,327 L166,352 L168,377 z" fill="none" stroke="none" stroke-width="0"/>
<linearGradient id="gradient_face41" x1="0" x2="1.01" y1="0" y2="1.01">
<stop offset="0%" stop-color="#221508FF"/>
<stop offset="100%" stop-color="#221508FF"/>
</linearGradient>
<path d="M5,335.23355 L5,306.9402 Q5,285.72015,50.242733,299.29297 L110.566376,317.39008 Q155.80911,330.9629,157.38048,337.51028 L159.47565,346.24014 Q161.04703,352.78757,161.4951,358.38852 L162.09254,365.85648 Q162.54062,371.45743,115.278435,366.95627 L52.262188,360.9547 Q5,356.45355,5,335.23355 z" fill="url(#gradient_face41)" stroke="none" stroke-width="0"/>
<path d="M0,279 L0,186 L155,269 L160,298 L160,327 z" fill="none" stroke="none" stroke-width="0"/>
<linearGradient id="gradient_face42" x1="0" x2="1.01" y1="0" y2="1.01">
<stop offset="0%" stop-color="#221508FF"/>
<stop offset="100%" stop-color="#221508FF"/>
</linearGradient>
<path d="M5,251.00064 L5,218.62836 Q5,194.34915,48.646248,217.72102 L106.84125,248.8835 Q150.4875,272.25537,151.84125,280.10712 L153.64626,290.5761 Q155,298.4279,155,304.98346 L155,313.72424 Q155,320.27985,110,306.77985 L50,288.77985 Q5,275.27985,5,251.00064 z" fill="url(#gradient_face42)" stroke="none" stroke-width="0"/>
<path d="M0,186 L0,72 L157,200 L159,241 L155,269 z" fill="none" stroke="none" stroke-width="0"/>
<linearGradient id="gradient_face43" x1="0" x2="1.01" y1="0" y2="1.01">
<stop offset="0%" stop-color="#221508FF"/>
<stop offset="100%" stop-color="#221508FF"/>
</linearGradient>
<path d="M5,152.86226 L5,112.67101 Q5,82.52758,49.134335,118.50971 L107.98011,166.48589 Q152.11444,202.46802,152.67491,213.95746 L153.42218,229.2767 Q153.98265,240.76613,153.1061,246.90196 L151.93736,255.08307 Q151.06082,261.2189,107.24258,237.75493 L48.81825,206.46965 Q5,183.00569,5,152.86226 z" fill="url(#gradient_face43)" stroke="none" stroke-width="0"/>
<path d="M0,0 L72,0 L165,114 L167,121 L163,181 L157,200 L0,72 z" fill="none" stroke="none" stroke-width="0"/>
<linearGradient id="gradient_face44" x1="0" x2="1.01" y1="0" y2="1.01">
<stop offset="0%" stop-color="#221508FF"/>
<stop offset="100%" stop-color="#221508FF"/>
</linearGradient>
<path d="M24.387863,5 L50.238346,5 Q69.62621,5,96.88088,38.40895 L133.22044,82.954216 Q160.47511,116.363174,160.91852,117.91511 L161.50974,119.98436 Q161.95316,121.53629,160.78252,139.09569 L159.2217,162.5082 Q158.05106,180.06758,156.97083,183.48834 L155.5305,188.04935 Q154.45027,191.4701,109.61519,154.91666 L49.835083,106.17873 Q5,69.62528,5,50.2377 L5,24.387585 Q5,5,24.387863,5 z" fill="url(#gradient_face44)" stroke="none" stroke-width="0"/>
<path d="M72,0 L186,0 L201,27 L165,114 z" fill="none" stroke="none" stroke-width="0"/>
<linearGradient id="gradient_face45" x1="0" x2="1.01" y1="0" y2="1.01">
<stop offset="0%" stop-color="#221508FF"/>
<stop offset="100%" stop-color="#221508FF"/>
</linearGradient>
<path d="M112.689575,5 L152.9001,5 Q183.05798,5,186.77771,11.695519 L191.73737,20.622877 Q195.45709,27.318398,185.8944,50.428265 L173.14412,81.24142 Q163.58142,104.35128,139.2665,74.5459 L106.8466,34.805386 Q82.531685,5,112.689575,5 z" fill="url(#gradient_face45)" stroke="none" stroke-width="0"/>
<path d="M186,0 L279,0 L298,65 L266,63 L201,27 z" fill="none" stroke="none" stroke-width="0"/>
<linearGradient id="gradient_face46" x1="0" x2="1.01" y1="0" y2="1.01">
<stop offset="0%" stop-color="#221508FF"/>
<stop offset="100%" stop-color="#221508FF"/>
</linearGradient>
<path d="M218.724,5 L251.02588,5 Q275.25232,5,280.03726,21.369614 L286.41724,43.195766 Q291.20218,59.56538,284.07254,59.119778 L274.5663,58.52564 Q267.43665,58.080036,248.60825,47.651993 L223.50371,33.74794 Q204.6753,23.319899,201.62198,17.823929 L197.55089,10.49597 Q194.49757,5,218.724,5 z" fill="url(#gradient_face46)" stroke="none" stroke-width="0"/>
<path d="M279,0 L361,0 L371,101 L328,86 L298,65 z" fill="none" stroke="none" stroke-width="0"/>
<linearGradient id="gradient_face47" x1="0" x2="1.01" y1="0" y2="1.01">
<stop offset="0%" stop-color="#221508FF"/>
<stop offset="100%" stop-color="#221508FF"/>
</linearGradient>
<path d="M306.9107,5 L335.23065,5 Q356.4706,5,359.10526,31.609898 L362.6181,67.08976 Q365.25275,93.69965,354.76703,90.04185 L340.78604,85.164764 Q330.30032,81.50695,321.90213,75.62821 L310.70453,67.7899 Q302.30634,61.91116,297.31567,44.83781 L290.66144,22.073349 Q285.67078,5,306.9107,5 z" fill="url(#gradient_face47)" stroke="none" stroke-width="0"/>
<path d="M361,0 L439,0 L426,134 L383,111 L371,101 z" fill="none" stroke="none" stroke-width="0"/>
<linearGradient id="gradient_face48" x1="0" x2="1.01" y1="0" y2="1.01">
<stop offset="0%" stop-color="#221508FF"/>
<stop offset="100%" stop-color="#221508FF"/>
</linearGradient>
<path d="M386.61108,5 L413.39987,5 Q433.49146,5,429.9682,41.316498 L425.27054,89.73849 Q421.7473,126.054985,410.9657,120.28808 L396.5902,112.59886 Q385.8086,106.83195,382.7982,104.32329 L378.78433,100.97839 Q375.77393,98.46973,372.9976,70.42881 L369.29584,33.04092 Q366.5195,5,386.61108,5 z" fill="url(#gradient_face48)" stroke="none" stroke-width="0"/>
<path d="M439,0 L521,0 L471,167 L433,140 L426,134 z" fill="none" stroke="none" stroke-width="0"/>
<linearGradient id="gradient_face49" x1="0" x2="1.01" y1="0" y2="1.01">
<stop offset="0%" stop-color="#221508FF"/>
<stop offset="100%" stop-color="#221508FF"/>
</linearGradient>
<path d="M464.762,5 L493.06012,5 Q514.2837,5,500.46176,51.165318 L482.03247,112.71908 Q468.21054,158.8844,458.57178,152.03581 L445.7201,142.90436 Q436.08136,136.05577,434.62524,134.80768 L432.68375,133.14355 Q431.22766,131.89545,434.92087,93.82681 L439.84518,43.068634 Q443.5384,5,464.762,5 z" fill="url(#gradient_face49)" stroke="none" stroke-width="0"/>
<path d="M521,0 L614,0 L508,199 L477,173 L471,167 z" fill="none" stroke="none" stroke-width="0"/>
<linearGradient id="gradient_face50" x1="0" x2="1.01" y1="0" y2="1.01">
<stop offset="0%" stop-color="#221508FF"/>
<stop offset="100%" stop-color="#221508FF"/>
</linearGradient>
<path d="M549.0071,5 L581.3868,5 Q605.6716,5,575.9162,60.861553 L536.2423,135.34363 Q506.4869,191.20518,498.65506,184.63654 L488.21262,175.87834 Q480.38077,169.3097,479.2603,168.18925 L477.76642,166.69534 Q476.64597,165.5749,491.06888,117.40243 L510.29938,53.17247 Q524.7223,5,549.0071,5 z" fill="url(#gradient_face50)" stroke="none" stroke-width="0"/>
<path d="M614,0 L728,0 L551,216 L525,209 L512,205 L508,199 z" fill="none" stroke="none" stroke-width="0"/>
<linearGradient id="gradient_face51" x1="0" x2="1.01" y1="0" y2="1.01">
<stop offset="0%" stop-color="#221508FF"/>
<stop offset="100%" stop-color="#221508FF"/>
</linearGradient>
<path d="M647.1328,5 L687.30743,5 Q717.4385,5,666.961,66.59961 L599.6577,148.73242 Q549.1803,210.33203,542.34186,208.49092 L533.224,206.0361 Q526.38556,204.19499,523.02167,203.15994 L518.5364,201.77986 Q515.1725,200.74481,514.7661,200.13527 L514.2243,199.32257 Q513.81793,198.71304,544.7731,140.59912 L586.04663,63.11391 Q617.0018,5,647.1328,5 z" fill="url(#gradient_face51)" stroke="none" stroke-width="0"/>
<path d="M800,0 L800,72 L600,236 L575,228 L551,216 L728,0 z" fill="none" stroke="none" stroke-width="0"/>
<linearGradient id="gradient_face52" x1="0" x2="1.01" y1="0" y2="1.01">
<stop offset="0%" stop-color="#221508FF"/>
<stop offset="100%" stop-color="#221508FF"/>
</linearGradient>
<path d="M795,24.39018 L795,50.243755 Q795,69.633934,736.17993,117.8664 L657.7532,182.17636 Q598.93304,230.40881,592.3205,228.2928 L583.5037,225.47144 Q576.8912,223.35541,571.4743,220.64699 L564.25183,217.03575 Q558.83496,214.32732,610.2946,151.52913 L678.9075,67.798195 Q730.36707,5,749.75696,5 L775.6101,5 Q795,5,795,24.39018 z" fill="url(#gradient_face52)" stroke="none" stroke-width="0"/>
<path d="M800,72 L800,186 L654,264 L625,252 L600,236 z" fill="none" stroke="none" stroke-width="0"/>
<linearGradient id="gradient_face53" x1="0" x2="1.01" y1="0" y2="1.01">
<stop offset="0%" stop-color="#221508FF"/>
<stop offset="100%" stop-color="#221508FF"/>
</linearGradient>
<path d="M795,112.69697 L795,152.8715 Q795,183.00241,752.61847,205.6446 L696.10974,235.8342 Q653.7282,258.47638,645.8063,255.19832 L635.2436,250.82758 Q627.32166,247.54953,621.6736,243.93477 L614.1428,239.1151 Q608.4948,235.50034,664.44635,189.62006 L739.04846,128.44635 Q795,82.56606,795,112.69697 z" fill="url(#gradient_face53)" stroke="none" stroke-width="0"/>
<path d="M800,186 L800,279 L716,304 L675,282 L654,264 z" fill="none" stroke="none" stroke-width="0"/>
<linearGradient id="gradient_face54" x1="0" x2="1.01" y1="0" y2="1.01">
<stop offset="0%" stop-color="#221508FF"/>
<stop offset="100%" stop-color="#221508FF"/>
</linearGradient>
<path d="M795,218.61945 L795,250.99196 Q795,275.27136,771.46454,282.27594 L740.084,291.61542 Q716.5485,298.62,704.9366,292.3892 L689.45404,284.08148 Q677.8421,277.85068,673.3316,273.98456 L667.3176,268.82974 Q662.8072,264.96362,702.465,243.77655 L755.34216,215.52711 Q795,194.34006,795,218.61945 z" fill="url(#gradient_face54)" stroke="none" stroke-width="0"/>
<path d="M800,279 L800,361 L785,362 L725,317 L716,304 z" fill="none" stroke="none" stroke-width="0"/>
<linearGradient id="gradient_face55" x1="0" x2="1.01" y1="0" y2="1.01">
<stop offset="0%" stop-color="#221508FF"/>
<stop offset="100%" stop-color="#221508FF"/>
</linearGradient>
<path d="M795,306.89005 L795,335.13702 Q795,356.32224,792.4551,356.49188 L789.0619,356.7181 Q786.517,356.88776,769.1567,343.8675 L746.00946,326.5071 Q728.6491,313.48685,727.26544,311.48822 L725.4206,308.82343 Q724.0369,306.8248,745.32587,300.4888 L773.71106,292.04083 Q795,285.70483,795,306.89005 z" fill="url(#gradient_face55)" stroke="none" stroke-width="0"/>
<circle cx="400" cy="400" fill="none" r="0" stroke="none" stroke-width="0"/>
<circle cx="392" cy="414" fill="none" r="0" stroke="none" stroke-width="0"/>
<circle cx="383" cy="371" fill="none" r="0" stroke="none" stroke-width="0"/>
<circle cx="450" cy="400" fill="none" r="0" stroke="none" stroke-width="0"/>
<circle cx="367" cy="458" fill="none" r="0" stroke="none" stroke-width="0"/>
<circle cx="358" cy="328" fill="none" r="0" stroke="none" stroke-width="0"/>
<circle cx="500" cy="400" fill="none" r="0" stroke="none" stroke-width="0"/>
<circle cx="342" cy="501" fill="none" r="0" stroke="none" stroke-width="0"/>
<circle cx="333" cy="285" fill="none" r="0" stroke="none" stroke-width="0"/>
<circle cx="550" cy="400" fill="none" r="0" stroke="none" stroke-width="0"/>
<circle cx="317" cy="544" fill="none" r="0" stroke="none" stroke-width="0"/>
<circle cx="308" cy="241" fill="none" r="0" stroke="none" stroke-width="0"/>
<circle cx="600" cy="400" fill="none" r="0" stroke="none" stroke-width="0"/>
<circle cx="292" cy="588" fill="none" r="0" stroke="none" stroke-width="0"/>
<circle cx="283" cy="198" fill="none" r="0" stroke="none" stroke-width="0"/>
<circle cx="650" cy="400" fill="none" r="0" stroke="none" stroke-width="0"/>
<circle cx="267" cy="631" fill="none" r="0" stroke="none" stroke-width="0"/>
<circle cx="258" cy="155" fill="none" r="0" stroke="none" stroke-width="0"/>
<circle cx="700" cy="400" fill="none" r="0" stroke="none" stroke-width="0"/>
<circle cx="242" cy="674" fill="none" r="0" stroke="none" stroke-width="0"/>
<circle cx="233" cy="111" fill="none" r="0" stroke="none" stroke-width="0"/>
<circle cx="750" cy="400" fill="none" r="0" stroke="none" stroke-width="0"/>
<circle cx="217" cy="718" fill="none" r="0" stroke="none" stroke-width="0"/>
<circle cx="208" cy="68" fill="none" r="0" stroke="none" stroke-width="0"/>
<circle cx="820" cy="400" fill="none" r="0" stroke="none" stroke-width="0"/>
<circle cx="812" cy="482" fill="none" r="0" stroke="none" stroke-width="0"/>
<circle cx="788" cy="561" fill="none" r="0" stroke="none" stroke-width="0"/>
<circle cx="749" cy="633" fill="none" r="0" stroke="none" stroke-width="0"/>
<circle cx="697" cy="697" fill="none" r="0" stroke="none" stroke-width="0"/>
<circle cx="633" cy="749" fill="none" r="0" stroke="none" stroke-width="0"/>
<circle cx="561" cy="788" fill="none" r="0" stroke="none" stroke-width="0"/>
<circle cx="482" cy="812" fill="none" r="0" stroke="none" stroke-width="0"/>
<circle cx="400" cy="820" fill="none" r="0" stroke="none" stroke-width="0"/>
<circle cx="318" cy="812" fill="none" r="0" stroke="none" stroke-width="0"/>
<circle cx="239" cy="788" fill="none" r="0" stroke="none" stroke-width="0"/>
<circle cx="167" cy="749" fill="none" r="0" stroke="none" stroke-width="0"/>
<circle cx="103" cy="697" fill="none" r="0" stroke="none" stroke-width="0"/>
<circle cx="51" cy="633" fill="none" r="0" stroke="none" stroke-width="0"/>
<circle cx="12" cy="561" fill="none" r="0" stroke="none" stroke-width="0"/>
<circle cx="-12" cy="482" fill="none" r="0" stroke="none" stroke-width="0"/>
<circle cx="-20" cy="400" fill="none" r="0" stroke="none" stroke-width="0"/>
<circle cx="-12" cy="318" fill="none" r="0" stroke="none" stroke-width="0"/>
<circle cx="12" cy="239" fill="none" r="0" stroke="none" stroke-width="0"/>
<circle cx="51" cy="167" fill="none" r="0" stroke="none" stroke-width="0"/>
<circle cx="103" cy="103" fill="none" r="0" stroke="none" stroke-width="0"/>
<circle cx="167" cy="51" fill="none" r="0" stroke="none" stroke-width="0"/>
<circle cx="239" cy="12" fill="none" r="0" stroke="none" stroke-width="0"/>
<circle cx="318" cy="-12" fill="none" r="0" stroke="none" stroke-width="0"/>
<circle cx="400" cy="-20" fill="none" r="0" stroke="none" stroke-width="0"/>
<circle cx="482" cy="-12" fill="none" r="0" stroke="none" stroke-width="0"/>
<circle cx="561" cy="12" fill="none" r="0" stroke="none" stroke-width="0"/>
<circle cx="633" cy="51" fill="none" r="0" stroke="none" stroke-width="0"/>
<circle cx="697" cy="103" fill="none" r="0" stroke="none" stroke-width="0"/>
<circle cx="749" cy="167" fill="none" r="0" stroke="none" stroke-width="0"/>
<circle cx="788" cy="239" fill="none" r="0" stroke="none" stroke-width="0"/>
<circle cx="812" cy="318" fill="none" r="0" stroke="none" stroke-width="0"/>
<circle cx="208" cy="759" fill="none" r="0" stroke="none" stroke-width="0"/>
<circle cx="292" cy="732" fill="none" r="0" stroke="none" stroke-width="0"/>
<circle cx="299" cy="732" fill="none" r="0" stroke="none" stroke-width="0"/>
<circle cx="163" cy="688" fill="none" r="0" stroke="none" stroke-width="0"/>
<circle cx="347" cy="706" fill="none" r="0" stroke="none" stroke-width="0"/>
<circle cx="168" cy="661" fill="none" r="0" stroke="none" stroke-width="0"/>
<circle cx="371" cy="699" fill="none" r="0" stroke="none" stroke-width="0"/>
<circle cx="400" cy="679" fill="none" r="0" stroke="none" stroke-width="0"/>
<circle cx="426" cy="666" fill="none" r="0" stroke="none" stroke-width="0"/>
<circle cx="158" cy="599" fill="none" r="0" stroke="none" stroke-width="0"/>
<circle cx="158" cy="597" fill="none" r="0" stroke="none" stroke-width="0"/>
<circle cx="447" cy="649" fill="none" r="0" stroke="none" stroke-width="0"/>
<circle cx="471" cy="634" fill="none" r="0" stroke="none" stroke-width="0"/>
<circle cx="490" cy="615" fill="none" r="0" stroke="none" stroke-width="0"/>
<circle cx="508" cy="601" fill="none" r="0" stroke="none" stroke-width="0"/>
<circle cx="600" cy="564" fill="none" r="0" stroke="none" stroke-width="0"/>
<circle cx="551" cy="584" fill="none" r="0" stroke="none" stroke-width="0"/>
<circle cx="654" cy="536" fill="none" r="0" stroke="none" stroke-width="0"/>
<circle cx="489" cy="557" fill="none" r="0" stroke="none" stroke-width="0"/>
<circle cx="513" cy="595" fill="none" r="0" stroke="none" stroke-width="0"/>
<circle cx="716" cy="496" fill="none" r="0" stroke="none" stroke-width="0"/>
<circle cx="436" cy="469" fill="none" r="0" stroke="none" stroke-width="0"/>
<circle cx="525" cy="591" fill="none" r="0" stroke="none" stroke-width="0"/>
<circle cx="575" cy="572" fill="none" r="0" stroke="none" stroke-width="0"/>
<circle cx="625" cy="548" fill="none" r="0" stroke="none" stroke-width="0"/>
<circle cx="475" cy="525" fill="none" r="0" stroke="none" stroke-width="0"/>
<circle cx="675" cy="518" fill="none" r="0" stroke="none" stroke-width="0"/>
<circle cx="158" cy="539" fill="none" r="0" stroke="none" stroke-width="0"/>
<circle cx="725" cy="483" fill="none" r="0" stroke="none" stroke-width="0"/>
<circle cx="425" cy="424" fill="none" r="0" stroke="none" stroke-width="0"/>
<circle cx="785" cy="438" fill="none" r="0" stroke="none" stroke-width="0"/>
<circle cx="156" cy="530" fill="none" r="0" stroke="none" stroke-width="0"/>
<circle cx="375" cy="395" fill="none" r="0" stroke="none" stroke-width="0"/>
<circle cx="325" cy="405" fill="none" r="0" stroke="none" stroke-width="0"/>
<circle cx="425" cy="366" fill="none" r="0" stroke="none" stroke-width="0"/>
<circle cx="161" cy="483" fill="none" r="0" stroke="none" stroke-width="0"/>
<circle cx="785" cy="362" fill="none" r="0" stroke="none" stroke-width="0"/>
<circle cx="160" cy="473" fill="none" r="0" stroke="none" stroke-width="0"/>
<circle cx="287" cy="398" fill="none" r="0" stroke="none" stroke-width="0"/>
<circle cx="220" cy="402" fill="none" r="0" stroke="none" stroke-width="0"/>
<circle cx="168" cy="430" fill="none" r="0" stroke="none" stroke-width="0"/>
<circle cx="169" cy="423" fill="none" r="0" stroke="none" stroke-width="0"/>
<circle cx="725" cy="317" fill="none" r="0" stroke="none" stroke-width="0"/>
<circle cx="186" cy="399" fill="none" r="0" stroke="none" stroke-width="0"/>
<circle cx="716" cy="304" fill="none" r="0" stroke="none" stroke-width="0"/>
<circle cx="453" cy="302" fill="none" r="0" stroke="none" stroke-width="0"/>
<circle cx="175" cy="399" fill="none" r="0" stroke="none" stroke-width="0"/>
<circle cx="168" cy="377" fill="none" r="0" stroke="none" stroke-width="0"/>
<circle cx="166" cy="352" fill="none" r="0" stroke="none" stroke-width="0"/>
<circle cx="675" cy="282" fill="none" r="0" stroke="none" stroke-width="0"/>
<circle cx="160" cy="327" fill="none" r="0" stroke="none" stroke-width="0"/>
<circle cx="475" cy="274" fill="none" r="0" stroke="none" stroke-width="0"/>
<circle cx="160" cy="298" fill="none" r="0" stroke="none" stroke-width="0"/>
<circle cx="654" cy="264" fill="none" r="0" stroke="none" stroke-width="0"/>
<circle cx="155" cy="269" fill="none" r="0" stroke="none" stroke-width="0"/>
<circle cx="159" cy="241" fill="none" r="0" stroke="none" stroke-width="0"/>
<circle cx="625" cy="252" fill="none" r="0" stroke="none" stroke-width="0"/>
<circle cx="157" cy="200" fill="none" r="0" stroke="none" stroke-width="0"/>
<circle cx="163" cy="181" fill="none" r="0" stroke="none" stroke-width="0"/>
<circle cx="600" cy="236" fill="none" r="0" stroke="none" stroke-width="0"/>
<circle cx="167" cy="121" fill="none" r="0" stroke="none" stroke-width="0"/>
<circle cx="575" cy="228" fill="none" r="0" stroke="none" stroke-width="0"/>
<circle cx="165" cy="114" fill="none" r="0" stroke="none" stroke-width="0"/>
<circle cx="551" cy="216" fill="none" r="0" stroke="none" stroke-width="0"/>
<circle cx="506" cy="214" fill="none" r="0" stroke="none" stroke-width="0"/>
<circle cx="525" cy="209" fill="none" r="0" stroke="none" stroke-width="0"/>
<circle cx="512" cy="205" fill="none" r="0" stroke="none" stroke-width="0"/>
<circle cx="266" cy="63" fill="none" r="0" stroke="none" stroke-width="0"/>
<circle cx="508" cy="199" fill="none" r="0" stroke="none" stroke-width="0"/>
<circle cx="477" cy="173" fill="none" r="0" stroke="none" stroke-width="0"/>
<circle cx="471" cy="167" fill="none" r="0" stroke="none" stroke-width="0"/>
<circle cx="328" cy="86" fill="none" r="0" stroke="none" stroke-width="0"/>
<circle cx="201" cy="27" fill="none" r="0" stroke="none" stroke-width="0"/>
<circle cx="298" cy="65" fill="none" r="0" stroke="none" stroke-width="0"/>
<circle cx="433" cy="140" fill="none" r="0" stroke="none" stroke-width="0"/>
<circle cx="383" cy="111" fill="none" r="0" stroke="none" stroke-width="0"/>
<circle cx="426" cy="134" fill="none" r="0" stroke="none" stroke-width="0"/>
<circle cx="371" cy="101" fill="none" r="0" stroke="none" stroke-width="0"/>
<circle cx="0" cy="0" fill="none" r="0" stroke="none" stroke-width="0"/>
<circle cx="800" cy="0" fill="none" r="0" stroke="none" stroke-width="0"/>
<circle cx="800" cy="800" fill="none" r="0" stroke="none" stroke-width="0"/>
<circle cx="0" cy="800" fill="none" r="0" stroke="none" stroke-width="0"/>
<circle cx="800" cy="361" fill="none" r="0" stroke="none" stroke-width="0"/>
<circle cx="800" cy="439" fill="none" r="0" stroke="none" stroke-width="0"/>
<circle cx="800" cy="521" fill="none" r="0" stroke="none" stroke-width="0"/>
<circle cx="800" cy="614" fill="none" r="0" stroke="none" stroke-width="0"/>
<circle cx="800" cy="728" fill="none" r="0" stroke="none" stroke-width="0"/>
<circle cx="728" cy="800" fill="none" r="0" stroke="none" stroke-width="0"/>
<circle cx="614" cy="800" fill="none" r="0" stroke="none" stroke-width="0"/>
<circle cx="521" cy="800" fill="none" r="0" stroke="none" stroke-width="0"/>
<circle cx="439" cy="800" fill="none" r="0" stroke="none" stroke-width="0"/>
<circle cx="361" cy="800" fill="none" r="0" stroke="none" stroke-width="0"/>
<circle cx="279" cy="800" fill="none" r="0" stroke="none" stroke-width="0"/>
<circle cx="186" cy="800" fill="none" r="0" stroke="none" stroke-width="0"/>
<circle cx="72" cy="800" fill="none" r="0" stroke="none" stroke-width="0"/>
<circle cx="0" cy="728" fill="none" r="0" stroke="none" stroke-width="0"/>
<circle cx="0" cy="614" fill="none" r="0" stroke="none" stroke-width="0"/>
<circle cx="0" cy="521" fill="none" r="0" stroke="none" stroke-width="0"/>
<circle cx="0" cy="439" fill="none" r="0" stroke="none" stroke-width="0"/>
<circle cx="0" cy="361" fill="none" r="0" stroke="none" stroke-width="0"/>
<circle cx="0" cy="279" fill="none" r="0" stroke="none" stroke-width="0"/>
<circle cx="0" cy="186" fill="none" r="0" stroke="none" stroke-width="0"/>
<circle cx="0" cy="72" fill="none" r="0" stroke="none" stroke-width="0"/>
<circle cx="72" cy="0" fill="none" r="0" stroke="none" stroke-width="0"/>
<circle cx="186" cy="0" fill="none" r="0" stroke="none" stroke-width="0"/>
<circle cx="279" cy="0" fill="none" r="0" stroke="none" stroke-width="0"/>
<circle cx="361" cy="0" fill="none" r="0" stroke="none" stroke-width="0"/>
<circle cx="439" cy="0" fill="none" r="0" stroke="none" stroke-width="0"/>
<circle cx="521" cy="0" fill="none" r="0" stroke="none" stroke-width="0"/>
<circle cx="614" cy="0" fill="none" r="0" stroke="none" stroke-width="0"/>
<circle cx="728" cy="0" fill="none" r="0" stroke="none" stroke-width="0"/>
<circle cx="800" cy="72" fill="none" r="0" stroke="none" stroke-width="0"/>
<circle cx="800" cy="186" fill="none" r="0" stroke="none" stroke-width="0"/>
<circle cx="800" cy="279" fill="none" r="0" stroke="none" stroke-width="0"/>
</svg>