<svg 
            xmlns:xlink="http://www.w3.org/1999/xlink" viewBox="0 0 800 800" xmlns="http://www.w3.org/2000/svg">
<rect fill="#120E04" height="800" stroke="none" width="800" x="0" y="0"/>
<path d="M393,384 L423,391 L418,406 L390,404 z" fill="none" stroke="none" stroke-width="0"/>
<linearGradient id="gradient_face0" x1="0" x2="1.01" y1="0" y2="1.01">
<stop offset="0%" stop-color="#603C14FF"/>
<stop offset="100%" stop-color="#603C14FF"/>
</linearGradient>
<path d="M402.9552,391.45718 L410.7076,393.26608 Q416.52194,394.62277,415.9106,396.4568 L415.0955,398.90213 Q414.48416,400.7361,408.8628,400.3346 L401.36765,399.79922 Q395.74628,399.3977,396.16464,396.60855 L396.72247,392.88968 Q397.14087,390.1005,402.9552,391.45718 z" fill="url(#gradient_face0)" stroke="none" stroke-width="0"/>
<path d="M378,421 L390,404 L418,406 L417,439 z" fill="none" stroke="none" stroke-width="0"/>
<linearGradient id="gradient_face1" x1="0" x2="1.01" y1="0" y2="1.01">
<stop offset="0%" stop-color="#902A08FF"/>
<stop offset="100%" stop-color="#9B2706FF"/>
</linearGradient>
<path d="M387.62112,416.04034 L390.38498,412.1249 Q392.45786,409.1883,398.57758,409.62543 L406.7372,410.20825 Q412.85693,410.6454,412.66925,416.83942 L412.41898,425.09814 Q412.23126,431.2922,404.22635,427.59763 L393.55313,422.6715 Q385.54822,418.97696,387.62112,416.04034 z" fill="url(#gradient_face1)" stroke="none" stroke-width="0"/>
<path d="M377,368 L393,384 L390,404 L378,421 L343,422 L341,421 z" fill="none" stroke="none" stroke-width="0"/>
<linearGradient id="gradient_face2" x1="0" x2="1.01" y1="0" y2="1.01">
<stop offset="0%" stop-color="#BE470DFF"/>
<stop offset="100%" stop-color="#D25911FF"/>
</linearGradient>
<path d="M380.72183,378.7929 L384.69864,382.76968 Q387.6812,385.7523,386.94623,390.65225 L385.96625,397.18552 Q385.23123,402.08548,382.26907,406.28186 L378.31952,411.87708 Q375.35736,416.07346,365.98395,416.34128 L353.48608,416.69836 Q344.11267,416.96616,345.3828,417.60123 L347.07632,418.448 Q348.34644,419.08304,357.16428,406.10123 L368.92142,388.79214 Q377.73926,375.8103,380.72183,378.7929 z" fill="url(#gradient_face2)" stroke="none" stroke-width="0"/>
<path d="M376,339 L383,324 L441,376 L423,391 L393,384 L377,368 z" fill="none" stroke="none" stroke-width="0"/>
<linearGradient id="gradient_face3" x1="0" x2="1.01" y1="0" y2="1.01">
<stop offset="0%" stop-color="#E1841EFF"/>
<stop offset="100%" stop-color="#F2B92DFF"/>
</linearGradient>
<path d="M382.13107,337.68552 L383.58798,334.56357 Q384.68066,332.2221,399.28317,345.314 L418.75317,362.76984 Q433.35565,375.86176,429.86246,378.77274 L425.20486,382.65408 Q421.71167,385.5651,413.85602,383.7321 L403.38184,381.28812 Q395.5262,379.45514,391.44708,375.376 L386.00824,369.93716 Q381.9291,365.85803,381.6619,358.10873 L381.3056,347.7763 Q381.0384,340.02698,382.13107,337.68552 z" fill="url(#gradient_face3)" stroke="none" stroke-width="0"/>
<path d="M493,388 L494,390 L423,450 L417,439 L418,406 L423,391 L441,376 L467,375 z" fill="none" stroke="none" stroke-width="0"/>
<linearGradient id="gradient_face4" x1="0" x2="1.01" y1="0" y2="1.01">
<stop offset="0%" stop-color="#CFA32CFF"/>
<stop offset="100%" stop-color="#645826FF"/>
</linearGradient>
<path d="M488.82205,390.82446 L488.22052,389.62137 Q487.76935,388.71906,468.77487,404.77075 L443.44885,426.173 Q424.45438,442.2247,423.72968,440.89612 L422.76346,439.1247 Q422.0388,437.7961,422.3198,428.52277 L422.69446,416.1583 Q422.97546,406.88495,424.27094,402.99863 L425.99817,397.81686 Q427.2936,393.9305,431.97348,390.03064 L438.21332,384.83078 Q442.8932,380.93088,449.7985,380.66528 L459.00555,380.3112 Q465.91083,380.0456,472.91956,383.54996 L482.2645,388.2224 Q489.27322,391.72678,488.82205,390.82446 z" fill="url(#gradient_face4)" stroke="none" stroke-width="0"/>
<path d="M343,422 L378,421 L417,439 L423,450 L423,474 L410,500 L398,509 z" fill="none" stroke="none" stroke-width="0"/>
<linearGradient id="gradient_face5" x1="0" x2="1.01" y1="0" y2="1.01">
<stop offset="0%" stop-color="#5F5225FF"/>
<stop offset="100%" stop-color="#5F3D14FF"/>
</linearGradient>
<path d="M359.43256,426.53253 L369.45395,426.24622 Q376.97,426.03146,387.8998,431.076 L402.47287,437.80203 Q413.40268,442.84656,414.7819,445.3751 L416.62082,448.74646 Q418,451.27496,418,457.73837 L418,466.35626 Q418,472.81967,414.41672,479.98624 L409.639,489.54163 Q406.05573,496.7082,404.03876,498.22095 L401.34943,500.2379 Q399.33243,501.75067,385.10767,479.24966 L366.1413,449.2483 Q351.9165,426.74728,359.43256,426.53253 z" fill="url(#gradient_face5)" stroke="none" stroke-width="0"/>
<path d="M277,384 L376,339 L377,368 L341,421 L319,421 L293,407 z" fill="none" stroke="none" stroke-width="0"/>
<linearGradient id="gradient_face6" x1="0" x2="1.01" y1="0" y2="1.01">
<stop offset="0%" stop-color="#5F3F16FF"/>
<stop offset="100%" stop-color="#982806FF"/>
</linearGradient>
<path d="M310.5495,374.24252 L345.2416,358.4734 Q371.2607,346.6465,371.4665,352.61484 L371.7409,360.5726 Q371.94672,366.54092,361.86826,381.37863 L348.43033,401.16226 Q338.35187,416,332.92447,416 L325.68796,416 Q320.2606,416,313.1091,412.1492 L303.5738,407.0148 Q296.42233,403.164,292.85474,398.0356 L288.098,391.19778 Q284.5304,386.06937,310.5495,374.24252 z" fill="url(#gradient_face6)" stroke="none" stroke-width="0"/>
<path d="M431,266 L433,266 L467,375 L441,376 L383,324 L384,313 L399,287 z" fill="none" stroke="none" stroke-width="0"/>
<linearGradient id="gradient_face7" x1="0" x2="1.01" y1="0" y2="1.01">
<stop offset="0%" stop-color="#882D0AFF"/>
<stop offset="100%" stop-color="#D05711FF"/>
</linearGradient>
<path d="M431.5425,271 L430.27365,271 Q429.32202,271,438.61008,300.7764 L450.99414,340.47827 Q460.2822,370.25467,455.04672,370.45605 L448.06604,370.72452 Q442.83057,370.9259,426.44342,356.23398 L404.59387,336.64474 Q388.20673,321.95282,388.4087,319.73105 L388.678,316.76868 Q388.88,314.5469,393.03708,307.34128 L398.5799,297.73376 Q402.73697,290.52814,411.66412,284.66968 L423.567,276.85843 Q432.4941,271,431.5425,271 z" fill="url(#gradient_face7)" stroke="none" stroke-width="0"/>
<path d="M494,390 L519,405 L540,439 L541,453 L423,474 L423,450 z" fill="none" stroke="none" stroke-width="0"/>
<linearGradient id="gradient_face8" x1="0" x2="1.01" y1="0" y2="1.01">
<stop offset="0%" stop-color="#B63F0BFF"/>
<stop offset="100%" stop-color="#F0B42BFF"/>
</linearGradient>
<path d="M500.762,399.88815 L509.11795,404.90173 Q515.38495,408.66193,521.29956,418.2379 L529.18567,431.00595 Q535.1003,440.58197,535.2778,443.0672 L535.51447,446.38086 Q535.69196,448.8661,503.3844,454.61575 L460.3076,462.28195 Q428,468.03162,428,463.3184 L428,457.03412 Q428,452.32092,447.9485,435.463 L474.5465,412.98584 Q494.495,396.12796,500.762,399.88815 z" fill="url(#gradient_face8)" stroke="none" stroke-width="0"/>
<path d="M319,421 L341,421 L343,422 L398,509 L387,525 L351,545 L326,545 z" fill="none" stroke="none" stroke-width="0"/>
<linearGradient id="gradient_face9" x1="0" x2="1.01" y1="0" y2="1.01">
<stop offset="0%" stop-color="#DC771AFF"/>
<stop offset="100%" stop-color="#6C5D26FF"/>
</linearGradient>
<path d="M328.94907,426 L335.16083,426 Q339.81967,426,339.7292,425.95474 L339.60852,425.89444 Q339.51804,425.84918,355.26614,450.75983 L376.26358,483.97397 Q392.0117,508.88458,389.4717,512.5791 L386.0851,517.50507 Q383.54514,521.1996,373.3929,526.8397 L359.8566,534.35986 Q349.70438,540,344.01077,540 L336.4193,540 Q330.7257,540,328.79504,505.8 L326.22086,460.2 Q324.29022,426,328.94907,426 z" fill="url(#gradient_face9)" stroke="none" stroke-width="0"/>
<path d="M251,339 L252,305 L384,313 L383,324 L376,339 L277,384 L270,378 z" fill="none" stroke="none" stroke-width="0"/>
<linearGradient id="gradient_face10" x1="0" x2="1.01" y1="0" y2="1.01">
<stop offset="0%" stop-color="#603C14FF"/>
<stop offset="100%" stop-color="#603C14FF"/>
</linearGradient>
<path d="M256.27768,329.63254 L256.60254,318.58704 Q256.8462,310.3029,293.35855,312.51575 L342.04166,315.46625 Q378.55402,317.6791,378.4177,319.17856 L378.23593,321.17783 Q378.09964,322.67725,376.34473,326.43777 L374.00485,331.45178 Q372.24997,335.21228,343.925,348.08725 L306.15833,365.2539 Q277.83334,378.1289,276.69565,377.15372 L275.17868,375.8535 Q274.04095,374.8783,268.6389,363.78983 L261.4361,349.00516 Q256.03403,337.9167,256.27768,329.63254 z" fill="url(#gradient_face10)" stroke="none" stroke-width="0"/>
<path d="M473,248 L517,252 L493,388 L467,375 L433,266 z" fill="none" stroke="none" stroke-width="0"/>
<linearGradient id="gradient_face11" x1="0" x2="1.01" y1="0" y2="1.01">
<stop offset="0%" stop-color="#902A08FF"/>
<stop offset="100%" stop-color="#9B2706FF"/>
</linearGradient>
<path d="M485.03757,254.11494 L499.94803,255.47044 Q511.13092,256.48706,504.5639,293.70004 L495.80792,343.31732 Q489.24094,380.5303,483.8105,377.81506 L476.56992,374.1948 Q471.1395,371.47958,461.52545,340.65808 L448.7067,299.56274 Q439.09265,268.74124,449.52127,264.04837 L463.4261,257.7912 Q473.85468,253.09831,485.03757,254.11494 z" fill="url(#gradient_face11)" stroke="none" stroke-width="0"/>
<path d="M541,453 L554,486 L546,540 L410,500 L423,474 z" fill="none" stroke="none" stroke-width="0"/>
<linearGradient id="gradient_face12" x1="0" x2="1.01" y1="0" y2="1.01">
<stop offset="0%" stop-color="#BE470DFF"/>
<stop offset="100%" stop-color="#D25911FF"/>
</linearGradient>
<path d="M541.1508,467.02448 L545.555,478.2043 Q548.85815,486.58923,546.7696,500.68683 L543.98486,519.48364 Q541.89636,533.58124,504.47104,522.5738 L454.57062,507.89722 Q417.1453,496.88977,419.90637,491.3676 L423.5878,484.00473 Q426.34888,478.48257,459.79852,472.52966 L504.39804,464.59247 Q537.84766,458.63956,541.1508,467.02448 z" fill="url(#gradient_face12)" stroke="none" stroke-width="0"/>
<path d="M293,407 L319,421 L326,545 L301,554 L242,543 L238,539 z" fill="none" stroke="none" stroke-width="0"/>
<linearGradient id="gradient_face13" x1="0" x2="1.01" y1="0" y2="1.01">
<stop offset="0%" stop-color="#E1841EFF"/>
<stop offset="100%" stop-color="#F2B92DFF"/>
</linearGradient>
<path d="M301.09375,417.03696 L308.56342,421.05908 Q314.16568,424.07568,316.1553,459.3206 L318.80814,506.31378 Q320.79776,541.55865,314.73328,543.7419 L306.64728,546.65283 Q300.5828,548.83606,283.7399,545.69586 L261.28268,541.5089 Q244.43979,538.3687,244.27882,538.20776 L244.06421,537.99316 Q243.90326,537.8322,259.37973,500.68863 L280.01505,451.1639 Q295.49152,414.02036,301.09375,417.03696 z" fill="url(#gradient_face13)" stroke="none" stroke-width="0"/>
<path d="M262,226 L271,217 L399,287 L384,313 L252,305 L247,287 z" fill="none" stroke="none" stroke-width="0"/>
<linearGradient id="gradient_face14" x1="0" x2="1.01" y1="0" y2="1.01">
<stop offset="0%" stop-color="#CFA32CFF"/>
<stop offset="100%" stop-color="#645826FF"/>
</linearGradient>
<path d="M268.13165,226.93942 L270.27762,224.79344 Q271.8871,223.18398,307.95477,242.9085 L356.04504,269.20786 Q392.11273,288.93237,388.84338,294.59927 L384.48422,302.15512 Q381.21484,307.82202,343.60928,305.5429 L293.4685,302.50406 Q255.86292,300.22495,254.75441,296.23434 L253.27641,290.9135 Q252.16791,286.9229,256.47418,269.4107 L262.21588,246.0611 Q266.5222,228.54889,268.13165,226.93942 z" fill="url(#gradient_face14)" stroke="none" stroke-width="0"/>
<path d="M517,252 L528,250 L590,269 L604,284 L519,405 L494,390 L493,388 z" fill="none" stroke="none" stroke-width="0"/>
<linearGradient id="gradient_face15" x1="0" x2="1.01" y1="0" y2="1.01">
<stop offset="0%" stop-color="#5F5225FF"/>
<stop offset="100%" stop-color="#5F3D14FF"/>
</linearGradient>
<path d="M523.23267,255.94876 L525.7842,255.48485 Q527.6978,255.13692,545.56555,260.6125 L569.38916,267.91327 Q587.25684,273.3889,590.3528,276.7059 L594.48065,281.12863 Q597.57654,284.44568,573.5785,318.60764 L541.58105,364.1569 Q517.583,398.31885,511.6544,394.7617 L503.7496,390.0188 Q497.82098,386.46164,497.93802,386.69568 L498.09406,387.00775 Q498.21106,387.2418,505.14343,347.95825 L514.38666,295.58023 Q521.31903,256.2967,523.23267,255.94876 z" fill="url(#gradient_face15)" stroke="none" stroke-width="0"/>
<path d="M398,509 L410,500 L546,540 L546,543 L523,606 L501,623 L387,525 z" fill="none" stroke="none" stroke-width="0"/>
<linearGradient id="gradient_face16" x1="0" x2="1.01" y1="0" y2="1.01">
<stop offset="0%" stop-color="#5F3F16FF"/>
<stop offset="100%" stop-color="#982806FF"/>
</linearGradient>
<path d="M404.45737,510.40698 L408.19278,507.6054 Q410.99435,505.50424,449.99603,516.97534 L501.9983,532.2701 Q541,543.7412,541,543.2536 L541,542.60345 Q541,542.11584,534.33966,560.3593 L525.4592,584.68396 Q518.79895,602.9274,513.50977,607.0145 L506.4575,612.464 Q501.1683,616.55115,468.91666,588.82605 L425.91452,551.85925 Q393.6629,524.1342,396.06076,520.64636 L399.25793,515.996 Q401.6558,512.5082,404.45737,510.40698 z" fill="url(#gradient_face16)" stroke="none" stroke-width="0"/>
<path d="M270,378 L277,384 L293,407 L238,539 L178,513 L159,484 z" fill="none" stroke="none" stroke-width="0"/>
<linearGradient id="gradient_face17" x1="0" x2="1.01" y1="0" y2="1.01">
<stop offset="0%" stop-color="#882D0AFF"/>
<stop offset="100%" stop-color="#D05711FF"/>
</linearGradient>
<path d="M271.10498,385.5325 L272.33676,386.58832 Q273.2606,387.3802,277.48166,393.44797 L283.10974,401.53833 Q287.33078,407.6061,271.73206,445.04303 L250.93376,494.95898 Q235.33504,532.39594,219.14307,525.3794 L197.55377,516.02405 Q181.3618,509.0075,176.59227,501.7277 L170.23288,492.02127 Q165.46333,484.74146,196.87868,454.7412 L238.76581,414.7409 Q270.18115,384.74066,271.10498,385.5325 z" fill="url(#gradient_face17)" stroke="none" stroke-width="0"/>
<path d="M298,163 L335,142 L431,266 L399,287 L271,217 z" fill="none" stroke="none" stroke-width="0"/>
<linearGradient id="gradient_face18" x1="0" x2="1.01" y1="0" y2="1.01">
<stop offset="0%" stop-color="#B63F0BFF"/>
<stop offset="100%" stop-color="#F0B42BFF"/>
</linearGradient>
<path d="M311.36386,161.1643 L324.12692,153.92041 Q333.69925,148.48747,360.7105,183.37701 L396.72552,229.89642 Q423.7368,264.78598,416.2455,269.70212 L406.25714,276.257 Q398.76587,281.17313,362.42435,261.29883 L313.96896,234.7998 Q277.6274,214.92552,284.87665,200.42703 L294.5423,181.09572 Q301.79153,166.59724,311.36386,161.1643 z" fill="url(#gradient_face18)" stroke="none" stroke-width="0"/>
<path d="M604,284 L652,312 L673,355 L540,439 L519,405 z" fill="none" stroke="none" stroke-width="0"/>
<linearGradient id="gradient_face19" x1="0" x2="1.01" y1="0" y2="1.01">
<stop offset="0%" stop-color="#DC771AFF"/>
<stop offset="100%" stop-color="#6C5D26FF"/>
</linearGradient>
<path d="M618.26654,298.1107 L635.3554,308.07916 Q648.172,315.5555,653.68243,326.83875 L661.0296,341.88303 Q666.54004,353.16623,629.05804,376.83908 L579.08203,408.40286 Q541.60004,432.07568,536.6159,424.00607 L529.9703,413.24655 Q524.9861,405.1769,549.12524,370.81415 L581.3108,324.9971 Q605.44995,290.6343,618.26654,298.1107 z" fill="url(#gradient_face19)" stroke="none" stroke-width="0"/>
<path d="M351,545 L387,525 L501,623 L473,666 L422,686 z" fill="none" stroke="none" stroke-width="0"/>
<linearGradient id="gradient_face20" x1="0" x2="1.01" y1="0" y2="1.01">
<stop offset="0%" stop-color="#603C14FF"/>
<stop offset="100%" stop-color="#603C14FF"/>
</linearGradient>
<path d="M366.25226,542.24634 L377.7553,535.8557 Q386.3826,531.0628,418.79443,558.9256 L462.01022,596.07605 Q494.42206,623.93884,487.00058,635.3361 L477.1053,650.5325 Q469.6838,661.92975,456.1036,667.2553 L437.9967,674.3561 Q424.41653,679.68164,404.37906,639.8889 L377.66245,586.832 Q357.62497,547.03925,366.25226,542.24634 z" fill="url(#gradient_face20)" stroke="none" stroke-width="0"/>
<path d="M251,339 L270,378 L159,484 L121,456 L102,398 z" fill="none" stroke="none" stroke-width="0"/>
<linearGradient id="gradient_face21" x1="0" x2="1.01" y1="0" y2="1.01">
<stop offset="0%" stop-color="#902A08FF"/>
<stop offset="100%" stop-color="#9B2706FF"/>
</linearGradient>
<path d="M253.14532,354.8199 L259.29395,367.44077 Q263.90543,376.9064,232.30916,407.0794 L190.1808,447.3101 Q158.58453,477.48312,148.58525,470.11523 L135.2529,460.29138 Q125.25363,452.9235,120.142555,437.32126 L113.32779,416.5183 Q108.21671,400.91608,150.31186,384.24753 L206.43872,362.0228 Q248.53386,345.35425,253.14532,354.8199 z" fill="url(#gradient_face21)" stroke="none" stroke-width="0"/>
<path d="M362,108 L428,92 L473,248 L433,266 L431,266 L335,142 z" fill="none" stroke="none" stroke-width="0"/>
<linearGradient id="gradient_face22" x1="0" x2="1.01" y1="0" y2="1.01">
<stop offset="0%" stop-color="#BE470DFF"/>
<stop offset="100%" stop-color="#D25911FF"/>
</linearGradient>
<path d="M382.75015,108.11449 L406.62054,102.32773 Q424.52335,97.987656,437.2646,142.15727 L454.2529,201.0501 Q466.99414,245.21971,456.47394,249.9538 L442.44702,256.2659 Q431.92682,261,432.3845,261 L432.9947,261 Q433.45236,261,405.82275,225.31175 L368.98328,177.72743 Q341.35367,142.0392,348.40176,133.1638 L357.79926,121.32995 Q364.84735,112.45456,382.75015,108.11449 z" fill="url(#gradient_face22)" stroke="none" stroke-width="0"/>
<path d="M673,355 L715,394 L721,432 L715,455 L554,486 L541,453 L540,439 z" fill="none" stroke="none" stroke-width="0"/>
<linearGradient id="gradient_face23" x1="0" x2="1.01" y1="0" y2="1.01">
<stop offset="0%" stop-color="#E1841EFF"/>
<stop offset="100%" stop-color="#F2B92DFF"/>
</linearGradient>
<path d="M683.7912,371.8436 L698.9567,385.92584 Q710.3308,396.48755,712.0011,407.0658 L714.2281,421.1701 Q715.8983,431.74832,714.4162,437.42978 L712.44006,445.005 Q710.95795,450.68643,664.80975,459.5721 L603.2788,471.41968 Q557.1306,480.30536,553.77124,471.7777 L549.2921,460.40753 Q545.93274,451.87988,545.7131,448.8047 L545.42017,444.7044 Q545.20056,441.62918,583.3655,417.525 L634.25214,385.38608 Q672.41705,361.28192,683.7912,371.8436 z" fill="url(#gradient_face23)" stroke="none" stroke-width="0"/>
<path d="M326,545 L351,545 L422,686 L390,717 L368,723 L317,715 L301,554 z" fill="none" stroke="none" stroke-width="0"/>
<linearGradient id="gradient_face24" x1="0" x2="1.01" y1="0" y2="1.01">
<stop offset="0%" stop-color="#CFA32CFF"/>
<stop offset="100%" stop-color="#645826FF"/>
</linearGradient>
<path d="M333.1867,550 L341.6055,550 Q347.91962,550,368.3081,590.4898 L395.49277,644.47626 Q415.88126,684.96606,407.35016,693.2306 L395.97537,704.2499 Q387.44427,712.5144,381.52615,714.1284 L373.63535,716.28046 Q367.71722,717.89453,353.88004,715.72394 L335.43045,712.8299 Q321.59326,710.65936,317.02356,664.6768 L310.93063,603.36676 Q306.36096,557.3842,312.51443,555.16895 L320.7191,552.2153 Q326.8726,550,333.1867,550 z" fill="url(#gradient_face24)" stroke="none" stroke-width="0"/>
<path d="M82,303 L90,288 L247,287 L252,305 L251,339 L102,398 L78,370 L77,368 z" fill="none" stroke="none" stroke-width="0"/>
<linearGradient id="gradient_face25" x1="0" x2="1.01" y1="0" y2="1.01">
<stop offset="0%" stop-color="#5F5225FF"/>
<stop offset="100%" stop-color="#5F3D14FF"/>
</linearGradient>
<path d="M88.73648,300.9941 L91.17859,296.41513 Q93.01017,292.98093,138.06902,292.69394 L198.14748,292.31125 Q243.20631,292.02426,244.3384,296.09976 L245.84784,301.53375 Q246.97992,305.60925,246.71562,314.59537 L246.36322,326.57684 Q246.09892,335.563,203.31181,352.50552 L146.26233,375.09558 Q103.47522,392.03815,97.09171,384.5907 L88.58037,374.6608 Q82.19686,367.21338,82.16525,367.15018 L82.1231,367.06586 Q82.09149,367.00266,83.535515,348.23035 L85.46088,323.20062 Q86.9049,304.4283,88.73648,300.9941 z" fill="url(#gradient_face25)" stroke="none" stroke-width="0"/>
<path d="M443,81 L498,78 L540,97 L528,250 L517,252 L473,248 L428,92 z" fill="none" stroke="none" stroke-width="0"/>
<linearGradient id="gradient_face26" x1="0" x2="1.01" y1="0" y2="1.01">
<stop offset="0%" stop-color="#5F3F16FF"/>
<stop offset="100%" stop-color="#982806FF"/>
</linearGradient>
<path d="M460.44592,85.05584 L481.36386,83.914856 Q497.05234,83.05912,508.3589,88.17399 L523.43427,94.99381 Q534.74084,100.10867,531.31354,143.80695 L526.7438,202.0713 Q523.31647,245.76958,521.354,246.12639 L518.7375,246.60213 Q516.775,246.95892,504.79956,245.87025 L488.83224,244.41867 Q476.85675,243.33,463.93118,198.52136 L446.6971,138.77654 Q433.77155,93.9679,437.0673,91.551 L441.46167,88.32847 Q444.75745,85.911575,460.44592,85.05584 z" fill="url(#gradient_face26)" stroke="none" stroke-width="0"/>
<path d="M715,455 L722,498 L702,561 L695,568 L546,543 L546,540 L554,486 z" fill="none" stroke="none" stroke-width="0"/>
<linearGradient id="gradient_face27" x1="0" x2="1.01" y1="0" y2="1.01">
<stop offset="0%" stop-color="#882D0AFF"/>
<stop offset="100%" stop-color="#D05711FF"/>
</linearGradient>
<path d="M712.6862,471.9055 L715.07874,486.60236 Q716.8731,497.625,711.0921,515.83527 L703.38403,540.11566 Q697.603,558.3259,696.308,559.6209 L694.58136,561.3476 Q693.2864,562.6426,650.60046,555.4805 L593.6859,545.9311 Q551,538.76904,551,539.24884 L551,539.88855 Q551,540.36835,553.22797,525.3297 L556.19855,505.2782 Q558.4265,490.23953,604.1661,481.43253 L665.1522,469.68985 Q710.89185,460.88284,712.6862,471.9055 z" fill="url(#gradient_face27)" stroke="none" stroke-width="0"/>
<path d="M242,543 L301,554 L317,715 L303,718 L236,707 L205,681 z" fill="none" stroke="none" stroke-width="0"/>
<linearGradient id="gradient_face28" x1="0" x2="1.01" y1="0" y2="1.01">
<stop offset="0%" stop-color="#B63F0BFF"/>
<stop offset="100%" stop-color="#F0B42BFF"/>
</linearGradient>
<path d="M260.86063,551.60254 L281.1663,555.38837 Q296.3955,558.2277,300.95163,604.0736 L307.02646,665.2015 Q311.58255,711.04736,308.9709,711.607 L305.48865,712.3532 Q302.87695,712.91284,283.4627,709.72546 L257.57703,705.4756 Q238.16275,702.28815,229.91034,695.36676 L218.9071,686.13824 Q210.65468,679.21686,221.1477,640.08075 L235.13838,587.8993 Q245.6314,548.7632,260.86063,551.60254 z" fill="url(#gradient_face28)" stroke="none" stroke-width="0"/>
<path d="M129,178 L262,226 L247,287 L90,288 L92,235 z" fill="none" stroke="none" stroke-width="0"/>
<linearGradient id="gradient_face29" x1="0" x2="1.01" y1="0" y2="1.01">
<stop offset="0%" stop-color="#DC771AFF"/>
<stop offset="100%" stop-color="#6C5D26FF"/>
</linearGradient>
<path d="M168.54486,197.5875 L218.55933,215.63782 Q256.07016,229.17557,252.17145,245.03036 L246.97316,266.1701 Q243.07443,282.0249,198.71014,282.30746 L139.55777,282.68423 Q95.19349,282.96683,95.71878,269.0466 L96.41917,250.4863 Q96.94446,236.56609,107.171326,220.81119 L120.80715,199.80464 Q131.03401,184.04974,168.54486,197.5875 z" fill="url(#gradient_face29)" stroke="none" stroke-width="0"/>
<path d="M540,97 L563,95 L627,123 L644,151 L590,269 L528,250 z" fill="none" stroke="none" stroke-width="0"/>
<linearGradient id="gradient_face30" x1="0" x2="1.01" y1="0" y2="1.01">
<stop offset="0%" stop-color="#603C14FF"/>
<stop offset="100%" stop-color="#603C14FF"/>
</linearGradient>
<path d="M549.9065,101.15743 L556.91046,100.54839 Q562.1635,100.091606,580.5785,108.14818 L605.1319,118.890274 Q623.5469,126.946846,627.988,134.26161 L633.9095,144.01462 Q638.3506,151.32939,623.0283,184.81133 L602.5987,229.4539 Q587.2764,262.93585,571.08295,257.97333 L549.49164,251.35664 Q533.29816,246.39412,536.7048,202.96014 L541.2469,145.04819 Q544.65344,101.61422,549.9065,101.15743 z" fill="url(#gradient_face30)" stroke="none" stroke-width="0"/>
<path d="M546,543 L695,568 L680,630 L633,668 L523,606 z" fill="none" stroke="none" stroke-width="0"/>
<linearGradient id="gradient_face31" x1="0" x2="1.01" y1="0" y2="1.01">
<stop offset="0%" stop-color="#902A08FF"/>
<stop offset="100%" stop-color="#9B2706FF"/>
</linearGradient>
<path d="M591.1533,555.64594 L646.99585,565.0155 Q688.8777,572.04266,684.876,588.583 L679.5404,610.63684 Q675.5387,627.17725,662.62616,637.6171 L645.4095,651.53705 Q632.49695,661.9769,601.4935,644.50226 L560.15564,621.20276 Q529.1522,603.7281,535.188,587.1953 L543.2357,565.1516 Q549.2715,548.6188,591.1533,555.64594 z" fill="url(#gradient_face31)" stroke="none" stroke-width="0"/>
<path d="M178,513 L238,539 L242,543 L205,681 L172,678 L116,633 L112,610 z" fill="none" stroke="none" stroke-width="0"/>
<linearGradient id="gradient_face32" x1="0" x2="1.01" y1="0" y2="1.01">
<stop offset="0%" stop-color="#BE470DFF"/>
<stop offset="100%" stop-color="#D25911FF"/>
</linearGradient>
<path d="M196.40636,526.42535 L218.53871,536.01605 Q235.13799,543.20905,235.52345,543.59454 L236.0374,544.10846 Q236.42285,544.4939,225.87419,583.8376 L211.80931,636.2958 Q201.26065,675.63947,193.06914,674.8948 L182.14711,673.90186 Q173.9556,673.15717,157.94974,660.29535 L136.60861,643.1462 Q120.60277,630.28436,119.60385,624.5406 L118.27196,616.8822 Q117.27304,611.1384,136.03325,583.5666 L161.04688,546.80414 Q179.80708,519.23236,196.40636,526.42535 z" fill="url(#gradient_face32)" stroke="none" stroke-width="0"/>
<path d="M163,111 L213,93 L298,163 L271,217 L262,226 L129,178 L129,177 z" fill="none" stroke="none" stroke-width="0"/>
<linearGradient id="gradient_face33" x1="0" x2="1.01" y1="0" y2="1.01">
<stop offset="0%" stop-color="#E1841EFF"/>
<stop offset="100%" stop-color="#F2B92DFF"/>
</linearGradient>
<path d="M180.18608,110.127144 L198.3753,103.579025 Q212.01723,98.66793,235.93594,118.36569 L267.82755,144.62938 Q291.74628,164.32713,284.2896,179.24045 L274.34738,199.12488 Q266.89072,214.03821,265.03653,215.8924 L262.5643,218.36464 Q260.7101,220.21881,222.69708,206.49983 L172.01303,188.20784 Q134,174.48885,134,175.60585 L134,177.09518 Q134,178.21219,143.76324,159.26 L156.78091,133.99042 Q166.54416,115.03824,180.18608,110.127144 z" fill="url(#gradient_face33)" stroke="none" stroke-width="0"/>
<path d="M644,151 L690,162 L729,224 L727,235 L652,312 L604,284 L590,269 z" fill="none" stroke="none" stroke-width="0"/>
<linearGradient id="gradient_face34" x1="0" x2="1.01" y1="0" y2="1.01">
<stop offset="0%" stop-color="#CFA32CFF"/>
<stop offset="100%" stop-color="#645826FF"/>
</linearGradient>
<path d="M658.84106,159.68993 L674.84827,163.51773 Q686.8536,166.38857,697.9174,183.97723 L712.6692,207.42877 Q723.73303,225.01743,723.3192,227.29349 L722.76746,230.32826 Q722.3536,232.60432,700.99084,254.53676 L672.5072,283.77997 Q651.1445,305.7124,637.9473,298.01407 L620.35114,287.74963 Q607.154,280.0513,603.78973,276.44675 L599.3041,271.64066 Q595.9398,268.0361,611.20856,234.67099 L631.56696,190.18419 Q646.8357,156.81908,658.84106,159.68993 z" fill="url(#gradient_face34)" stroke="none" stroke-width="0"/>
<path d="M501,623 L523,606 L633,668 L632,683 L581,739 L534,737 L473,666 z" fill="none" stroke="none" stroke-width="0"/>
<linearGradient id="gradient_face35" x1="0" x2="1.01" y1="0" y2="1.01">
<stop offset="0%" stop-color="#5F5225FF"/>
<stop offset="100%" stop-color="#5F3D14FF"/>
</linearGradient>
<path d="M510.33942,622.102 L517.8218,616.3202 Q523.4335,611.9839,554.74396,629.63153 L596.49115,653.1618 Q627.8016,670.8095,627.5993,673.84406 L627.3295,677.89014 Q627.12726,680.9247,612.6522,696.81885 L593.35223,718.011 Q578.8772,733.90515,566.1278,733.3626 L549.12866,732.6392 Q536.3793,732.09674,519.2363,712.1435 L496.37912,685.5392 Q479.2362,665.58594,486.88364,653.8417 L497.08023,638.1826 Q504.72766,626.43835,510.33942,622.102 z" fill="url(#gradient_face35)" stroke="none" stroke-width="0"/>
<path d="M121,456 L159,484 L178,513 L112,610 L56,584 L45,512 z" fill="none" stroke="none" stroke-width="0"/>
<linearGradient id="gradient_face36" x1="0" x2="1.01" y1="0" y2="1.01">
<stop offset="0%" stop-color="#5F3F16FF"/>
<stop offset="100%" stop-color="#982806FF"/>
</linearGradient>
<path d="M131.29309,469.79514 L145.01723,479.90765 Q155.31032,487.49203,160.31364,495.1287 L166.98474,505.31088 Q171.98805,512.9475,153.46802,540.1664 L128.77463,576.4582 Q110.25459,603.677,95.33952,596.75214 L75.45275,587.519 Q60.537678,580.5942,57.4961,560.68567 L53.440666,534.141 Q50.39909,514.2325,71.57936,498.62595 L99.819725,477.81726 Q121,462.21075,131.29309,469.79514 z" fill="url(#gradient_face36)" stroke="none" stroke-width="0"/>
<path d="M286,25 L324,47 L362,108 L335,142 L298,163 L213,93 L219,61 z" fill="none" stroke="none" stroke-width="0"/>
<linearGradient id="gradient_face37" x1="0" x2="1.01" y1="0" y2="1.01">
<stop offset="0%" stop-color="#882D0AFF"/>
<stop offset="100%" stop-color="#D05711FF"/>
</linearGradient>
<path d="M296.26105,36.718105 L310.0636,44.709057 Q320.41553,50.702274,331.05847,67.78702 L345.24908,90.566666 Q355.89203,107.651405,348.6308,116.795166 L338.9492,128.98685 Q331.68796,138.1306,321.7386,143.77754 L308.47275,151.30681 Q298.52338,156.95375,274.50397,137.17307 L242.47812,110.79883 Q218.45872,91.01815,219.96318,82.994415 L221.96912,72.29609 Q223.47357,64.272354,242.20424,54.20811 L267.17847,40.789127 Q285.90912,30.724888,296.26105,36.718105 z" fill="url(#gradient_face37)" stroke="none" stroke-width="0"/>
<path d="M652,312 L727,235 L788,282 L757,365 L715,394 L673,355 z" fill="none" stroke="none" stroke-width="0"/>
<linearGradient id="gradient_face38" x1="0" x2="1.01" y1="0" y2="1.01">
<stop offset="0%" stop-color="#B63F0BFF"/>
<stop offset="100%" stop-color="#F0B42BFF"/>
</linearGradient>
<path d="M678.8685,291.58096 L706.64374,263.06506 Q727.47516,241.67813,743.84,254.28711 L765.65985,271.0991 Q782.02466,283.70807,773.27704,307.12918 L761.6135,338.3573 Q752.8659,361.7784,741.64453,369.5265 L726.6828,379.85724 Q715.4614,387.6053,703.9483,376.91452 L688.5975,362.6602 Q677.08435,351.96942,671.3702,340.26895 L663.7513,324.66833 Q658.0371,312.9679,678.8685,291.58096 z" fill="url(#gradient_face38)" stroke="none" stroke-width="0"/>
<path d="M422,686 L473,666 L534,737 L518,788 L438,786 L390,717 z" fill="none" stroke="none" stroke-width="0"/>
<linearGradient id="gradient_face39" x1="0" x2="1.01" y1="0" y2="1.01">
<stop offset="0%" stop-color="#DC771AFF"/>
<stop offset="100%" stop-color="#6C5D26FF"/>
</linearGradient>
<path d="M438.7874,684.7874 L457.4922,677.4522 Q471.52075,671.9508,488.58398,691.8113 L511.33493,718.29193 Q528.3982,738.1524,524.1859,751.5789 L518.56964,769.4809 Q514.3574,782.90735,492.2475,782.3546 L462.7676,781.6176 Q440.6577,781.0649,427.41992,762.0356 L409.76953,736.66315 Q396.53177,717.63385,404.99988,709.4303 L416.2907,698.4923 Q424.75885,690.2888,438.7874,684.7874 z" fill="url(#gradient_face39)" stroke="none" stroke-width="0"/>
<path d="M0,461 L0,430 L78,370 L102,398 L121,456 L45,512 L35,511 z" fill="none" stroke="none" stroke-width="0"/>
<linearGradient id="gradient_face40" x1="0" x2="1.01" y1="0" y2="1.01">
<stop offset="0%" stop-color="#603C14FF"/>
<stop offset="100%" stop-color="#603C14FF"/>
</linearGradient>
<path d="M5,451.33533 L5,440.55057 Q5,432.462,26.686953,415.77972 L55.60289,393.5367 Q77.28984,376.85443,83.370155,383.94812 L91.47724,393.4064 Q97.55755,400.5001,102.82709,416.58603 L109.853134,438.03397 Q115.122665,454.1199,93.66077,469.93396 L65.04489,491.01932 Q43.582993,506.83337,41.84223,506.65927 L39.521214,506.4272 Q37.780453,506.2531,27.946318,492.20435 L14.834136,473.47266 Q5,459.4239,5,451.33533 z" fill="url(#gradient_face40)" stroke="none" stroke-width="0"/>
<path d="M344,0 L390,0 L435,43 L443,81 L428,92 L362,108 L324,47 z" fill="none" stroke="none" stroke-width="0"/>
<linearGradient id="gradient_face41" x1="0" x2="1.01" y1="0" y2="1.01">
<stop offset="0%" stop-color="#902A08FF"/>
<stop offset="100%" stop-color="#9B2706FF"/>
</linearGradient>
<path d="M359.5129,5 L375.78848,5 Q387.99518,5,400.7245,17.16357 L417.69693,33.381664 Q430.42624,45.545235,432.53125,55.544098 L435.33795,68.87592 Q437.443,78.87479,433.96503,81.42528 L429.3278,84.825935 Q425.84985,87.37643,407.39493,91.85034 L382.78836,97.81557 Q364.33344,102.28949,353.91922,85.5719 L340.03357,63.281776 Q329.61932,46.564186,334.92538,34.09493 L342.00015,17.469255 Q347.3062,5,359.5129,5 z" fill="url(#gradient_face41)" stroke="none" stroke-width="0"/>
<path d="M800,361 L800,439 L721,432 L715,394 L757,365 z" fill="none" stroke="none" stroke-width="0"/>
<linearGradient id="gradient_face42" x1="0" x2="1.01" y1="0" y2="1.01">
<stop offset="0%" stop-color="#120E04FF"/>
<stop offset="100%" stop-color="#120E04FF"/>
</linearGradient>
<path d="M795,386.6019 L795,413.42218 Q795,433.53738,774.099,431.6854 L746.23096,429.21606 Q725.32996,427.36407,723.8598,418.053 L721.89954,405.63828 Q720.4294,396.3272,731.93005,388.3863 L747.26434,377.79834 Q758.765,369.8574,769.6355,368.8462 L784.1295,367.49792 Q795,366.4867,795,386.6019 z" fill="url(#gradient_face42)" stroke="none" stroke-width="0"/>
<path d="M800,439 L800,521 L722,498 L715,455 L721,432 z" fill="none" stroke="none" stroke-width="0"/>
<linearGradient id="gradient_face43" x1="0" x2="1.01" y1="0" y2="1.01">
<stop offset="0%" stop-color="#120E04FF"/>
<stop offset="100%" stop-color="#120E04FF"/>
</linearGradient>
<path d="M795,464.79742 L795,493.09192 Q795,514.3128,774.42896,508.24698 L747.0009,500.1592 Q726.4299,494.09338,724.53235,482.43726 L722.0023,466.89575 Q720.1048,455.23962,721.5046,449.87384 L723.371,442.71948 Q724.7707,437.3537,745.8395,439.22055 L773.9312,441.7097 Q795,443.57654,795,464.79742 z" fill="url(#gradient_face43)" stroke="none" stroke-width="0"/>
<path d="M800,521 L800,614 L702,561 L722,498 z" fill="none" stroke="none" stroke-width="0"/>
<linearGradient id="gradient_face44" x1="0" x2="1.01" y1="0" y2="1.01">
<stop offset="0%" stop-color="#120E04FF"/>
<stop offset="100%" stop-color="#120E04FF"/>
</linearGradient>
<path d="M795,549.0004 L795,581.3496 Q795,605.6116,768.9052,591.4991 L734.1122,572.68243 Q708.01733,558.56995,713.19727,542.2533 L720.10376,520.49774 Q725.2836,504.1811,746.19855,510.34833 L774.0851,518.5713 Q795,524.73846,795,549.0004 z" fill="url(#gradient_face44)" stroke="none" stroke-width="0"/>
<path d="M800,614 L800,728 L680,630 L695,568 L702,561 z" fill="none" stroke="none" stroke-width="0"/>
<linearGradient id="gradient_face45" x1="0" x2="1.01" y1="0" y2="1.01">
<stop offset="0%" stop-color="#120E04FF"/>
<stop offset="100%" stop-color="#120E04FF"/>
</linearGradient>
<path d="M795,647.1246 L795,687.3169 Q795,717.4612,762.17993,690.6581 L718.4198,654.92065 Q685.5997,628.11755,689.77856,610.84485 L695.3504,587.8145 Q699.5293,570.54175,700.5405,569.5306 L701.8888,568.1823 Q702.89996,567.1711,730.52997,582.11383 L767.37,602.03754 Q795,616.9803,795,647.1246 z" fill="url(#gradient_face45)" stroke="none" stroke-width="0"/>
<path d="M800,800 L728,800 L632,683 L633,668 L680,630 L800,728 z" fill="none" stroke="none" stroke-width="0"/>
<linearGradient id="gradient_face46" x1="0" x2="1.01" y1="0" y2="1.01">
<stop offset="0%" stop-color="#120E04FF"/>
<stop offset="100%" stop-color="#120E04FF"/>
</linearGradient>
<path d="M775.60956,795 L749.7556,795 Q730.3651,795,702.3918,760.9075 L665.09393,715.45074 Q637.12054,681.35815,637.33746,678.10486 L637.62665,673.7671 Q637.8435,670.51373,650.4857,660.2924 L667.342,646.66394 Q679.9842,636.44257,714.48895,664.62146 L760.49524,702.1933 Q795,730.3722,795,749.7605 L795,775.61163 Q795,795,775.60956,795 z" fill="url(#gradient_face46)" stroke="none" stroke-width="0"/>
<path d="M728,800 L614,800 L581,739 L632,683 z" fill="none" stroke="none" stroke-width="0"/>
<linearGradient id="gradient_face47" x1="0" x2="1.01" y1="0" y2="1.01">
<stop offset="0%" stop-color="#120E04FF"/>
<stop offset="100%" stop-color="#120E04FF"/>
</linearGradient>
<path d="M687.2948,795 L647.1148,795 Q616.97986,795,608.01184,778.4228 L596.0545,756.3198 Q587.0865,739.74255,600.5014,725.01245 L618.38794,705.3723 Q631.80286,690.6423,657.4909,721.9496 L691.7417,763.6927 Q717.42975,795,687.2948,795 z" fill="url(#gradient_face47)" stroke="none" stroke-width="0"/>
<path d="M614,800 L521,800 L518,788 L534,737 L581,739 z" fill="none" stroke="none" stroke-width="0"/>
<linearGradient id="gradient_face48" x1="0" x2="1.01" y1="0" y2="1.01">
<stop offset="0%" stop-color="#120E04FF"/>
<stop offset="100%" stop-color="#120E04FF"/>
</linearGradient>
<path d="M581.3984,795 L549.1158,795 Q524.9039,795,524.3904,792.946 L523.7057,790.2073 Q523.1922,788.15326,527.5211,774.35486 L533.29297,755.95703 Q537.6219,742.1586,549.72107,742.6735 L565.8533,743.36 Q577.95245,743.8748,586.2498,759.2124 L597.3129,779.6625 Q605.6103,795,581.3984,795 z" fill="url(#gradient_face48)" stroke="none" stroke-width="0"/>
<path d="M521,800 L439,800 L438,786 L518,788 z" fill="none" stroke="none" stroke-width="0"/>
<linearGradient id="gradient_face49" x1="0" x2="1.01" y1="0" y2="1.01">
<stop offset="0%" stop-color="#120E04FF"/>
<stop offset="100%" stop-color="#120E04FF"/>
</linearGradient>
<path d="M493.31396,795 L464.93774,795 Q443.6556,795,443.57278,793.8408 L443.4624,792.2952 Q443.3796,791.13605,464.5873,791.66626 L492.86426,792.37317 Q514.07196,792.9034,514.2292,793.53235 L514.43884,794.37103 Q514.5961,795,493.31396,795 z" fill="url(#gradient_face49)" stroke="none" stroke-width="0"/>
<path d="M439,800 L361,800 L368,723 L390,717 L438,786 z" fill="none" stroke="none" stroke-width="0"/>
<linearGradient id="gradient_face50" x1="0" x2="1.01" y1="0" y2="1.01">
<stop offset="0%" stop-color="#120E04FF"/>
<stop offset="100%" stop-color="#120E04FF"/>
</linearGradient>
<path d="M413.48364,795 L386.62164,795 Q366.47516,795,368.33215,774.5731 L370.80814,747.3372 Q372.66513,726.9103,377.23883,725.6629 L383.33713,723.99976 Q387.91083,722.7524,401.47076,742.2448 L419.5507,768.2347 Q433.11063,787.7271,433.26648,789.909 L433.47427,792.8181 Q433.63013,795,413.48364,795 z" fill="url(#gradient_face50)" stroke="none" stroke-width="0"/>
<path d="M361,800 L279,800 L303,718 L317,715 L368,723 z" fill="none" stroke="none" stroke-width="0"/>
<linearGradient id="gradient_face51" x1="0" x2="1.01" y1="0" y2="1.01">
<stop offset="0%" stop-color="#120E04FF"/>
<stop offset="100%" stop-color="#120E04FF"/>
</linearGradient>
<path d="M335.2057,795 L306.9014,795 Q285.6732,795,292.0597,773.1794 L300.57507,744.0852 Q306.96158,722.2646,310.01544,721.6102 L314.08725,720.7377 Q317.14108,720.08325,330.77768,722.22235 L348.95978,725.07446 Q362.59634,727.2135,360.74762,747.54944 L358.28265,774.66406 Q356.43393,795,335.2057,795 z" fill="url(#gradient_face51)" stroke="none" stroke-width="0"/>
<path d="M279,800 L186,800 L236,707 L303,718 z" fill="none" stroke="none" stroke-width="0"/>
<linearGradient id="gradient_face52" x1="0" x2="1.01" y1="0" y2="1.01">
<stop offset="0%" stop-color="#120E04FF"/>
<stop offset="100%" stop-color="#120E04FF"/>
</linearGradient>
<path d="M250.98706,795 L218.63159,795 Q194.36499,795,207.66945,770.2537 L225.40872,737.25867 Q238.71317,712.5124,256.08344,715.3642 L279.2438,719.1667 Q296.6141,722.0185,290.20596,743.91296 L281.66177,773.1055 Q275.25366,795,250.98706,795 z" fill="url(#gradient_face52)" stroke="none" stroke-width="0"/>
<path d="M186,800 L72,800 L172,678 L205,681 L236,707 z" fill="none" stroke="none" stroke-width="0"/>
<linearGradient id="gradient_face53" x1="0" x2="1.01" y1="0" y2="1.01">
<stop offset="0%" stop-color="#120E04FF"/>
<stop offset="100%" stop-color="#120E04FF"/>
</linearGradient>
<path d="M152.87697,795 L112.69778,795 Q82.563385,795,110.050415,761.4658 L146.69978,716.7536 Q174.18681,683.2194,182.82693,684.0049 L194.34709,685.0522 Q202.98721,685.83765,210.99184,692.5512 L221.66469,701.5026 Q229.66933,708.2162,215.67194,734.25134 L197.00874,768.96484 Q183.01135,795,152.87697,795 z" fill="url(#gradient_face53)" stroke="none" stroke-width="0"/>
<path d="M0,800 L0,728 L116,633 L172,678 L72,800 z" fill="none" stroke="none" stroke-width="0"/>
<linearGradient id="gradient_face54" x1="0" x2="1.01" y1="0" y2="1.01">
<stop offset="0%" stop-color="#120E04FF"/>
<stop offset="100%" stop-color="#120E04FF"/>
</linearGradient>
<path d="M5,775.6104 L5,749.75757 Q5,730.368,38.308968,703.08905 L82.720924,666.7172 Q116.029884,639.4383,130.70067,651.22736 L150.2617,666.94604 Q164.93248,678.73505,136.34274,713.6145 L98.223076,760.1205 Q69.63333,795,50.243336,795 L24.390001,795 Q5,795,5,775.6104 z" fill="url(#gradient_face54)" stroke="none" stroke-width="0"/>
<path d="M0,728 L0,614 L56,584 L112,610 L116,633 z" fill="none" stroke="none" stroke-width="0"/>
<linearGradient id="gradient_face55" x1="0" x2="1.01" y1="0" y2="1.01">
<stop offset="0%" stop-color="#120E04FF"/>
<stop offset="100%" stop-color="#120E04FF"/>
</linearGradient>
<path d="M5,687.3078 L5,647.1283 Q5,616.9937,20.347897,608.7716 L40.811756,597.80884 Q56.159653,589.58673,71.56839,596.7408 L92.113365,606.27954 Q107.522095,613.4336,108.437614,618.6978 L109.65831,625.7168 Q110.57383,630.9811,78.90168,656.91943 L36.67215,691.50397 Q5,717.4424,5,687.3078 z" fill="url(#gradient_face55)" stroke="none" stroke-width="0"/>
<path d="M0,614 L0,521 L35,511 L45,512 L56,584 z" fill="none" stroke="none" stroke-width="0"/>
<linearGradient id="gradient_face56" x1="0" x2="1.01" y1="0" y2="1.01">
<stop offset="0%" stop-color="#120E04FF"/>
<stop offset="100%" stop-color="#120E04FF"/>
</linearGradient>
<path d="M5,581.38586 L5,549.0348 Q5,524.7715,14.136221,522.16113 L26.317848,518.68066 Q35.454067,516.0704,37.010784,516.226 L39.086403,516.4336 Q40.64312,516.58923,43.607265,535.9909 L47.55946,561.8598 Q50.5236,581.26154,36.866524,588.5778 L18.657082,598.3329 Q5,605.6492,5,581.38586 z" fill="url(#gradient_face56)" stroke="none" stroke-width="0"/>
<path d="M0,521 L0,461 L35,511 z" fill="none" stroke="none" stroke-width="0"/>
<linearGradient id="gradient_face57" x1="0" x2="1.01" y1="0" y2="1.01">
<stop offset="0%" stop-color="#120E04FF"/>
<stop offset="100%" stop-color="#120E04FF"/>
</linearGradient>
<path d="M5,503.1185 L5,488.1147 Q5,476.86182,11.564167,486.2392 L20.31639,498.74237 Q26.880556,508.11975,20.31639,509.99524 L11.564167,512.49585 Q5,514.37134,5,503.1185 z" fill="url(#gradient_face57)" stroke="none" stroke-width="0"/>
<path d="M0,430 L0,361 L77,368 L78,370 z" fill="none" stroke="none" stroke-width="0"/>
<linearGradient id="gradient_face58" x1="0" x2="1.01" y1="0" y2="1.01">
<stop offset="0%" stop-color="#120E04FF"/>
<stop offset="100%" stop-color="#120E04FF"/>
</linearGradient>
<path d="M5,403.83453 L5,382.48633 Q5,366.47516,25.632044,368.3508 L53.141434,370.85165 Q73.773476,372.7273,73.14685,371.47403 L72.31134,369.803 Q71.68471,368.54974,51.679295,383.93854 L25.005413,404.4569 Q5,419.84567,5,403.83453 z" fill="url(#gradient_face58)" stroke="none" stroke-width="0"/>
<path d="M0,361 L0,279 L82,303 L77,368 z" fill="none" stroke="none" stroke-width="0"/>
<linearGradient id="gradient_face59" x1="0" x2="1.01" y1="0" y2="1.01">
<stop offset="0%" stop-color="#120E04FF"/>
<stop offset="100%" stop-color="#120E04FF"/>
</linearGradient>
<path d="M5,335.2057 L5,306.9014 Q5,285.6732,26.511116,291.96912 L55.192604,300.36368 Q76.70372,306.65964,75.41367,323.4302 L73.69362,345.79095 Q72.40357,362.56152,52.182503,360.72324 L25.221071,358.27222 Q5,356.43393,5,335.2057 z" fill="url(#gradient_face59)" stroke="none" stroke-width="0"/>
<path d="M0,279 L0,186 L92,235 L90,288 L82,303 z" fill="none" stroke="none" stroke-width="0"/>
<linearGradient id="gradient_face60" x1="0" x2="1.01" y1="0" y2="1.01">
<stop offset="0%" stop-color="#120E04FF"/>
<stop offset="100%" stop-color="#120E04FF"/>
</linearGradient>
<path d="M5,250.97597 L5,218.6057 Q5,194.328,29.56564,207.41188 L62.319824,224.85704 Q86.88546,237.94092,86.3339,252.55724 L85.59849,272.0457 Q85.04693,286.66202,83.3834,289.78113 L81.16536,293.93994 Q79.50183,297.05908,57.15128,290.51746 L27.35055,281.7953 Q5,275.25366,5,250.97597 z" fill="url(#gradient_face60)" stroke="none" stroke-width="0"/>
<path d="M0,186 L0,72 L129,177 L129,178 L92,235 z" fill="none" stroke="none" stroke-width="0"/>
<linearGradient id="gradient_face61" x1="0" x2="1.01" y1="0" y2="1.01">
<stop offset="0%" stop-color="#120E04FF"/>
<stop offset="100%" stop-color="#120E04FF"/>
</linearGradient>
<path d="M5,152.85367 L5,112.66112 Q5,82.51671,40.7,111.574844 L88.3,150.31903 Q124,179.37717,124,178.51987 L124,177.37679 Q124,176.51947,113.890884,192.09299 L100.412056,212.85767 Q90.30294,228.43117,64.71206,214.80124 L30.590881,196.628 Q5,182.99808,5,152.85367 z" fill="url(#gradient_face61)" stroke="none" stroke-width="0"/>
<path d="M0,0 L72,0 L163,111 L129,177 L0,72 z" fill="none" stroke="none" stroke-width="0"/>
<linearGradient id="gradient_face62" x1="0" x2="1.01" y1="0" y2="1.01">
<stop offset="0%" stop-color="#120E04FF"/>
<stop offset="100%" stop-color="#120E04FF"/>
</linearGradient>
<path d="M24.390081,5 L50.243523,5 Q69.633606,5,95.858826,36.989002 L130.82578,79.641 Q157.051,111.630005,148.14885,128.91064 L136.27931,151.9515 Q127.37716,169.23215,90.66402,139.34935 L41.71315,99.50562 Q5,69.62283,5,50.23598 L5,24.386848 Q5,5,24.390081,5 z" fill="url(#gradient_face62)" stroke="none" stroke-width="0"/>
<path d="M72,0 L186,0 L219,61 L213,93 L163,111 z" fill="none" stroke="none" stroke-width="0"/>
<linearGradient id="gradient_face63" x1="0" x2="1.01" y1="0" y2="1.01">
<stop offset="0%" stop-color="#120E04FF"/>
<stop offset="100%" stop-color="#120E04FF"/>
</linearGradient>
<path d="M112.70126,5 L152.88348,5 Q183.02016,5,192.24182,22.046116 L204.53738,44.77427 Q213.75905,61.820385,212.21529,70.05381 L210.15692,81.03171 Q208.61316,89.26513,195.4177,94.015495 L177.82376,100.34932 Q164.6283,105.09968,140.00919,75.06978 L107.1837,35.029903 Q82.56459,5,112.70126,5 z" fill="url(#gradient_face63)" stroke="none" stroke-width="0"/>
<path d="M186,0 L279,0 L286,25 L219,61 z" fill="none" stroke="none" stroke-width="0"/>
<linearGradient id="gradient_face64" x1="0" x2="1.01" y1="0" y2="1.01">
<stop offset="0%" stop-color="#120E04FF"/>
<stop offset="100%" stop-color="#120E04FF"/>
</linearGradient>
<path d="M218.63509,5 L250.9623,5 Q275.2077,5,276.67697,10.24738 L278.636,17.243887 Q280.10526,22.491268,262.3813,32.01459 L238.74934,44.712353 Q221.02538,54.235676,213.03467,39.464973 L202.38039,19.770702 Q194.38968,5,218.63509,5 z" fill="url(#gradient_face64)" stroke="none" stroke-width="0"/>
<path d="M279,0 L344,0 L324,47 L286,25 z" fill="none" stroke="none" stroke-width="0"/>
<linearGradient id="gradient_face65" x1="0" x2="1.01" y1="0" y2="1.01">
<stop offset="0%" stop-color="#120E04FF"/>
<stop offset="100%" stop-color="#120E04FF"/>
</linearGradient>
<path d="M300.84616,5 L321.18463,5 Q336.43848,5,331.99075,15.452125 L326.0605,29.38829 Q321.61276,39.840416,312.20877,34.396008 L299.67014,27.136797 Q290.26617,21.692389,288.864,16.684671 L286.99448,10.007716 Q285.59232,5,300.84616,5 z" fill="url(#gradient_face65)" stroke="none" stroke-width="0"/>
<path d="M390,0 L439,0 L435,43 z" fill="none" stroke="none" stroke-width="0"/>
<linearGradient id="gradient_face66" x1="0" x2="1.01" y1="0" y2="1.01">
<stop offset="0%" stop-color="#120E04FF"/>
<stop offset="100%" stop-color="#120E04FF"/>
</linearGradient>
<path d="M411.78296,5 L424.2003,5 Q433.5133,5,432.75305,13.17264 L431.73938,24.069492 Q430.97916,32.24213,422.4264,24.069492 L411.0227,13.17264 Q402.46994,5,411.78296,5 z" fill="url(#gradient_face66)" stroke="none" stroke-width="0"/>
<path d="M439,0 L521,0 L498,78 L443,81 L435,43 z" fill="none" stroke="none" stroke-width="0"/>
<linearGradient id="gradient_face67" x1="0" x2="1.01" y1="0" y2="1.01">
<stop offset="0%" stop-color="#120E04FF"/>
<stop offset="100%" stop-color="#120E04FF"/>
</linearGradient>
<path d="M464.78336,5 L493.0859,5 Q514.3128,5,508.27975,25.45991 L500.2357,52.739788 Q494.20264,73.1997,480.04465,73.97195 L461.16736,75.001625 Q447.00937,75.77387,444.9211,65.85473 L442.1368,52.629196 Q440.04855,42.710045,441.10092,31.397032 L442.5041,16.313013 Q443.55646,5,464.78336,5 z" fill="url(#gradient_face67)" stroke="none" stroke-width="0"/>
<path d="M521,0 L614,0 L563,95 L540,97 L498,78 z" fill="none" stroke="none" stroke-width="0"/>
<linearGradient id="gradient_face68" x1="0" x2="1.01" y1="0" y2="1.01">
<stop offset="0%" stop-color="#120E04FF"/>
<stop offset="100%" stop-color="#120E04FF"/>
</linearGradient>
<path d="M549.0092,5 L581.3701,5 Q605.64087,5,591.91064,30.575901 L573.60364,64.6771 Q559.8734,90.253006,554.17224,90.748764 L546.5707,91.40977 Q540.8695,91.905525,529.8168,86.90548 L515.0798,80.238754 Q504.02707,75.23871,510.2405,54.167095 L518.5251,26.071611 Q524.73846,5,549.0092,5 z" fill="url(#gradient_face68)" stroke="none" stroke-width="0"/>
<path d="M614,0 L728,0 L627,123 L563,95 z" fill="none" stroke="none" stroke-width="0"/>
<linearGradient id="gradient_face69" x1="0" x2="1.01" y1="0" y2="1.01">
<stop offset="0%" stop-color="#120E04FF"/>
<stop offset="100%" stop-color="#120E04FF"/>
</linearGradient>
<path d="M647.1209,5 L687.29443,5 Q717.4246,5,689.8584,38.57074 L653.10345,83.331726 Q625.53723,116.902466,608.8665,109.60903 L586.6389,99.884445 Q569.9682,92.591,584.07495,66.313705 L602.884,31.277302 Q616.9907,5,647.1209,5 z" fill="url(#gradient_face69)" stroke="none" stroke-width="0"/>
<path d="M800,0 L800,72 L690,162 L644,151 L627,123 L728,0 z" fill="none" stroke="none" stroke-width="0"/>
<linearGradient id="gradient_face70" x1="0" x2="1.01" y1="0" y2="1.01">
<stop offset="0%" stop-color="#120E04FF"/>
<stop offset="100%" stop-color="#120E04FF"/>
</linearGradient>
<path d="M795,24.389181 L795,50.241425 Q795,69.63061,763.1257,95.70962 L720.6265,130.48163 Q688.7522,156.56064,676.28394,153.5791 L659.65967,149.60373 Q647.19147,146.62221,642.96796,139.66583 L637.3366,130.39066 Q633.1131,123.43427,662.2883,87.90399 L701.1887,40.53028 Q730.364,5,749.75476,5 L775.6092,5 Q795,5,795,24.389181 z" fill="url(#gradient_face70)" stroke="none" stroke-width="0"/>
<path d="M800,72 L800,186 L729,224 L690,162 z" fill="none" stroke="none" stroke-width="0"/>
<linearGradient id="gradient_face71" x1="0" x2="1.01" y1="0" y2="1.01">
<stop offset="0%" stop-color="#120E04FF"/>
<stop offset="100%" stop-color="#120E04FF"/>
</linearGradient>
<path d="M795,112.68734 L795,152.86884 Q795,183.00496,775.7251,193.3211 L750.02527,207.07596 Q730.75037,217.39209,720.50006,201.09679 L706.83307,179.3697 Q696.58276,163.0744,726.108,138.91743 L765.47485,106.70817 Q795,82.551216,795,112.68734 z" fill="url(#gradient_face71)" stroke="none" stroke-width="0"/>
<path d="M800,186 L800,279 L788,282 L727,235 L729,224 z" fill="none" stroke="none" stroke-width="0"/>
<linearGradient id="gradient_face72" x1="0" x2="1.01" y1="0" y2="1.01">
<stop offset="0%" stop-color="#120E04FF"/>
<stop offset="100%" stop-color="#120E04FF"/>
</linearGradient>
<path d="M795,218.57184 L795,250.87143 Q795,275.09613,793.2405,275.536 L790.8944,276.12253 Q789.1349,276.5624,772.13367,263.4631 L749.46533,245.99738 Q732.4642,232.89807,732.7712,231.20944 L733.18054,228.95793 Q733.48755,227.2693,751.9413,217.39265 L776.54626,204.2238 Q795,194.34715,795,218.57184 z" fill="url(#gradient_face72)" stroke="none" stroke-width="0"/>
<path d="M800,279 L800,361 L757,365 L788,282 z" fill="none" stroke="none" stroke-width="0"/>
<linearGradient id="gradient_face73" x1="0" x2="1.01" y1="0" y2="1.01">
<stop offset="0%" stop-color="#120E04FF"/>
<stop offset="100%" stop-color="#120E04FF"/>
</linearGradient>
<path d="M795,306.7158 L795,335.13162 Q795,356.44354,785.84174,357.29547 L773.63074,358.43137 Q764.47253,359.2833,772.6599,337.36218 L783.5765,308.13403 Q791.76385,286.21292,792.7347,285.9702 L794.0292,285.6466 Q795,285.40387,795,306.7158 z" fill="url(#gradient_face73)" stroke="none" stroke-width="0"/>
<circle cx="400" cy="400" fill="none" r="0" stroke="none" stroke-width="0"/>
<circle cx="399" cy="409" fill="none" r="0" stroke="none" stroke-width="0"/>
<circle cx="381" cy="397" fill="none" r="0" stroke="none" stroke-width="0"/>
<circle cx="406" cy="372" fill="none" r="0" stroke="none" stroke-width="0"/>
<circle cx="436" cy="411" fill="none" r="0" stroke="none" stroke-width="0"/>
<circle cx="383" cy="444" fill="none" r="0" stroke="none" stroke-width="0"/>
<circle cx="349" cy="375" fill="none" r="0" stroke="none" stroke-width="0"/>
<circle cx="433" cy="342" fill="none" r="0" stroke="none" stroke-width="0"/>
<circle cx="463" cy="443" fill="none" r="0" stroke="none" stroke-width="0"/>
<circle cx="347" cy="467" fill="none" r="0" stroke="none" stroke-width="0"/>
<circle cx="330" cy="335" fill="none" r="0" stroke="none" stroke-width="0"/>
<circle cx="477" cy="329" fill="none" r="0" stroke="none" stroke-width="0"/>
<circle cx="471" cy="489" fill="none" r="0" stroke="none" stroke-width="0"/>
<circle cx="298" cy="470" fill="none" r="0" stroke="none" stroke-width="0"/>
<circle cx="333" cy="285" fill="none" r="0" stroke="none" stroke-width="0"/>
<circle cx="529" cy="338" fill="none" r="0" stroke="none" stroke-width="0"/>
<circle cx="456" cy="542" fill="none" r="0" stroke="none" stroke-width="0"/>
<circle cx="245" cy="448" fill="none" r="0" stroke="none" stroke-width="0"/>
<circle cx="362" cy="233" fill="none" r="0" stroke="none" stroke-width="0"/>
<circle cx="579" cy="373" fill="none" r="0" stroke="none" stroke-width="0"/>
<circle cx="414" cy="590" fill="none" r="0" stroke="none" stroke-width="0"/>
<circle cx="200" cy="400" fill="none" r="0" stroke="none" stroke-width="0"/>
<circle cx="416" cy="191" fill="none" r="0" stroke="none" stroke-width="0"/>
<circle cx="617" cy="433" fill="none" r="0" stroke="none" stroke-width="0"/>
<circle cx="349" cy="623" fill="none" r="0" stroke="none" stroke-width="0"/>
<circle cx="172" cy="330" fill="none" r="0" stroke="none" stroke-width="0"/>
<circle cx="490" cy="169" fill="none" r="0" stroke="none" stroke-width="0"/>
<circle cx="632" cy="512" fill="none" r="0" stroke="none" stroke-width="0"/>
<circle cx="267" cy="631" fill="none" r="0" stroke="none" stroke-width="0"/>
<circle cx="172" cy="244" fill="none" r="0" stroke="none" stroke-width="0"/>
<circle cx="578" cy="177" fill="none" r="0" stroke="none" stroke-width="0"/>
<circle cx="616" cy="601" fill="none" r="0" stroke="none" stroke-width="0"/>
<circle cx="177" cy="607" fill="none" r="0" stroke="none" stroke-width="0"/>
<circle cx="204" cy="154" fill="none" r="0" stroke="none" stroke-width="0"/>
<circle cx="668" cy="218" fill="none" r="0" stroke="none" stroke-width="0"/>
<circle cx="567" cy="689" fill="none" r="0" stroke="none" stroke-width="0"/>
<circle cx="91" cy="549" fill="none" r="0" stroke="none" stroke-width="0"/>
<circle cx="271" cy="72" fill="none" r="0" stroke="none" stroke-width="0"/>
<circle cx="746" cy="293" fill="none" r="0" stroke="none" stroke-width="0"/>
<circle cx="483" cy="762" fill="none" r="0" stroke="none" stroke-width="0"/>
<circle cx="23" cy="457" fill="none" r="0" stroke="none" stroke-width="0"/>
<circle cx="371" cy="11" fill="none" r="0" stroke="none" stroke-width="0"/>
<circle cx="820" cy="400" fill="none" r="0" stroke="none" stroke-width="0"/>
<circle cx="812" cy="482" fill="none" r="0" stroke="none" stroke-width="0"/>
<circle cx="788" cy="561" fill="none" r="0" stroke="none" stroke-width="0"/>
<circle cx="749" cy="633" fill="none" r="0" stroke="none" stroke-width="0"/>
<circle cx="697" cy="697" fill="none" r="0" stroke="none" stroke-width="0"/>
<circle cx="633" cy="749" fill="none" r="0" stroke="none" stroke-width="0"/>
<circle cx="561" cy="788" fill="none" r="0" stroke="none" stroke-width="0"/>
<circle cx="482" cy="812" fill="none" r="0" stroke="none" stroke-width="0"/>
<circle cx="400" cy="820" fill="none" r="0" stroke="none" stroke-width="0"/>
<circle cx="318" cy="812" fill="none" r="0" stroke="none" stroke-width="0"/>
<circle cx="239" cy="788" fill="none" r="0" stroke="none" stroke-width="0"/>
<circle cx="167" cy="749" fill="none" r="0" stroke="none" stroke-width="0"/>
<circle cx="103" cy="697" fill="none" r="0" stroke="none" stroke-width="0"/>
<circle cx="51" cy="633" fill="none" r="0" stroke="none" stroke-width="0"/>
<circle cx="12" cy="561" fill="none" r="0" stroke="none" stroke-width="0"/>
<circle cx="-12" cy="482" fill="none" r="0" stroke="none" stroke-width="0"/>
<circle cx="-20" cy="400" fill="none" r="0" stroke="none" stroke-width="0"/>
<circle cx="-12" cy="318" fill="none" r="0" stroke="none" stroke-width="0"/>
<circle cx="12" cy="239" fill="none" r="0" stroke="none" stroke-width="0"/>
<circle cx="51" cy="167" fill="none" r="0" stroke="none" stroke-width="0"/>
<circle cx="103" cy="103" fill="none" r="0" stroke="none" stroke-width="0"/>
<circle cx="167" cy="51" fill="none" r="0" stroke="none" stroke-width="0"/>
<circle cx="239" cy="12" fill="none" r="0" stroke="none" stroke-width="0"/>
<circle cx="318" cy="-12" fill="none" r="0" stroke="none" stroke-width="0"/>
<circle cx="400" cy="-20" fill="none" r="0" stroke="none" stroke-width="0"/>
<circle cx="482" cy="-12" fill="none" r="0" stroke="none" stroke-width="0"/>
<circle cx="561" cy="12" fill="none" r="0" stroke="none" stroke-width="0"/>
<circle cx="633" cy="51" fill="none" r="0" stroke="none" stroke-width="0"/>
<circle cx="697" cy="103" fill="none" r="0" stroke="none" stroke-width="0"/>
<circle cx="749" cy="167" fill="none" r="0" stroke="none" stroke-width="0"/>
<circle cx="788" cy="239" fill="none" r="0" stroke="none" stroke-width="0"/>
<circle cx="812" cy="318" fill="none" r="0" stroke="none" stroke-width="0"/>
<circle cx="518" cy="788" fill="none" r="0" stroke="none" stroke-width="0"/>
<circle cx="438" cy="786" fill="none" r="0" stroke="none" stroke-width="0"/>
<circle cx="581" cy="739" fill="none" r="0" stroke="none" stroke-width="0"/>
<circle cx="534" cy="737" fill="none" r="0" stroke="none" stroke-width="0"/>
<circle cx="236" cy="707" fill="none" r="0" stroke="none" stroke-width="0"/>
<circle cx="303" cy="718" fill="none" r="0" stroke="none" stroke-width="0"/>
<circle cx="368" cy="723" fill="none" r="0" stroke="none" stroke-width="0"/>
<circle cx="632" cy="683" fill="none" r="0" stroke="none" stroke-width="0"/>
<circle cx="317" cy="715" fill="none" r="0" stroke="none" stroke-width="0"/>
<circle cx="390" cy="717" fill="none" r="0" stroke="none" stroke-width="0"/>
<circle cx="172" cy="678" fill="none" r="0" stroke="none" stroke-width="0"/>
<circle cx="205" cy="681" fill="none" r="0" stroke="none" stroke-width="0"/>
<circle cx="633" cy="668" fill="none" r="0" stroke="none" stroke-width="0"/>
<circle cx="422" cy="686" fill="none" r="0" stroke="none" stroke-width="0"/>
<circle cx="473" cy="666" fill="none" r="0" stroke="none" stroke-width="0"/>
<circle cx="116" cy="633" fill="none" r="0" stroke="none" stroke-width="0"/>
<circle cx="680" cy="630" fill="none" r="0" stroke="none" stroke-width="0"/>
<circle cx="112" cy="610" fill="none" r="0" stroke="none" stroke-width="0"/>
<circle cx="56" cy="584" fill="none" r="0" stroke="none" stroke-width="0"/>
<circle cx="501" cy="623" fill="none" r="0" stroke="none" stroke-width="0"/>
<circle cx="523" cy="606" fill="none" r="0" stroke="none" stroke-width="0"/>
<circle cx="695" cy="568" fill="none" r="0" stroke="none" stroke-width="0"/>
<circle cx="702" cy="561" fill="none" r="0" stroke="none" stroke-width="0"/>
<circle cx="301" cy="554" fill="none" r="0" stroke="none" stroke-width="0"/>
<circle cx="351" cy="545" fill="none" r="0" stroke="none" stroke-width="0"/>
<circle cx="326" cy="545" fill="none" r="0" stroke="none" stroke-width="0"/>
<circle cx="35" cy="511" fill="none" r="0" stroke="none" stroke-width="0"/>
<circle cx="387" cy="525" fill="none" r="0" stroke="none" stroke-width="0"/>
<circle cx="45" cy="512" fill="none" r="0" stroke="none" stroke-width="0"/>
<circle cx="546" cy="543" fill="none" r="0" stroke="none" stroke-width="0"/>
<circle cx="242" cy="543" fill="none" r="0" stroke="none" stroke-width="0"/>
<circle cx="546" cy="540" fill="none" r="0" stroke="none" stroke-width="0"/>
<circle cx="238" cy="539" fill="none" r="0" stroke="none" stroke-width="0"/>
<circle cx="398" cy="509" fill="none" r="0" stroke="none" stroke-width="0"/>
<circle cx="410" cy="500" fill="none" r="0" stroke="none" stroke-width="0"/>
<circle cx="423" cy="474" fill="none" r="0" stroke="none" stroke-width="0"/>
<circle cx="178" cy="513" fill="none" r="0" stroke="none" stroke-width="0"/>
<circle cx="423" cy="450" fill="none" r="0" stroke="none" stroke-width="0"/>
<circle cx="722" cy="498" fill="none" r="0" stroke="none" stroke-width="0"/>
<circle cx="417" cy="439" fill="none" r="0" stroke="none" stroke-width="0"/>
<circle cx="554" cy="486" fill="none" r="0" stroke="none" stroke-width="0"/>
<circle cx="378" cy="421" fill="none" r="0" stroke="none" stroke-width="0"/>
<circle cx="390" cy="404" fill="none" r="0" stroke="none" stroke-width="0"/>
<circle cx="159" cy="484" fill="none" r="0" stroke="none" stroke-width="0"/>
<circle cx="418" cy="406" fill="none" r="0" stroke="none" stroke-width="0"/>
<circle cx="343" cy="422" fill="none" r="0" stroke="none" stroke-width="0"/>
<circle cx="341" cy="421" fill="none" r="0" stroke="none" stroke-width="0"/>
<circle cx="541" cy="453" fill="none" r="0" stroke="none" stroke-width="0"/>
<circle cx="319" cy="421" fill="none" r="0" stroke="none" stroke-width="0"/>
<circle cx="393" cy="384" fill="none" r="0" stroke="none" stroke-width="0"/>
<circle cx="423" cy="391" fill="none" r="0" stroke="none" stroke-width="0"/>
<circle cx="540" cy="439" fill="none" r="0" stroke="none" stroke-width="0"/>
<circle cx="121" cy="456" fill="none" r="0" stroke="none" stroke-width="0"/>
<circle cx="715" cy="455" fill="none" r="0" stroke="none" stroke-width="0"/>
<circle cx="293" cy="407" fill="none" r="0" stroke="none" stroke-width="0"/>
<circle cx="441" cy="376" fill="none" r="0" stroke="none" stroke-width="0"/>
<circle cx="377" cy="368" fill="none" r="0" stroke="none" stroke-width="0"/>
<circle cx="519" cy="405" fill="none" r="0" stroke="none" stroke-width="0"/>
<circle cx="467" cy="375" fill="none" r="0" stroke="none" stroke-width="0"/>
<circle cx="494" cy="390" fill="none" r="0" stroke="none" stroke-width="0"/>
<circle cx="721" cy="432" fill="none" r="0" stroke="none" stroke-width="0"/>
<circle cx="493" cy="388" fill="none" r="0" stroke="none" stroke-width="0"/>
<circle cx="277" cy="384" fill="none" r="0" stroke="none" stroke-width="0"/>
<circle cx="270" cy="378" fill="none" r="0" stroke="none" stroke-width="0"/>
<circle cx="102" cy="398" fill="none" r="0" stroke="none" stroke-width="0"/>
<circle cx="376" cy="339" fill="none" r="0" stroke="none" stroke-width="0"/>
<circle cx="757" cy="365" fill="none" r="0" stroke="none" stroke-width="0"/>
<circle cx="715" cy="394" fill="none" r="0" stroke="none" stroke-width="0"/>
<circle cx="383" cy="324" fill="none" r="0" stroke="none" stroke-width="0"/>
<circle cx="78" cy="370" fill="none" r="0" stroke="none" stroke-width="0"/>
<circle cx="77" cy="368" fill="none" r="0" stroke="none" stroke-width="0"/>
<circle cx="251" cy="339" fill="none" r="0" stroke="none" stroke-width="0"/>
<circle cx="673" cy="355" fill="none" r="0" stroke="none" stroke-width="0"/>
<circle cx="384" cy="313" fill="none" r="0" stroke="none" stroke-width="0"/>
<circle cx="788" cy="282" fill="none" r="0" stroke="none" stroke-width="0"/>
<circle cx="399" cy="287" fill="none" r="0" stroke="none" stroke-width="0"/>
<circle cx="252" cy="305" fill="none" r="0" stroke="none" stroke-width="0"/>
<circle cx="652" cy="312" fill="none" r="0" stroke="none" stroke-width="0"/>
<circle cx="82" cy="303" fill="none" r="0" stroke="none" stroke-width="0"/>
<circle cx="247" cy="287" fill="none" r="0" stroke="none" stroke-width="0"/>
<circle cx="90" cy="288" fill="none" r="0" stroke="none" stroke-width="0"/>
<circle cx="604" cy="284" fill="none" r="0" stroke="none" stroke-width="0"/>
<circle cx="431" cy="266" fill="none" r="0" stroke="none" stroke-width="0"/>
<circle cx="433" cy="266" fill="none" r="0" stroke="none" stroke-width="0"/>
<circle cx="590" cy="269" fill="none" r="0" stroke="none" stroke-width="0"/>
<circle cx="727" cy="235" fill="none" r="0" stroke="none" stroke-width="0"/>
<circle cx="473" cy="248" fill="none" r="0" stroke="none" stroke-width="0"/>
<circle cx="517" cy="252" fill="none" r="0" stroke="none" stroke-width="0"/>
<circle cx="729" cy="224" fill="none" r="0" stroke="none" stroke-width="0"/>
<circle cx="528" cy="250" fill="none" r="0" stroke="none" stroke-width="0"/>
<circle cx="92" cy="235" fill="none" r="0" stroke="none" stroke-width="0"/>
<circle cx="262" cy="226" fill="none" r="0" stroke="none" stroke-width="0"/>
<circle cx="271" cy="217" fill="none" r="0" stroke="none" stroke-width="0"/>
<circle cx="690" cy="162" fill="none" r="0" stroke="none" stroke-width="0"/>
<circle cx="129" cy="178" fill="none" r="0" stroke="none" stroke-width="0"/>
<circle cx="129" cy="177" fill="none" r="0" stroke="none" stroke-width="0"/>
<circle cx="644" cy="151" fill="none" r="0" stroke="none" stroke-width="0"/>
<circle cx="298" cy="163" fill="none" r="0" stroke="none" stroke-width="0"/>
<circle cx="163" cy="111" fill="none" r="0" stroke="none" stroke-width="0"/>
<circle cx="627" cy="123" fill="none" r="0" stroke="none" stroke-width="0"/>
<circle cx="335" cy="142" fill="none" r="0" stroke="none" stroke-width="0"/>
<circle cx="213" cy="93" fill="none" r="0" stroke="none" stroke-width="0"/>
<circle cx="563" cy="95" fill="none" r="0" stroke="none" stroke-width="0"/>
<circle cx="362" cy="108" fill="none" r="0" stroke="none" stroke-width="0"/>
<circle cx="540" cy="97" fill="none" r="0" stroke="none" stroke-width="0"/>
<circle cx="219" cy="61" fill="none" r="0" stroke="none" stroke-width="0"/>
<circle cx="428" cy="92" fill="none" r="0" stroke="none" stroke-width="0"/>
<circle cx="324" cy="47" fill="none" r="0" stroke="none" stroke-width="0"/>
<circle cx="498" cy="78" fill="none" r="0" stroke="none" stroke-width="0"/>
<circle cx="443" cy="81" fill="none" r="0" stroke="none" stroke-width="0"/>
<circle cx="286" cy="25" fill="none" r="0" stroke="none" stroke-width="0"/>
<circle cx="435" cy="43" fill="none" r="0" stroke="none" stroke-width="0"/>
<circle cx="0" cy="0" fill="none" r="0" stroke="none" stroke-width="0"/>
<circle cx="800" cy="0" fill="none" r="0" stroke="none" stroke-width="0"/>
<circle cx="800" cy="800" fill="none" r="0" stroke="none" stroke-width="0"/>
<circle cx="0" cy="800" fill="none" r="0" stroke="none" stroke-width="0"/>
<circle cx="0" cy="461" fill="none" r="0" stroke="none" stroke-width="0"/>
<circle cx="0" cy="430" fill="none" r="0" stroke="none" stroke-width="0"/>
<circle cx="344" cy="0" fill="none" r="0" stroke="none" stroke-width="0"/>
<circle cx="390" cy="0" fill="none" r="0" stroke="none" stroke-width="0"/>
<circle cx="800" cy="361" fill="none" r="0" stroke="none" stroke-width="0"/>
<circle cx="800" cy="439" fill="none" r="0" stroke="none" stroke-width="0"/>
<circle cx="800" cy="521" fill="none" r="0" stroke="none" stroke-width="0"/>
<circle cx="800" cy="614" fill="none" r="0" stroke="none" stroke-width="0"/>
<circle cx="800" cy="728" fill="none" r="0" stroke="none" stroke-width="0"/>
<circle cx="728" cy="800" fill="none" r="0" stroke="none" stroke-width="0"/>
<circle cx="614" cy="800" fill="none" r="0" stroke="none" stroke-width="0"/>
<circle cx="521" cy="800" fill="none" r="0" stroke="none" stroke-width="0"/>
<circle cx="439" cy="800" fill="none" r="0" stroke="none" stroke-width="0"/>
<circle cx="361" cy="800" fill="none" r="0" stroke="none" stroke-width="0"/>
<circle cx="279" cy="800" fill="none" r="0" stroke="none" stroke-width="0"/>
<circle cx="186" cy="800" fill="none" r="0" stroke="none" stroke-width="0"/>
<circle cx="72" cy="800" fill="none" r="0" stroke="none" stroke-width="0"/>
<circle cx="0" cy="728" fill="none" r="0" stroke="none" stroke-width="0"/>
<circle cx="0" cy="614" fill="none" r="0" stroke="none" stroke-width="0"/>
<circle cx="0" cy="521" fill="none" r="0" stroke="none" stroke-width="0"/>
<circle cx="0" cy="361" fill="none" r="0" stroke="none" stroke-width="0"/>
<circle cx="0" cy="279" fill="none" r="0" stroke="none" stroke-width="0"/>
<circle cx="0" cy="186" fill="none" r="0" stroke="none" stroke-width="0"/>
<circle cx="0" cy="72" fill="none" r="0" stroke="none" stroke-width="0"/>
<circle cx="72" cy="0" fill="none" r="0" stroke="none" stroke-width="0"/>
<circle cx="186" cy="0" fill="none" r="0" stroke="none" stroke-width="0"/>
<circle cx="279" cy="0" fill="none" r="0" stroke="none" stroke-width="0"/>
<circle cx="439" cy="0" fill="none" r="0" stroke="none" stroke-width="0"/>
<circle cx="521" cy="0" fill="none" r="0" stroke="none" stroke-width="0"/>
<circle cx="614" cy="0" fill="none" r="0" stroke="none" stroke-width="0"/>
<circle cx="728" cy="0" fill="none" r="0" stroke="none" stroke-width="0"/>
<circle cx="800" cy="72" fill="none" r="0" stroke="none" stroke-width="0"/>
<circle cx="800" cy="186" fill="none" r="0" stroke="none" stroke-width="0"/>
<circle cx="800" cy="279" fill="none" r="0" stroke="none" stroke-width="0"/>
</svg>